{
 "1": {
  "size": [
   612,
   792
  ],
  "fields": {
   "/form1[0]/#pageSet[0]/Page1[0]/ClearData_EN[0]": {
    "description": "Clear Data",
    "class": "checkbox",
    "bounding-box": [
     492.001,
     2.999,
     96.001,
     15.001
    ],
    "font-family": "Helvetica",
    "font-size": 10,
    "font-color": [
     0,
     0,
     0,
     1
    ],
    "align": "center",
    "align-v": "center"
   }
  }
 },
 "2": {
  "size": [
   612,
   792
  ],
  "fields": {
   "/form1[0]/#pageSet[0]/Page1[1]/ClearData_EN[0]": {
    "description": "Clear Data",
    "class": "checkbox",
    "bounding-box": [
     492.001,
     2.999,
     96.001,
     15.001
    ],
    "font-family": "Helvetica",
    "font-size": 10,
    "font-color": [
     0,
     0,
     0,
     1
    ],
    "align": "center",
    "align-v": "center"
   },
   "/form1[0]/Page2[0]/Part1-Continued[0]/Election-Evocation[0]/Line50372[0]/Month_grp[0]/Stop-Month[0]": {
    "description": "Part 1. Line 50372. I elect to stop contributing to the Canada Pension Plan on my self-employment earnings on the first day of the month entered on line 50372. Month. 2 digits.",
    "class": "text",
    "bounding-box": [
     498.722,
     285.721,
     34.56,
     10.562
    ],
    "font-family": "Helvetica-Bold",
    "font-size": 9,
    "font-color": [
     0,
     0,
     0.502,
     1
    ],
    "max-length": 13,
    "origin": [
     515.282,
     294.283
    ],
    "character-spacing": 17.28,
    "align": "decimal",
    "align-v": "center",
    "aliases": {
     "stable": 50372
    },
    "format": ".2f"
   },
   "/form1[0]/Page2[0]/Part1-Continued[0]/Election-Evocation[0]/Line50374[0]/Month_grp[0]/Revoke-Month[0]": {
    "description": "Part 1. Line 50374. I want to revoke an election made in a previous year to stop contributing to the Canada Pension Plan on my self-employment earnings and resume contributing on the first day of the month entered on line 50374. Month. 2 digits.",
    "class": "text",
    "bounding-box": [
     498.722,
     324.72,
     34.56,
     10.562
    ],
    "font-family": "Helvetica-Bold",
    "font-size": 9,
    "font-color": [
     0,
     0,
     0.502,
     1
    ],
    "max-length": 13,
    "origin": [
     515.282,
     333.282
    ],
    "character-spacing": 17.28,
    "align": "decimal",
    "align-v": "center",
    "aliases": {
     "stable": 50374
    },
    "format": ".2f"
   },
   "/form1[0]/Page2[0]/Part2[0]/LineA[0]/Number[0]": {
    "description": "Part 2. Line A. Enter the number of months that Canada pension plan applied in 2023.",
    "class": "text",
    "bounding-box": [
     489.722,
     669.719,
     25.56,
     10.559
    ],
    "font-family": "Helvetica-Bold",
    "font-size": 8,
    "font-color": [
     0,
     0,
     0.502,
     1
    ],
    "align": "center",
    "align-v": "center"
   }
  }
 },
 "3": {
  "size": [
   612,
   792
  ],
  "fields": {
   "/form1[0]/#pageSet[0]/Page1[2]/ClearData_EN[0]": {
    "description": "Clear Data",
    "class": "checkbox",
    "bounding-box": [
     492.001,
     2.999,
     96.001,
     15.001
    ],
    "font-family": "Helvetica",
    "font-size": 10,
    "font-color": [
     0,
     0,
     0,
     1
    ],
    "align": "center",
    "align-v": "center"
   },
   "/form1[0]/Page3[0]/Monthly-Proration_Table[0]/Table[0]/HeaderRow1[0]/Note1[0]": {
    "description": "Note1",
    "class": "checkbox",
    "bounding-box": [
     270.003,
     96.001,
     36,
     11.999
    ],
    "font-family": "Helvetica",
    "font-size": 10,
    "font-color": [
     0,
     0,
     0,
     1
    ],
    "align": "center",
    "align-v": "center"
   },
   "/form1[0]/Page3[0]/Monthly-Proration_Table[0]/Table[0]/HeaderRow2[0]/Note1[0]": {
    "description": "Note1",
    "class": "checkbox",
    "bounding-box": [
     549.003,
     96.001,
     36,
     11.999
    ],
    "font-family": "Helvetica",
    "font-size": 10,
    "font-color": [
     0,
     0,
     0,
     1
    ],
    "align": "center",
    "align-v": "center"
   },
   "/form1[0]/Page3[0]/Part3[0]/Line1[0]/Amount[0]": {
    "description": "Part 3. Line 1. Enter your maximum Canada pension plan pensionable earnings from the monthly proration table above using the number of months from line A of Part 2. Maximum $66,600.",
    "class": "text",
    "bounding-box": [
     489.002,
     246.002,
     81,
     23.281
    ],
    "font-family": "Helvetica-Bold",
    "font-size": 9,
    "font-color": [
     0,
     0,
     0.502,
     1
    ],
    "align": "decimal",
    "align-v": "center",
    "aliases": {
     "line": 3.01
    },
    "origin": [
     552.002,
     267.283
    ],
    "format": ".2f",
    "max-length": 13
   },
   "/form1[0]/Page3[0]/Part3[0]/Line2[0]/Amount[0]": {
    "description": "Part 3. Line 50339. Line 2. Total Canada pension plan pensionable earnings. Enter the total from box 26 of all your T4 slips. Maximum $66,600 per slip. If box 26 is blank, enter the amount from box 14.",
    "class": "text",
    "bounding-box": [
     489.002,
     279,
     81,
     35.28
    ],
    "font-family": "Helvetica-Bold",
    "font-size": 9,
    "font-color": [
     0,
     0,
     0.502,
     1
    ],
    "align": "decimal",
    "align-v": "center",
    "aliases": {
     "stable": 50339
    },
    "origin": [
     552.002,
     312.28
    ],
    "format": ".2f",
    "max-length": 13
   },
   "/form1[0]/Page3[0]/Part3[0]/Line3[0]/Amount[0]": {
    "description": "Part 3. Line 3. Enter whichever is less. Amount from line 1 or line 2. ",
    "class": "text",
    "bounding-box": [
     489.002,
     324,
     81,
     11.279
    ],
    "font-family": "Helvetica-Bold",
    "font-size": 9,
    "font-color": [
     0,
     0,
     0.502,
     1
    ],
    "align": "decimal",
    "align-v": "center",
    "aliases": {
     "line": 3.03
    },
    "origin": [
     552.002,
     333.279
    ],
    "format": ".2f",
    "max-length": 13
   },
   "/form1[0]/Page3[0]/Part3[0]/Line4[0]/Amount[0]": {
    "description": "Part 3. Line 4. Enter your maximum basic Canada pension plan exemption from the monthly proration table above using the number of months from line A of Part 2. Maximum $3,500.",
    "class": "text",
    "bounding-box": [
     501.001,
     339.001,
     69.001,
     23.281
    ],
    "font-family": "Helvetica-Bold",
    "font-size": 9,
    "font-color": [
     0,
     0,
     0.502,
     1
    ],
    "align": "decimal",
    "align-v": "center",
    "aliases": {
     "line": 3.04
    },
    "origin": [
     552.002,
     360.282
    ],
    "format": ".2f",
    "max-length": 13
   },
   "/form1[0]/Page3[0]/Part3[0]/Line5[0]/Amount[0]": {
    "description": "Part 3. Line 5. Earnings subject to Canada pension plan contributions. Line 3 minus line 4. If negative, enter 0. Maximum $63,100.",
    "class": "text",
    "bounding-box": [
     501.001,
     366.001,
     69.001,
     11.279
    ],
    "font-family": "Helvetica-Bold",
    "font-size": 9,
    "font-color": [
     0,
     0,
     0.502,
     1
    ],
    "align": "decimal",
    "align-v": "center",
    "aliases": {
     "line": 3.05
    },
    "origin": [
     552.002,
     375.28
    ],
    "format": ".2f",
    "max-length": 13
   },
   "/form1[0]/Page3[0]/Part3[0]/Line6[0]/Amount[0]": {
    "description": "Part 3. Line 50340. Line 6. Actual total contributions on Canada pension plan pensionable earnings. Enter the total Canada pension plan contributions deducted from box 16 of all your T4 slips.",
    "class": "text",
    "bounding-box": [
     489.002,
     387,
     81,
     23.281
    ],
    "font-family": "Helvetica-Bold",
    "font-size": 9,
    "font-color": [
     0,
     0,
     0.502,
     1
    ],
    "align": "decimal",
    "align-v": "center",
    "aliases": {
     "stable": 50340
    },
    "origin": [
     552.002,
     408.281
    ],
    "format": ".2f",
    "max-length": 13
   },
   "/form1[0]/Page3[0]/Part3[0]/Line7[0]/Amount1[0]": {
    "description": "Part 3. Amount from line 6.",
    "class": "text",
    "bounding-box": [
     273.002,
     425.999,
     81,
     11.279
    ],
    "font-family": "Helvetica-Bold",
    "font-size": 8,
    "font-color": [
     0,
     0,
     0.502,
     1
    ],
    "align": "center",
    "align-v": "center"
   },
   "/form1[0]/Page3[0]/Part3[0]/Line7[0]/Amount2[0]": {
    "description": "Part 3. Line 7. Actual base contributions on Canada pension plan pensionable earnings. Amount from line 6 multiplied by 83.1933%.",
    "class": "text",
    "bounding-box": [
     501.001,
     414,
     69.001,
     23.281
    ],
    "font-family": "Helvetica-Bold",
    "font-size": 9,
    "font-color": [
     0,
     0,
     0.502,
     1
    ],
    "align": "decimal",
    "align-v": "center",
    "aliases": {
     "line": 3.07
    },
    "origin": [
     552.002,
     435.281
    ],
    "format": ".2f",
    "max-length": 13
   },
   "/form1[0]/Page3[0]/Part3[0]/Line8[0]/Amount[0]": {
    "description": "Part 3. Line 8. Actual enhanced contributions on Canada pension plan pensionable earnings. Line 6 minus line 7.",
    "class": "text",
    "bounding-box": [
     501.001,
     441,
     69.001,
     11.279
    ],
    "font-family": "Helvetica-Bold",
    "font-size": 9,
    "font-color": [
     0,
     0,
     0.502,
     1
    ],
    "align": "decimal",
    "align-v": "center",
    "aliases": {
     "line": 3.08
    },
    "origin": [
     552.002,
     450.279
    ],
    "format": ".2f",
    "max-length": 13
   },
   "/form1[0]/Page3[0]/Part3[0]/Line9[0]/Amount1[0]": {
    "description": "Part 3. Amount from line 5. Instance 1.",
    "class": "text",
    "bounding-box": [
     210.002,
     474.001,
     81,
     11.279
    ],
    "font-family": "Helvetica-Bold",
    "font-size": 8,
    "font-color": [
     0,
     0,
     0.502,
     1
    ],
    "align": "center",
    "align-v": "center"
   },
   "/form1[0]/Page3[0]/Part3[0]/Line9[0]/Amount2[0]": {
    "description": "Part 3. Line 9. Required base contributions on Canada pension plan pensionable earnings. Amount from line 5 multiplied by 4.95%. Maximum $3,123.45.",
    "class": "text",
    "bounding-box": [
     489.002,
     462.002,
     81,
     23.281
    ],
    "font-family": "Helvetica-Bold",
    "font-size": 9,
    "font-color": [
     0,
     0,
     0.502,
     1
    ],
    "align": "decimal",
    "align-v": "center",
    "aliases": {
     "line": 3.09
    },
    "origin": [
     552.002,
     483.283
    ],
    "format": ".2f",
    "max-length": 13
   },
   "/form1[0]/Page3[0]/Part3[0]/Line10[0]/Amount1[0]": {
    "description": "Part 3. Amount from line 5. Instance 2.",
    "class": "text",
    "bounding-box": [
     210.002,
     501.001,
     81,
     11.279
    ],
    "font-family": "Helvetica-Bold",
    "font-size": 8,
    "font-color": [
     0,
     0,
     0.502,
     1
    ],
    "align": "center",
    "align-v": "center"
   },
   "/form1[0]/Page3[0]/Part3[0]/Line10[0]/Amount2[0]": {
    "description": "Part 3. Line 10. Required enhanced contributions on Canada pension plan pensionable earnings. Amount from line 5 multiplied by 1%. Maximum $631.00.",
    "class": "text",
    "bounding-box": [
     501.001,
     489.002,
     69.001,
     23.281
    ],
    "font-family": "Helvetica-Bold",
    "font-size": 9,
    "font-color": [
     0,
     0,
     0.502,
     1
    ],
    "align": "decimal",
    "align-v": "center",
    "aliases": {
     "line": 3.1
    },
    "origin": [
     552.002,
     510.283
    ],
    "format": ".2f",
    "max-length": 13
   },
   "/form1[0]/Page3[0]/Part3[0]/Line11[0]/Amount[0]": {
    "description": "Part 3. Line 11. Total required contributions on Canada pension plan pensionable earnings. Line 9 plus line 10.",
    "class": "text",
    "bounding-box": [
     501.001,
     516.002,
     69.001,
     11.279
    ],
    "font-family": "Helvetica-Bold",
    "font-size": 9,
    "font-color": [
     0,
     0,
     0.502,
     1
    ],
    "align": "decimal",
    "align-v": "center",
    "aliases": {
     "line": 3.11
    },
    "origin": [
     552.002,
     525.281
    ],
    "format": ".2f",
    "max-length": 13
   },
   "/form1[0]/Page3[0]/Part3[0]/Line12[0]/Amount[0]": {
    "description": "Part 3. Line 12. Enter the amount from line 6.",
    "class": "text",
    "bounding-box": [
     489.002,
     537.001,
     81,
     11.279
    ],
    "font-family": "Helvetica-Bold",
    "font-size": 9,
    "font-color": [
     0,
     0,
     0.502,
     1
    ],
    "align": "decimal",
    "align-v": "center",
    "aliases": {
     "line": 3.12
    },
    "origin": [
     552.002,
     546.28
    ],
    "format": ".2f",
    "max-length": 13
   },
   "/form1[0]/Page3[0]/Part3[0]/Line13[0]/Amount[0]": {
    "description": "Part 3. Line 13. Enter the amount from line 11.",
    "class": "text",
    "bounding-box": [
     501.001,
     552.002,
     69.001,
     11.279
    ],
    "font-family": "Helvetica-Bold",
    "font-size": 9,
    "font-color": [
     0,
     0,
     0.502,
     1
    ],
    "align": "decimal",
    "align-v": "center",
    "aliases": {
     "line": 3.13
    },
    "origin": [
     552.002,
     561.281
    ],
    "format": ".2f",
    "max-length": 13
   },
   "/form1[0]/Page3[0]/Part3[0]/Line14[0]/Note2[0]": {
    "description": "Note2",
    "class": "checkbox",
    "bounding-box": [
     213.001,
     567,
     36,
     11.999
    ],
    "font-family": "Helvetica",
    "font-size": 10,
    "font-color": [
     0,
     0,
     0,
     1
    ],
    "align": "center",
    "align-v": "center"
   },
   "/form1[0]/Page3[0]/Part3[0]/Line14[0]/Amount[0]": {
    "description": "Part 3. Line 14. Line 12 minus line 13. If negative enter 0.",
    "class": "text",
    "bounding-box": [
     501.001,
     567,
     69.001,
     11.279
    ],
    "font-family": "Helvetica-Bold",
    "font-size": 9,
    "font-color": [
     0,
     0,
     0.502,
     1
    ],
    "align": "decimal",
    "align-v": "center",
    "aliases": {
     "line": 3.14
    },
    "origin": [
     552.002,
     576.279
    ],
    "format": ".2f",
    "max-length": 13
   }
  }
 },
 "4": {
  "size": [
   612,
   792
  ],
  "fields": {
   "/form1[0]/#pageSet[0]/Page1[3]/ClearData_EN[0]": {
    "description": "Clear Data",
    "class": "checkbox",
    "bounding-box": [
     492.001,
     2.999,
     96.001,
     15.001
    ],
    "font-family": "Helvetica",
    "font-size": 10,
    "font-color": [
     0,
     0,
     0,
     1
    ],
    "align": "center",
    "align-v": "center"
   },
   "/form1[0]/Page4[0]/Part4[0]/Line1[0]/Note3[0]": {
    "description": "Note3",
    "class": "checkbox",
    "bounding-box": [
     207.003,
     72,
     36,
     11.999
    ],
    "font-family": "Helvetica",
    "font-size": 10,
    "font-color": [
     0,
     0,
     0,
     1
    ],
    "align": "center",
    "align-v": "center"
   },
   "/form1[0]/Page4[0]/Part4[0]/Line1[0]/Amount[0]": {
    "description": "Part 4. Line 1. Pensionable net self-employment earnings. Amount from line 12200 of your return plus line 27 of your return.",
    "class": "text",
    "bounding-box": [
     489.002,
     72,
     81,
     23.281
    ],
    "font-family": "Helvetica-Bold",
    "font-size": 9,
    "font-color": [
     0,
     0,
     0.502,
     1
    ],
    "align": "decimal",
    "align-v": "center",
    "aliases": {
     "line": 4.01
    },
    "origin": [
     552.002,
     93.281
    ],
    "format": ".2f",
    "max-length": 13
   },
   "/form1[0]/Page4[0]/Part4[0]/Line2[0]/Amount[0]": {
    "description": "Part 4. Line 50373. Line 2. Employment earnings not shown on a T4 slip that you elect to pay additional Canada pension plan contributions on. Complete Form CPT20.",
    "class": "text",
    "bounding-box": [
     501.001,
     99,
     69.001,
     23.281
    ],
    "font-family": "Helvetica-Bold",
    "font-size": 9,
    "font-color": [
     0,
     0,
     0.502,
     1
    ],
    "align": "decimal",
    "align-v": "center",
    "aliases": {
     "stable": 50373
    },
    "origin": [
     552.002,
     120.281
    ],
    "format": ".2f",
    "max-length": 13
   },
   "/form1[0]/Page4[0]/Part4[0]/Line3[0]/Note4[0]": {
    "description": "Note4",
    "class": "checkbox",
    "bounding-box": [
     438.001,
     137.999,
     36,
     11.999
    ],
    "font-family": "Helvetica",
    "font-size": 10,
    "font-color": [
     0,
     0,
     0,
     1
    ],
    "align": "center",
    "align-v": "center"
   },
   "/form1[0]/Page4[0]/Part4[0]/Line3[0]/Amount[0]": {
    "description": "Part 4. Line 3. Canada pension plan pensionable earnings. Line 1 plus line 2. If negative, enter 0. Maximum $66,600.",
    "class": "text",
    "bounding-box": [
     501.001,
     126,
     69.001,
     23.281
    ],
    "font-family": "Helvetica-Bold",
    "font-size": 9,
    "font-color": [
     0,
     0,
     0.502,
     1
    ],
    "align": "decimal",
    "align-v": "center",
    "aliases": {
     "line": 4.03
    },
    "origin": [
     552.002,
     147.281
    ],
    "format": ".2f",
    "max-length": 13
   },
   "/form1[0]/Page4[0]/Part4[0]/Line4[0]/Note5[0]": {
    "description": "Note5",
    "class": "checkbox",
    "bounding-box": [
     438.001,
     153,
     36,
     11.999
    ],
    "font-family": "Helvetica",
    "font-size": 10,
    "font-color": [
     0,
     0,
     0,
     1
    ],
    "align": "center",
    "align-v": "center"
   },
   "/form1[0]/Page4[0]/Part4[0]/Line4[0]/Amount[0]": {
    "description": "Part 4. Line 4. Basic exemption. Maximum $3,500.",
    "class": "text",
    "bounding-box": [
     501.001,
     153,
     69.001,
     11.279
    ],
    "font-family": "Helvetica-Bold",
    "font-size": 9,
    "font-color": [
     0,
     0,
     0.502,
     1
    ],
    "align": "decimal",
    "align-v": "center",
    "aliases": {
     "line": 4.04
    },
    "origin": [
     552.002,
     162.279
    ],
    "format": ".2f",
    "max-length": 13
   },
   "/form1[0]/Page4[0]/Part4[0]/Line5[0]/Amount[0]": {
    "description": "Part 4. Line 5. Line 3 minus line 4. If negative, enter 0. Maximum $63,100.",
    "class": "text",
    "bounding-box": [
     501.001,
     168.001,
     69.001,
     11.279
    ],
    "font-family": "Helvetica-Bold",
    "font-size": 9,
    "font-color": [
     0,
     0,
     0.502,
     1
    ],
    "align": "decimal",
    "align-v": "center",
    "aliases": {
     "line": 4.05
    },
    "origin": [
     552.002,
     177.28
    ],
    "format": ".2f",
    "max-length": 13
   },
   "/form1[0]/Page4[0]/Part4[0]/Line6[0]/Percent[0]": {
    "description": "Part 4. Line 6. Canada pension plan contribution rate.",
    "class": "text",
    "bounding-box": [
     501.001,
     183.002,
     69.001,
     11.279
    ],
    "font-family": "Helvetica",
    "font-size": 9,
    "font-color": [
     0,
     0,
     0,
     1
    ],
    "align": "decimal",
    "align-v": "center",
    "aliases": {
     "line": 4.06
    },
    "origin": [
     552.002,
     192.281
    ],
    "format": ".2f",
    "max-length": 13
   },
   "/form1[0]/Page4[0]/Part4[0]/Line7[0]/Amount[0]": {
    "description": "Part 4. Line 7. Canada pension plan contributions payable on self-employment and other earnings. Line 5 multiplied by the percentage from line 6. Enter this amount, in dollars and cents, on line 42100 of your return.",
    "class": "text",
    "bounding-box": [
     501.001,
     198.72,
     69.001,
     34.56
    ],
    "font-family": "Helvetica-Bold",
    "font-size": 9,
    "font-color": [
     0,
     0,
     0.502,
     1
    ],
    "align": "decimal",
    "align-v": "center",
    "aliases": {
     "line": 4.07
    },
    "origin": [
     552.002,
     231.28
    ],
    "format": ".2f",
    "max-length": 13
   },
   "/form1[0]/Page4[0]/Part4[0]/Line8[0]/Amount1[0]": {
    "description": "Part 4. Amount from line 7.",
    "class": "text",
    "bounding-box": [
     273.002,
     281.999,
     81,
     11.279
    ],
    "font-family": "Helvetica-Bold",
    "font-size": 8,
    "font-color": [
     0,
     0,
     0.502,
     1
    ],
    "align": "center",
    "align-v": "center"
   },
   "/form1[0]/Page4[0]/Part4[0]/Line8[0]/Amount2[0]": {
    "description": "Part 4. Line 8. Required base contributions on Canada pension plan pensionable earnings. Amount from line 7 multiplied by 83.1933%.",
    "class": "text",
    "bounding-box": [
     501.001,
     270,
     69.001,
     23.281
    ],
    "font-family": "Helvetica-Bold",
    "font-size": 9,
    "font-color": [
     0,
     0,
     0.502,
     1
    ],
    "align": "decimal",
    "align-v": "center",
    "aliases": {
     "line": 4.08
    },
    "origin": [
     552.002,
     291.281
    ],
    "format": ".2f",
    "max-length": 13
   },
   "/form1[0]/Page4[0]/Part4[0]/Line9[0]/Amount[0]": {
    "description": "Part 4. Line 9. Required enhanced contributions on Canada pension plan pensionable earnings. Line 7 minus line 8.",
    "class": "text",
    "bounding-box": [
     501.001,
     297,
     69.001,
     23.281
    ],
    "font-family": "Helvetica-Bold",
    "font-size": 9,
    "font-color": [
     0,
     0,
     0.502,
     1
    ],
    "align": "decimal",
    "align-v": "center",
    "aliases": {
     "line": 4.09
    },
    "origin": [
     552.002,
     318.281
    ],
    "format": ".2f",
    "max-length": 13
   },
   "/form1[0]/Page4[0]/Part4[0]/Line10[0]/Amount1[0]": {
    "description": "Part 4. Amount from line 8.",
    "class": "text",
    "bounding-box": [
     273.002,
     348.001,
     81,
     11.279
    ],
    "font-family": "Helvetica-Bold",
    "font-size": 8,
    "font-color": [
     0,
     0,
     0.502,
     1
    ],
    "align": "center",
    "align-v": "center"
   },
   "/form1[0]/Page4[0]/Part4[0]/Line10[0]/Amount2[0]": {
    "description": "Part 4. Line 10. Tax credit for base Canada pension plan contributions on self-employment income and other earnings. Enter the result of the following calculation, in dollars and cents, on line 31000 of your return. Amount from line 8 multiplied by 50%.",
    "class": "text",
    "bounding-box": [
     501.001,
     324.72,
     69.001,
     34.56
    ],
    "font-family": "Helvetica-Bold",
    "font-size": 9,
    "font-color": [
     0,
     0,
     0.502,
     1
    ],
    "align": "decimal",
    "align-v": "center",
    "aliases": {
     "line": 4.1
    },
    "origin": [
     552.002,
     357.28
    ],
    "format": ".2f",
    "max-length": 13
   },
   "/form1[0]/Page4[0]/Part4[0]/Line11[0]/amount[0]": {
    "description": "Part 4. Line 11. Deduction for Canada pension plan contributions on self-employment income and other earnings. Line 9 plus line 10. Enter this amount, in dollars and cents, on line 22200 of your return.",
    "class": "text",
    "bounding-box": [
     501.001,
     363.722,
     69.001,
     34.56
    ],
    "font-family": "Helvetica-Bold",
    "font-size": 9,
    "font-color": [
     0,
     0,
     0.502,
     1
    ],
    "align": "decimal",
    "align-v": "center",
    "aliases": {
     "line": 4.11
    },
    "origin": [
     552.002,
     396.282
    ],
    "format": ".2f",
    "max-length": 13
   },
   "/form1[0]/Page4[0]/part5[0]/Line1[0]/Note3[0]": {
    "description": "Note3",
    "class": "checkbox",
    "bounding-box": [
     210.002,
     461.999,
     36,
     11.999
    ],
    "font-family": "Helvetica",
    "font-size": 10,
    "font-color": [
     0,
     0,
     0,
     1
    ],
    "align": "center",
    "align-v": "center"
   },
   "/form1[0]/Page4[0]/part5[0]/Line1[0]/Amount[0]": {
    "description": "Part 5. Line 1. Pensionable net self-employment earnings. Amount from line 12200 of your return plus line 27 of your return.",
    "class": "text",
    "bounding-box": [
     489.002,
     461.999,
     81,
     23.281
    ],
    "font-family": "Helvetica-Bold",
    "font-size": 9,
    "font-color": [
     0,
     0,
     0.502,
     1
    ],
    "align": "decimal",
    "align-v": "center",
    "aliases": {
     "line": 5.01
    },
    "origin": [
     552.002,
     483.28
    ],
    "format": ".2f",
    "max-length": 13
   },
   "/form1[0]/Page4[0]/part5[0]/Line2[0]/Amount[0]": {
    "description": "Part 5. Line 50373. Line 2. Employment earnings not shown on a T4 slip that you elect to pay additional Canada pension plan contributions on. Complete Form CPT20.",
    "class": "text",
    "bounding-box": [
     501.001,
     488.999,
     69.001,
     23.281
    ],
    "font-family": "Helvetica-Bold",
    "font-size": 9,
    "font-color": [
     0,
     0,
     0.502,
     1
    ],
    "align": "decimal",
    "align-v": "center",
    "aliases": {
     "stable": 50373
    },
    "origin": [
     552.002,
     510.28
    ],
    "format": ".2f",
    "max-length": 13
   },
   "/form1[0]/Page4[0]/part5[0]/Line3[0]/Amount[0]": {
    "description": "Part 5. Line 50399. Line 3. Employment earnings shown on a T4 slip that you elect to pay additional Canada pension plan contributions on. Complete Form CPT20.",
    "class": "text",
    "bounding-box": [
     501.001,
     515.999,
     69.001,
     23.281
    ],
    "font-family": "Helvetica-Bold",
    "font-size": 9,
    "font-color": [
     0,
     0,
     0.502,
     1
    ],
    "align": "decimal",
    "align-v": "center",
    "aliases": {
     "stable": 50399
    },
    "origin": [
     552.002,
     537.28
    ],
    "format": ".2f",
    "max-length": 13
   },
   "/form1[0]/Page4[0]/part5[0]/Line4[0]/Amount[0]": {
    "description": "Part 5. Line 4. Add lines 1 to 3.",
    "class": "text",
    "bounding-box": [
     501.001,
     542.999,
     69.001,
     11.279
    ],
    "font-family": "Helvetica-Bold",
    "font-size": 9,
    "font-color": [
     0,
     0,
     0.502,
     1
    ],
    "align": "decimal",
    "align-v": "center",
    "aliases": {
     "line": 5.04
    },
    "origin": [
     552.002,
     552.278
    ],
    "format": ".2f",
    "max-length": 13
   },
   "/form1[0]/Page4[0]/part5[0]/Line5[0]/Amount[0]": {
    "description": "Part 5. Line 5. Actual total Canada pension plan contributions. Enter the amount from line 6 of Part 3.",
    "class": "text",
    "bounding-box": [
     489.002,
     564.001,
     81,
     11.279
    ],
    "font-family": "Helvetica-Bold",
    "font-size": 9,
    "font-color": [
     0,
     0,
     0.502,
     1
    ],
    "align": "decimal",
    "align-v": "center",
    "aliases": {
     "line": 5.05
    },
    "origin": [
     552.002,
     573.28
    ],
    "format": ".2f",
    "max-length": 13
   },
   "/form1[0]/Page4[0]/part5[0]/Line6[0]/Amount[0]": {
    "description": "Part 5. Line 6. Enter the amount from line 14 of Part 3 if it is positive. If not, enter 0.",
    "class": "text",
    "bounding-box": [
     501.001,
     578.999,
     69.001,
     11.279
    ],
    "font-family": "Helvetica-Bold",
    "font-size": 9,
    "font-color": [
     0,
     0,
     0.502,
     1
    ],
    "align": "decimal",
    "align-v": "center",
    "aliases": {
     "line": 5.06
    },
    "origin": [
     552.002,
     588.278
    ],
    "format": ".2f",
    "max-length": 13
   },
   "/form1[0]/Page4[0]/part5[0]/Line7[0]/Amount[0]": {
    "description": "Part 5. Line 7. Line 5 minus line 6. If negative, enter 0.",
    "class": "text",
    "bounding-box": [
     501.001,
     594,
     69.001,
     11.279
    ],
    "font-family": "Helvetica-Bold",
    "font-size": 9,
    "font-color": [
     0,
     0,
     0.502,
     1
    ],
    "align": "decimal",
    "align-v": "center",
    "aliases": {
     "line": 5.07
    },
    "origin": [
     552.002,
     603.279
    ],
    "format": ".2f",
    "max-length": 13
   },
   "/form1[0]/Page4[0]/part5[0]/Line8[0]/Amount1[0]": {
    "description": "Part 5. Amount from line 7.",
    "class": "text",
    "bounding-box": [
     273.002,
     614.999,
     81,
     11.279
    ],
    "font-family": "Helvetica-Bold",
    "font-size": 8,
    "font-color": [
     0,
     0,
     0.502,
     1
    ],
    "align": "center",
    "align-v": "center"
   },
   "/form1[0]/Page4[0]/part5[0]/Line8[0]/Amount2[0]": {
    "description": "Part 5. Line 8. Amount from line 7 multiplied by 16.80672.",
    "class": "text",
    "bounding-box": [
     489.002,
     614.999,
     81,
     11.279
    ],
    "font-family": "Helvetica-Bold",
    "font-size": 9,
    "font-color": [
     0,
     0,
     0.502,
     1
    ],
    "align": "decimal",
    "align-v": "center",
    "aliases": {
     "line": 5.08
    },
    "origin": [
     552.002,
     624.278
    ],
    "format": ".2f",
    "max-length": 13
   }
  }
 },
 "5": {
  "size": [
   612,
   792
  ],
  "fields": {
   "/form1[0]/#pageSet[0]/Page1[4]/ClearData_EN[0]": {
    "description": "Clear Data",
    "class": "checkbox",
    "bounding-box": [
     492.001,
     2.999,
     96.001,
     15.001
    ],
    "font-family": "Helvetica",
    "font-size": 10,
    "font-color": [
     0,
     0,
     0,
     1
    ],
    "align": "center",
    "align-v": "center"
   },
   "/form1[0]/Page5[0]/Part5_continued[0]/Line9[0]/Amount[0]": {
    "description": "Part 5. Line 9. Canada pension plan pensionable earnings. Enter the amount from line 1 of Part 3. Maximum $66,600.",
    "class": "text",
    "bounding-box": [
     489.002,
     72,
     81,
     23.281
    ],
    "font-family": "Helvetica-Bold",
    "font-size": 9,
    "font-color": [
     0,
     0,
     0.502,
     1
    ],
    "align": "decimal",
    "align-v": "center",
    "aliases": {
     "line": 5.09
    },
    "origin": [
     552.002,
     93.281
    ],
    "format": ".2f",
    "max-length": 13
   },
   "/form1[0]/Page5[0]/Part5_continued[0]/Line10[0]/Amount[0]": {
    "description": "Part 5. Line 10. Basic exemption. Enter the amount from line 4 of Part 3. Maximum $3,500.",
    "class": "text",
    "bounding-box": [
     501.001,
     99,
     69.001,
     23.281
    ],
    "font-family": "Helvetica-Bold",
    "font-size": 9,
    "font-color": [
     0,
     0,
     0.502,
     1
    ],
    "align": "decimal",
    "align-v": "center",
    "aliases": {
     "line": 5.1
    },
    "origin": [
     552.002,
     120.281
    ],
    "format": ".2f",
    "max-length": 13
   },
   "/form1[0]/Page5[0]/Part5_continued[0]/Line11[0]/Amount[0]": {
    "description": "Part 5. Line 11. Line 9 minus line 10. If negative, enter 0. Maximum $63,100.",
    "class": "text",
    "bounding-box": [
     501.001,
     126,
     69.001,
     11.279
    ],
    "font-family": "Helvetica-Bold",
    "font-size": 9,
    "font-color": [
     0,
     0,
     0.502,
     1
    ],
    "align": "decimal",
    "align-v": "center",
    "aliases": {
     "line": 5.11
    },
    "origin": [
     552.002,
     135.279
    ],
    "format": ".2f",
    "max-length": 13
   },
   "/form1[0]/Page5[0]/Part5_continued[0]/Line12[0]/Amount[0]": {
    "description": "Part 5. Line 12. Enter the amount from line 8 of part 5.",
    "class": "text",
    "bounding-box": [
     501.001,
     141.001,
     69.001,
     11.279
    ],
    "font-family": "Helvetica-Bold",
    "font-size": 9,
    "font-color": [
     0,
     0,
     0.502,
     1
    ],
    "align": "decimal",
    "align-v": "center",
    "aliases": {
     "line": 5.12
    },
    "origin": [
     552.002,
     150.28
    ],
    "format": ".2f",
    "max-length": 13
   },
   "/form1[0]/Page5[0]/Part5_continued[0]/Line13[0]/Amount[0]": {
    "description": "Part 5. Line 13. Line 11 minus line 12. If negative, enter 0.",
    "class": "text",
    "bounding-box": [
     501.001,
     156.002,
     69.001,
     11.279
    ],
    "font-family": "Helvetica-Bold",
    "font-size": 9,
    "font-color": [
     0,
     0,
     0.502,
     1
    ],
    "align": "decimal",
    "align-v": "center",
    "aliases": {
     "line": 5.13
    },
    "origin": [
     552.002,
     165.281
    ],
    "format": ".2f",
    "max-length": 13
   },
   "/form1[0]/Page5[0]/Part5_continued[0]/Line14[0]/Amount[0]": {
    "description": "Part 5. Line 14. Enter whichever is less. Amount from line 4 of Part 5 or line 13 above.",
    "class": "text",
    "bounding-box": [
     489.002,
     177.001,
     81,
     11.279
    ],
    "font-family": "Helvetica-Bold",
    "font-size": 9,
    "font-color": [
     0,
     0,
     0.502,
     1
    ],
    "align": "decimal",
    "align-v": "center",
    "aliases": {
     "line": 5.14
    },
    "origin": [
     552.002,
     186.28
    ],
    "format": ".2f",
    "max-length": 13
   },
   "/form1[0]/Page5[0]/Part5_continued[0]/Line15[0]/Amount[0]": {
    "description": "Part 5. Line 15. Amount from line 4 of Part 3.",
    "class": "text",
    "bounding-box": [
     381.002,
     198,
     81,
     11.279
    ],
    "font-family": "Helvetica-Bold",
    "font-size": 9,
    "font-color": [
     0,
     0,
     0.502,
     1
    ],
    "align": "decimal",
    "align-v": "center",
    "aliases": {
     "line": 5.15
    },
    "origin": [
     444.002,
     207.279
    ],
    "format": ".2f",
    "max-length": 13
   },
   "/form1[0]/Page5[0]/Part5_continued[0]/Line16[0]/Amount[0]": {
    "description": "Part 5. Line 16. Amount from line 2 of Part 3.",
    "class": "text",
    "bounding-box": [
     393.001,
     213.001,
     69.001,
     11.279
    ],
    "font-family": "Helvetica-Bold",
    "font-size": 9,
    "font-color": [
     0,
     0,
     0.502,
     1
    ],
    "align": "decimal",
    "align-v": "center",
    "aliases": {
     "line": 5.16
    },
    "origin": [
     444.002,
     222.28
    ],
    "format": ".2f",
    "max-length": 13
   },
   "/form1[0]/Page5[0]/Part5_continued[0]/Line17[0]/Amount[0]": {
    "description": "Part 5. Line 17. Line 15 minus line 16. If negative, enter 0 on lines 17 and 21 and continue at line 22.",
    "class": "text",
    "bounding-box": [
     393.001,
     228.002,
     69.001,
     23.281
    ],
    "font-family": "Helvetica-Bold",
    "font-size": 9,
    "font-color": [
     0,
     0,
     0.502,
     1
    ],
    "align": "decimal",
    "align-v": "center",
    "aliases": {
     "line": 5.17
    },
    "origin": [
     444.002,
     249.283
    ],
    "format": ".2f",
    "max-length": 13
   },
   "/form1[0]/Page5[0]/Part5_continued[0]/Line18[0]/Amount[0]": {
    "description": "Part 5. Line 18. Amount from line 4 of Part 5.",
    "class": "text",
    "bounding-box": [
     273.002,
     261,
     81,
     11.279
    ],
    "font-family": "Helvetica-Bold",
    "font-size": 9,
    "font-color": [
     0,
     0,
     0.502,
     1
    ],
    "align": "decimal",
    "align-v": "center",
    "aliases": {
     "line": 5.18
    },
    "origin": [
     336.002,
     270.279
    ],
    "format": ".2f",
    "max-length": 13
   },
   "/form1[0]/Page5[0]/Part5_continued[0]/Line19[0]/Amount[0]": {
    "description": "Part 5. Line 19. Amount from line 11 above.",
    "class": "text",
    "bounding-box": [
     285.001,
     276.001,
     69.001,
     11.279
    ],
    "font-family": "Helvetica-Bold",
    "font-size": 9,
    "font-color": [
     0,
     0,
     0.502,
     1
    ],
    "align": "decimal",
    "align-v": "center",
    "aliases": {
     "line": 5.19
    },
    "origin": [
     336.002,
     285.28
    ],
    "format": ".2f",
    "max-length": 13
   },
   "/form1[0]/Page5[0]/Part5_continued[0]/Line20[0]/Amount1[0]": {
    "description": "Part 5. Line 20. Line 18 minus line 19. If negative, enter 0. Instance 1.",
    "class": "text",
    "bounding-box": [
     285.001,
     291.002,
     69.001,
     11.279
    ],
    "font-family": "Helvetica-Bold",
    "font-size": 9,
    "font-color": [
     0,
     0,
     0.502,
     1
    ],
    "align": "decimal",
    "align-v": "center",
    "aliases": {
     "line": 5.2
    },
    "origin": [
     336.002,
     300.281
    ],
    "format": ".2f",
    "max-length": 13
   },
   "/form1[0]/Page5[0]/Part5_continued[0]/Line20[0]/Amount2[0]": {
    "description": "Part 5. Line 20. Instance 2.",
    "class": "text",
    "bounding-box": [
     393.001,
     291.002,
     69.001,
     11.279
    ],
    "font-family": "Helvetica-Bold",
    "font-size": 9,
    "font-color": [
     0,
     0,
     0.502,
     1
    ],
    "align": "decimal",
    "align-v": "center",
    "aliases": {
     "line": 5.2
    },
    "origin": [
     444.002,
     300.281
    ],
    "format": ".2f",
    "max-length": 13
   },
   "/form1[0]/Page5[0]/Part5_continued[0]/Line21[0]/Amount1[0]": {
    "description": "Part 5. Line 21. Line 17 minus line 20. If negative, enter 0. Instance 1.",
    "class": "text",
    "bounding-box": [
     393.001,
     306,
     69.001,
     11.279
    ],
    "font-family": "Helvetica-Bold",
    "font-size": 9,
    "font-color": [
     0,
     0,
     0.502,
     1
    ],
    "align": "decimal",
    "align-v": "center",
    "aliases": {
     "line": 5.21
    },
    "origin": [
     444.002,
     315.279
    ],
    "format": ".2f",
    "max-length": 13
   },
   "/form1[0]/Page5[0]/Part5_continued[0]/Line21[0]/Amount2[0]": {
    "description": "Part 5. Line 21. Instance 2.",
    "class": "text",
    "bounding-box": [
     501.001,
     306,
     69.001,
     11.279
    ],
    "font-family": "Helvetica-Bold",
    "font-size": 9,
    "font-color": [
     0,
     0,
     0.502,
     1
    ],
    "align": "decimal",
    "align-v": "center",
    "aliases": {
     "line": 5.21
    },
    "origin": [
     552.002,
     315.279
    ],
    "format": ".2f",
    "max-length": 13
   },
   "/form1[0]/Page5[0]/Part5_continued[0]/Line22[0]/Amount[0]": {
    "description": "Part 5. Line 22. Earnings subject to contributions. Line 14 minus line 21. If the result is negative, enter 0 and follow the instructions at the end of Part 3 to claim the deduction and tax credit for the contributions on your employment income. If the result is positive, continue at line 23.",
    "class": "text",
    "bounding-box": [
     501.001,
     321.001,
     69.001,
     35.28
    ],
    "font-family": "Helvetica-Bold",
    "font-size": 9,
    "font-color": [
     0,
     0,
     0.502,
     1
    ],
    "align": "decimal",
    "align-v": "center",
    "aliases": {
     "line": 5.22
    },
    "origin": [
     552.002,
     354.281
    ],
    "format": ".2f",
    "max-length": 13
   },
   "/form1[0]/Page5[0]/Part5_continued[0]/Line23[0]/Amount1[0]": {
    "description": "Part 5. Amount from line 22.",
    "class": "text",
    "bounding-box": [
     273.002,
     366.001,
     81,
     11.279
    ],
    "font-family": "Helvetica-Bold",
    "font-size": 8,
    "font-color": [
     0,
     0,
     0.502,
     1
    ],
    "align": "center",
    "align-v": "center"
   },
   "/form1[0]/Page5[0]/Part5_continued[0]/Line23[0]/Amount2[0]": {
    "description": "Part 5. Line 23. Amount from line 22 multiplied by 11.9%.",
    "class": "text",
    "bounding-box": [
     489.002,
     366.001,
     81,
     11.279
    ],
    "font-family": "Helvetica-Bold",
    "font-size": 9,
    "font-color": [
     0,
     0,
     0.502,
     1
    ],
    "align": "decimal",
    "align-v": "center",
    "aliases": {
     "line": 5.23
    },
    "origin": [
     552.002,
     375.28
    ],
    "format": ".2f",
    "max-length": 13
   },
   "/form1[0]/Page5[0]/Part5_continued[0]/Line24[0]/Amount1[0]": {
    "description": "Part 5. Amount from line 14 of Part 3. If positive.",
    "class": "text",
    "bounding-box": [
     273.002,
     381.002,
     81,
     11.279
    ],
    "font-family": "Helvetica-Bold",
    "font-size": 8,
    "font-color": [
     0,
     0,
     0.502,
     1
    ],
    "align": "center",
    "align-v": "center"
   },
   "/form1[0]/Page5[0]/Part5_continued[0]/Line24[0]/Amount2[0]": {
    "description": "Part 5. Line 24. Amount from line 14 of Part 3, if positive, multiplied by 2.",
    "class": "text",
    "bounding-box": [
     501.001,
     381.002,
     69.001,
     11.279
    ],
    "font-family": "Helvetica-Bold",
    "font-size": 9,
    "font-color": [
     0,
     0,
     0.502,
     1
    ],
    "align": "decimal",
    "align-v": "center",
    "aliases": {
     "line": 5.24
    },
    "origin": [
     552.002,
     390.281
    ],
    "format": ".2f",
    "max-length": 13
   },
   "/form1[0]/Page5[0]/Part5_continued[0]/Line25[0]/Amount[0]": {
    "description": "Part 5. Line 25. Line 23 minus line 24. If negative, show in brackets.",
    "class": "text",
    "bounding-box": [
     501.001,
     396,
     69.001,
     11.279
    ],
    "font-family": "Helvetica-Bold",
    "font-size": 9,
    "font-color": [
     0,
     0,
     0.502,
     1
    ],
    "align": "decimal",
    "align-v": "center",
    "aliases": {
     "line": 5.25
    },
    "origin": [
     552.002,
     405.279
    ],
    "format": ".2f",
    "max-length": 13
   },
   "/form1[0]/Page5[0]/Part5_continued[0]/Line26[0]/Amount[0]": {
    "description": "Part 5. Line 26. If the amount from line 25 is negative, enter it as a positive amount.",
    "class": "text",
    "bounding-box": [
     489.002,
     417.002,
     81,
     11.279
    ],
    "font-family": "Helvetica-Bold",
    "font-size": 9,
    "font-color": [
     0,
     0,
     0.502,
     1
    ],
    "align": "decimal",
    "align-v": "center",
    "aliases": {
     "line": 5.26
    },
    "origin": [
     552.002,
     426.281
    ],
    "format": ".2f",
    "max-length": 13
   },
   "/form1[0]/Page5[0]/Part5_continued[0]/Line27[0]/Amount[0]": {
    "description": "Part 5. Line 27. Enter the amount from line 7 of Part 3.",
    "class": "text",
    "bounding-box": [
     489.002,
     474.001,
     81,
     11.279
    ],
    "font-family": "Helvetica-Bold",
    "font-size": 9,
    "font-color": [
     0,
     0,
     0.502,
     1
    ],
    "align": "decimal",
    "align-v": "center",
    "aliases": {
     "line": 5.27
    },
    "origin": [
     552.002,
     483.28
    ],
    "format": ".2f",
    "max-length": 13
   },
   "/form1[0]/Page5[0]/Part5_continued[0]/Line28[0]/Amount[0]": {
    "description": "Part 5. Line 28. Enter the amount from line 9 of Part 3.",
    "class": "text",
    "bounding-box": [
     501.001,
     489.002,
     69.001,
     11.279
    ],
    "font-family": "Helvetica-Bold",
    "font-size": 9,
    "font-color": [
     0,
     0,
     0.502,
     1
    ],
    "align": "decimal",
    "align-v": "center",
    "aliases": {
     "line": 5.28
    },
    "origin": [
     552.002,
     498.281
    ],
    "format": ".2f",
    "max-length": 13
   },
   "/form1[0]/Page5[0]/Part5_continued[0]/Line29[0]/Amount[0]": {
    "description": "Part 5. Line 29. Line 27 minus line 28. If negative enter 0.",
    "class": "text",
    "bounding-box": [
     501.001,
     504,
     69.001,
     11.279
    ],
    "font-family": "Helvetica-Bold",
    "font-size": 9,
    "font-color": [
     0,
     0,
     0.502,
     1
    ],
    "align": "decimal",
    "align-v": "center",
    "aliases": {
     "line": 5.29
    },
    "origin": [
     552.002,
     513.279
    ],
    "format": ".2f",
    "max-length": 13
   },
   "/form1[0]/Page5[0]/Part5_continued[0]/Line30[0]/Amount[0]": {
    "description": "Part 5. Line 30. Enter whichever is less. Amount from line 27 or line 28. Enter this amount, in dollars and cents, on line 30800 of your return.",
    "class": "text",
    "bounding-box": [
     489.002,
     525.722,
     81,
     22.561
    ],
    "font-family": "Helvetica-Bold",
    "font-size": 9,
    "font-color": [
     0,
     0,
     0.502,
     1
    ],
    "align": "decimal",
    "align-v": "center",
    "aliases": {
     "line": 5.3
    },
    "origin": [
     552.002,
     546.283
    ],
    "format": ".2f",
    "max-length": 13
   },
   "/form1[0]/Page5[0]/Part5_continued[0]/Line31[0]/Amount[0]": {
    "description": "Part 5. Line 31. Enter the amount from line 8 of Part 3.",
    "class": "text",
    "bounding-box": [
     489.002,
     573.001,
     81,
     11.279
    ],
    "font-family": "Helvetica-Bold",
    "font-size": 9,
    "font-color": [
     0,
     0,
     0.502,
     1
    ],
    "align": "decimal",
    "align-v": "center",
    "aliases": {
     "line": 5.31
    },
    "origin": [
     552.002,
     582.28
    ],
    "format": ".2f",
    "max-length": 13
   },
   "/form1[0]/Page5[0]/Part5_continued[0]/Line32[0]/Amount[0]": {
    "description": "Part 5. Line 32. Enter the amount from line 10 of Part 3.",
    "class": "text",
    "bounding-box": [
     501.001,
     588.002,
     69.001,
     11.279
    ],
    "font-family": "Helvetica-Bold",
    "font-size": 9,
    "font-color": [
     0,
     0,
     0.502,
     1
    ],
    "align": "decimal",
    "align-v": "center",
    "aliases": {
     "line": 5.32
    },
    "origin": [
     552.002,
     597.281
    ],
    "format": ".2f",
    "max-length": 13
   },
   "/form1[0]/Page5[0]/Part5_continued[0]/Line33[0]/Amount[0]": {
    "description": "Part 5. Line 33. Line 31 minus line 32. If negative enter 0.",
    "class": "text",
    "bounding-box": [
     501.001,
     603,
     69.001,
     11.279
    ],
    "font-family": "Helvetica-Bold",
    "font-size": 9,
    "font-color": [
     0,
     0,
     0.502,
     1
    ],
    "align": "decimal",
    "align-v": "center",
    "aliases": {
     "line": 5.33
    },
    "origin": [
     552.002,
     612.279
    ],
    "format": ".2f",
    "max-length": 13
   },
   "/form1[0]/Page5[0]/Part5_continued[0]/Line34[0]/Amount[0]": {
    "description": "Part 5. Line 34. Enter whichever is less. Amount from line 31 or line 32. Enter this amount, in dollars and cents, on line 22215 of your return.",
    "class": "text",
    "bounding-box": [
     489.002,
     624.722,
     81,
     22.561
    ],
    "font-family": "Helvetica-Bold",
    "font-size": 9,
    "font-color": [
     0,
     0,
     0.502,
     1
    ],
    "align": "decimal",
    "align-v": "center",
    "aliases": {
     "line": 5.34
    },
    "origin": [
     552.002,
     645.283
    ],
    "format": ".2f",
    "max-length": 13
   }
  }
 },
 "6": {
  "size": [
   612,
   792
  ],
  "fields": {
   "/form1[0]/#pageSet[0]/Page1[5]/ClearData_EN[0]": {
    "description": "Clear Data",
    "class": "checkbox",
    "bounding-box": [
     492.001,
     2.999,
     96.001,
     15.001
    ],
    "font-family": "Helvetica",
    "font-size": 10,
    "font-color": [
     0,
     0,
     0,
     1
    ],
    "align": "center",
    "align-v": "center"
   },
   "/form1[0]/Page6[0]/Part5[0]/Line35[0]/Amount1[0]": {
    "description": "Part 5. Amount from line 26 of the previous page.",
    "class": "text",
    "bounding-box": [
     273.002,
     186.001,
     81,
     11.279
    ],
    "font-family": "Helvetica-Bold",
    "font-size": 8,
    "font-color": [
     0,
     0,
     0.502,
     1
    ],
    "align": "center",
    "align-v": "center"
   },
   "/form1[0]/Page6[0]/Part5[0]/Line35[0]/Amount2[0]": {
    "description": "Part 5. Line 35. Canada pension plan overpayment. Enter the result of the following calculation, in dollars and cents, on line 44800 of your return. Amount from line 26 of the previous page multiplied by 50%.",
    "class": "text",
    "bounding-box": [
     489.002,
     174.719,
     81,
     22.561
    ],
    "font-family": "Helvetica-Bold",
    "font-size": 9,
    "font-color": [
     0,
     0,
     0.502,
     1
    ],
    "align": "decimal",
    "align-v": "center",
    "aliases": {
     "line": 5.35
    },
    "origin": [
     552.002,
     195.28
    ],
    "format": ".2f",
    "max-length": 13
   },
   "/form1[0]/Page6[0]/Part5[0]/Line36[0]/Amount1[0]": {
    "description": "Part 5. Amount from line 35.",
    "class": "text",
    "bounding-box": [
     273.002,
     201.002,
     81,
     11.279
    ],
    "font-family": "Helvetica-Bold",
    "font-size": 8,
    "font-color": [
     0,
     0,
     0.502,
     1
    ],
    "align": "center",
    "align-v": "center"
   },
   "/form1[0]/Page6[0]/Part5[0]/Line36[0]/Amount2[0]": {
    "description": "Part 5. Line 36. Amount from line 35 multiplied by 83.1933%.",
    "class": "text",
    "bounding-box": [
     501.001,
     201.002,
     69.001,
     11.279
    ],
    "font-family": "Helvetica-Bold",
    "font-size": 9,
    "font-color": [
     0,
     0,
     0.502,
     1
    ],
    "align": "decimal",
    "align-v": "center",
    "aliases": {
     "line": 5.36
    },
    "origin": [
     552.002,
     210.281
    ],
    "format": ".2f",
    "max-length": 13
   },
   "/form1[0]/Page6[0]/Part5[0]/Line37[0]/Amount[0]": {
    "description": "Part 5. Line 37. Line 35 minus line 36.",
    "class": "text",
    "bounding-box": [
     501.001,
     216,
     69.001,
     11.279
    ],
    "font-family": "Helvetica-Bold",
    "font-size": 9,
    "font-color": [
     0,
     0,
     0.502,
     1
    ],
    "align": "decimal",
    "align-v": "center",
    "aliases": {
     "line": 5.37
    },
    "origin": [
     552.002,
     225.279
    ],
    "format": ".2f",
    "max-length": 13
   },
   "/form1[0]/Page6[0]/Part5[0]/Line38[0]/Amount[0]": {
    "description": "Part 5. Line 38. Enter the amount from line 29 of the previous page.",
    "class": "text",
    "bounding-box": [
     489.002,
     237.002,
     81,
     11.279
    ],
    "font-family": "Helvetica-Bold",
    "font-size": 9,
    "font-color": [
     0,
     0,
     0.502,
     1
    ],
    "align": "decimal",
    "align-v": "center",
    "aliases": {
     "line": 5.38
    },
    "origin": [
     552.002,
     246.281
    ],
    "format": ".2f",
    "max-length": 13
   },
   "/form1[0]/Page6[0]/Part5[0]/Line39[0]/Amount[0]": {
    "description": "Part 5. Line 39. Enter the amount from line 36.",
    "class": "text",
    "bounding-box": [
     501.001,
     252,
     69.001,
     11.279
    ],
    "font-family": "Helvetica-Bold",
    "font-size": 9,
    "font-color": [
     0,
     0,
     0.502,
     1
    ],
    "align": "decimal",
    "align-v": "center",
    "aliases": {
     "line": 5.39
    },
    "origin": [
     552.002,
     261.279
    ],
    "format": ".2f",
    "max-length": 13
   },
   "/form1[0]/Page6[0]/Part5[0]/Line40[0]/Amount[0]": {
    "description": "Part 5. Line 40. Tax credit for base Canada pension plan contributions on self-employment income and other earnings. Line 38 minus line 39. Enter this amount, in dollars and cents, on line 31000 of your return.",
    "class": "text",
    "bounding-box": [
     501.001,
     267.721,
     69.001,
     34.56
    ],
    "font-family": "Helvetica-Bold",
    "font-size": 9,
    "font-color": [
     0,
     0,
     0.502,
     1
    ],
    "align": "decimal",
    "align-v": "center",
    "aliases": {
     "line": 5.4
    },
    "origin": [
     552.002,
     300.281
    ],
    "format": ".2f",
    "max-length": 13
   },
   "/form1[0]/Page6[0]/Part5[0]/Line41[0]/Amount[0]": {
    "description": "Part 5. Line 41. Enter the amount from line 33 of the previous page.",
    "class": "text",
    "bounding-box": [
     489.002,
     312.001,
     81,
     11.279
    ],
    "font-family": "Helvetica-Bold",
    "font-size": 9,
    "font-color": [
     0,
     0,
     0.502,
     1
    ],
    "align": "decimal",
    "align-v": "center",
    "aliases": {
     "line": 5.41
    },
    "origin": [
     552.002,
     321.28
    ],
    "format": ".2f",
    "max-length": 13
   },
   "/form1[0]/Page6[0]/Part5[0]/Line42[0]/Amount[0]": {
    "description": "Part 5. Line 42. Enter the amount from line 37.",
    "class": "text",
    "bounding-box": [
     501.001,
     327.002,
     69.001,
     11.279
    ],
    "font-family": "Helvetica-Bold",
    "font-size": 9,
    "font-color": [
     0,
     0,
     0.502,
     1
    ],
    "align": "decimal",
    "align-v": "center",
    "aliases": {
     "line": 5.42
    },
    "origin": [
     552.002,
     336.281
    ],
    "format": ".2f",
    "max-length": 13
   },
   "/form1[0]/Page6[0]/Part5[0]/Line43[0]/Amount[0]": {
    "description": "Part 5. Line 43. Deduction for Canada pension plan contributions on self-employment income and other earnings. Line 41 minus line 42. Enter this amount, in dollars and cents, on line 22200 of your return.",
    "class": "text",
    "bounding-box": [
     501.001,
     342.72,
     69.001,
     34.56
    ],
    "font-family": "Helvetica-Bold",
    "font-size": 9,
    "font-color": [
     0,
     0,
     0.502,
     1
    ],
    "align": "decimal",
    "align-v": "center",
    "aliases": {
     "line": 5.43
    },
    "origin": [
     552.002,
     375.28
    ],
    "format": ".2f",
    "max-length": 13
   },
   "/form1[0]/Page6[0]/Part5[0]/Line44[0]/Amount[0]": {
    "description": "Part 5. Line 44. Canada pension plan contributions payable on self-employment income and other earnings. Enter the amount from line 25 of the previous page. Enter this amount, in dollars and cents, on line 42100 of your return.",
    "class": "text",
    "bounding-box": [
     489.002,
     414.72,
     81,
     22.561
    ],
    "font-family": "Helvetica-Bold",
    "font-size": 9,
    "font-color": [
     0,
     0,
     0.502,
     1
    ],
    "align": "decimal",
    "align-v": "center",
    "aliases": {
     "line": 5.44
    },
    "origin": [
     552.002,
     435.281
    ],
    "format": ".2f",
    "max-length": 13
   },
   "/form1[0]/Page6[0]/Part5[0]/Line45[0]/Amount1[0]": {
    "description": "Part 5. Amount from line 44.",
    "class": "text",
    "bounding-box": [
     273.002,
     441,
     81,
     11.279
    ],
    "font-family": "Helvetica-Bold",
    "font-size": 8,
    "font-color": [
     0,
     0,
     0.502,
     1
    ],
    "align": "center",
    "align-v": "center"
   },
   "/form1[0]/Page6[0]/Part5[0]/Line45[0]/Amount2[0]": {
    "description": "Part 5. Line 45. Amount from line 44 multiplied by 83.1933%.",
    "class": "text",
    "bounding-box": [
     501.001,
     441,
     69.001,
     11.279
    ],
    "font-family": "Helvetica-Bold",
    "font-size": 9,
    "font-color": [
     0,
     0,
     0.502,
     1
    ],
    "align": "decimal",
    "align-v": "center",
    "aliases": {
     "line": 5.45
    },
    "origin": [
     552.002,
     450.279
    ],
    "format": ".2f",
    "max-length": 13
   },
   "/form1[0]/Page6[0]/Part5[0]/Line46[0]/Amount[0]": {
    "description": "Part 5. Line 46. Line 44 minus line 45.          ",
    "class": "text",
    "bounding-box": [
     501.001,
     456.001,
     69.001,
     11.279
    ],
    "font-family": "Helvetica-Bold",
    "font-size": 9,
    "font-color": [
     0,
     0,
     0.502,
     1
    ],
    "align": "decimal",
    "align-v": "center",
    "aliases": {
     "line": 5.46
    },
    "origin": [
     552.002,
     465.28
    ],
    "format": ".2f",
    "max-length": 13
   },
   "/form1[0]/Page6[0]/Part5[0]/Line47[0]/Amount1[0]": {
    "description": "Part 5. Amount from line 45.",
    "class": "text",
    "bounding-box": [
     273.002,
     471.002,
     81,
     11.279
    ],
    "font-family": "Helvetica-Bold",
    "font-size": 8,
    "font-color": [
     0,
     0,
     0.502,
     1
    ],
    "align": "center",
    "align-v": "center"
   },
   "/form1[0]/Page6[0]/Part5[0]/Line47[0]/Amount2[0]": {
    "description": "Part 5. Line 47. Amount from line 45 multiplied by 50%.",
    "class": "text",
    "bounding-box": [
     501.001,
     471.002,
     69.001,
     11.279
    ],
    "font-family": "Helvetica-Bold",
    "font-size": 9,
    "font-color": [
     0,
     0,
     0.502,
     1
    ],
    "align": "decimal",
    "align-v": "center",
    "aliases": {
     "line": 5.47
    },
    "origin": [
     552.002,
     480.281
    ],
    "format": ".2f",
    "max-length": 13
   },
   "/form1[0]/Page6[0]/Part5[0]/Line48[0]/Amount[0]": {
    "description": "Part 5. Line 48. Line 46 plus line 47.",
    "class": "text",
    "bounding-box": [
     501.001,
     486,
     69.001,
     11.279
    ],
    "font-family": "Helvetica-Bold",
    "font-size": 9,
    "font-color": [
     0,
     0,
     0.502,
     1
    ],
    "align": "decimal",
    "align-v": "center",
    "aliases": {
     "line": 5.48
    },
    "origin": [
     552.002,
     495.279
    ],
    "format": ".2f",
    "max-length": 13
   },
   "/form1[0]/Page6[0]/Part5[0]/Line49[0]/Amount[0]": {
    "description": "Part 5. Line 49. Enter the amount from line 29 of the previous page.",
    "class": "text",
    "bounding-box": [
     489.002,
     507.002,
     81,
     11.279
    ],
    "font-family": "Helvetica-Bold",
    "font-size": 9,
    "font-color": [
     0,
     0,
     0.502,
     1
    ],
    "align": "decimal",
    "align-v": "center",
    "aliases": {
     "line": 5.49
    },
    "origin": [
     552.002,
     516.281
    ],
    "format": ".2f",
    "max-length": 13
   },
   "/form1[0]/Page6[0]/Part5[0]/Line50[0]/Amount[0]": {
    "description": "Part 5. Line 50. Enter the amount from line 47.",
    "class": "text",
    "bounding-box": [
     501.001,
     522,
     69.001,
     11.279
    ],
    "font-family": "Helvetica-Bold",
    "font-size": 9,
    "font-color": [
     0,
     0,
     0.502,
     1
    ],
    "align": "decimal",
    "align-v": "center",
    "aliases": {
     "line": 5.5
    },
    "origin": [
     552.002,
     531.279
    ],
    "format": ".2f",
    "max-length": 13
   },
   "/form1[0]/Page6[0]/Part5[0]/Line51[0]/Amount[0]": {
    "description": "Part 5. Line 51. Tax credit for base Canada pension plan contributions on self-employment income and other earnings. Line 49 plus line 50. Enter this amount, in dollars and cents, on line 31000 of your return.",
    "class": "text",
    "bounding-box": [
     501.001,
     537.721,
     69.001,
     34.56
    ],
    "font-family": "Helvetica-Bold",
    "font-size": 9,
    "font-color": [
     0,
     0,
     0.502,
     1
    ],
    "align": "decimal",
    "align-v": "center",
    "aliases": {
     "line": 5.51
    },
    "origin": [
     552.002,
     570.281
    ],
    "format": ".2f",
    "max-length": 13
   },
   "/form1[0]/Page6[0]/Part5[0]/Line52[0]/Amount[0]": {
    "description": "Part 5. Line 52. Enter the amount from line 33 of the previous page.",
    "class": "text",
    "bounding-box": [
     489.002,
     582.001,
     81,
     11.279
    ],
    "font-family": "Helvetica-Bold",
    "font-size": 9,
    "font-color": [
     0,
     0,
     0.502,
     1
    ],
    "align": "decimal",
    "align-v": "center",
    "aliases": {
     "line": 5.52
    },
    "origin": [
     552.002,
     591.28
    ],
    "format": ".2f",
    "max-length": 13
   },
   "/form1[0]/Page6[0]/Part5[0]/Line53[0]/Amount[0]": {
    "description": "Part 5. Line 53. Enter the amount from line 48.",
    "class": "text",
    "bounding-box": [
     501.001,
     597.002,
     69.001,
     11.279
    ],
    "font-family": "Helvetica-Bold",
    "font-size": 9,
    "font-color": [
     0,
     0,
     0.502,
     1
    ],
    "align": "decimal",
    "align-v": "center",
    "aliases": {
     "line": 5.53
    },
    "origin": [
     552.002,
     606.281
    ],
    "format": ".2f",
    "max-length": 13
   },
   "/form1[0]/Page6[0]/Part5[0]/Line54[0]/Amount[0]": {
    "description": "Part 5. Line 54. Deduction for Canada pension plan contributions on self-employment income and other earnings. Line 52 plus line 53. Enter this amount, in dollars and cents, on line 22200 of your return.",
    "class": "text",
    "bounding-box": [
     501.001,
     612.72,
     69.001,
     34.56
    ],
    "font-family": "Helvetica-Bold",
    "font-size": 9,
    "font-color": [
     0,
     0,
     0.502,
     1
    ],
    "align": "decimal",
    "align-v": "center",
    "aliases": {
     "line": 5.54
    },
    "origin": [
     552.002,
     645.28
    ],
    "format": ".2f",
    "max-length": 13
   }
  }
 }
}