{
 "1": {
  "size": [
   612,
   792
  ],
  "fields": {
   "/form1[0]/#pageSet[0]/Page1[0]/ClearData_FR[0]": {
    "description": "Effacer les données",
    "class": "checkbox",
    "bounding-box": [
     492.001,
     2.999,
     96.001,
     15.001
    ],
    "font-family": "Helvetica",
    "font-size": 10,
    "font-color": [
     0,
     0,
     0,
     1
    ],
    "align": "center",
    "align-v": "center"
   },
   "/form1[0]/Page1[0]/Line1[0]/Line1Amount[0]": {
    "description": "Ligne 1. Dons faits aux organismes de bienfaisance enregistrés, aux associations canadiennes enregistrées de sport amateur, aux organisations journalistiques enregistrées et aux sociétés d'habitation enregistrées situées au Canada et créées uniquement dans le but de fournir des logements à loyer modique aux personnes âgées.",
    "class": "text",
    "bounding-box": [
     489.002,
     204.001,
     81,
     35.28
    ],
    "font-family": "Helvetica-Bold",
    "font-size": 9,
    "font-color": [
     0,
     0,
     0.502,
     1
    ],
    "align": "decimal",
    "align-v": "center",
    "aliases": {
     "line": 1
    },
    "origin": [
     552.002,
     237.281
    ],
    "format": ".2f",
    "max-length": 13
   },
   "/form1[0]/Page1[0]/line2[0]/Line2_Amount[0]": {
    "description": "Ligne 32900. Ligne 2. Dons faits à des entités gouvernementales. Gouvernement du Canada ou d'une province ou d'un territoire, municipalités canadiennes enregistrées, ou organismes municipaux ou publics enregistrés remplissant une fonction  gouvernementale au Canada.",
    "class": "text",
    "bounding-box": [
     501.001,
     243,
     69.001,
     35.28
    ],
    "font-family": "Helvetica-Bold",
    "font-size": 9,
    "font-color": [
     0,
     0,
     0.502,
     1
    ],
    "align": "decimal",
    "align-v": "center",
    "aliases": {
     "line": 2,
     "stable": 32900
    },
    "origin": [
     552.002,
     276.28
    ],
    "format": ".2f",
    "max-length": 13
   },
   "/form1[0]/Page1[0]/Line3[0]/Line3_Amount[0]": {
    "description": "Ligne 33300. Ligne 3. Dons faits aux universités enregistrées situées à l'étranger. ",
    "class": "text",
    "bounding-box": [
     501.001,
     281.999,
     69.001,
     11.279
    ],
    "font-family": "Helvetica-Bold",
    "font-size": 9,
    "font-color": [
     0,
     0,
     0.502,
     1
    ],
    "align": "decimal",
    "align-v": "center",
    "aliases": {
     "line": 3,
     "stable": 33300
    },
    "origin": [
     552.002,
     291.278
    ],
    "format": ".2f",
    "max-length": 13
   },
   "/form1[0]/Page1[0]/Line4[0]/Line4_Amount[0]": {
    "description": "Ligne 33400. Ligne 4. Dons faits aux Nations Unies et à ses organismes, ainsi qu'aux organismes de bienfaisance étrangers enregistrés qui ont reçu un don du gouvernement du Canada.",
    "class": "text",
    "bounding-box": [
     501.001,
     297,
     69.001,
     23.281
    ],
    "font-family": "Helvetica-Bold",
    "font-size": 9,
    "font-color": [
     0,
     0,
     0.502,
     1
    ],
    "align": "decimal",
    "align-v": "center",
    "aliases": {
     "line": 4,
     "stable": 33400
    },
    "origin": [
     552.002,
     318.281
    ],
    "format": ".2f",
    "max-length": 13
   },
   "/form1[0]/Page1[0]/Line5[0]/Line5_Amount[0]": {
    "description": "Ligne 5. Montant total admissible des dons de bienfaisance. Additionnez les lignes 1 à 4.",
    "class": "text",
    "bounding-box": [
     501.001,
     324,
     69.001,
     11.279
    ],
    "font-family": "Helvetica-Bold",
    "font-size": 9,
    "font-color": [
     0,
     0,
     0.502,
     1
    ],
    "align": "decimal",
    "align-v": "center",
    "aliases": {
     "line": 5
    },
    "origin": [
     552.002,
     333.279
    ],
    "format": ".2f",
    "max-length": 13
   },
   "/form1[0]/Page1[0]/Line6[0]/AmountA[0]/Line6Amount[0]": {
    "description": "Montant A. Inscrivez votre revenu net de la ligne 23600 de votre déclaration.",
    "class": "text",
    "bounding-box": [
     300.002,
     351,
     81,
     11.279
    ],
    "font-family": "Helvetica-Bold",
    "font-size": 8,
    "font-color": [
     0,
     0,
     0.502,
     1
    ],
    "align": "center",
    "align-v": "center"
   },
   "/form1[0]/Page1[0]/Line6[0]/Line7_Amount[0]": {
    "description": "Ligne 6. Montant A multiplié par 75 %.",
    "class": "text",
    "bounding-box": [
     489.002,
     351,
     81,
     11.279
    ],
    "font-family": "Helvetica-Bold",
    "font-size": 9,
    "font-color": [
     0,
     0,
     0.502,
     1
    ],
    "align": "decimal",
    "align-v": "center",
    "aliases": {
     "line": 6
    },
    "origin": [
     552.002,
     360.279
    ],
    "format": ".2f",
    "max-length": 13
   },
   "/form1[0]/Page1[0]/AmountB[0]/Line8Amount[0]": {
    "description": "Ligne 33700. Montant B. Dons d'immobilisations qui sont des biens amortissables. Selon le tableau 2 dans le guide P113.",
    "class": "text",
    "bounding-box": [
     300.002,
     366.001,
     81,
     23.281
    ],
    "font-family": "Helvetica-Bold",
    "font-size": 9,
    "font-color": [
     0,
     0,
     0.502,
     1
    ],
    "align": "decimal",
    "align-v": "center",
    "aliases": {
     "stable": 33700
    },
    "origin": [
     363.002,
     387.282
    ],
    "format": ".2f",
    "max-length": 13
   },
   "/form1[0]/Page1[0]/AmountC[0]/Line9Amount[0]": {
    "description": "Ligne 33900. Montant C. Dons d'immobilisations. Selon le tableau 1 dans le guide P113.",
    "class": "text",
    "bounding-box": [
     312.001,
     393.001,
     69.001,
     23.281
    ],
    "font-family": "Helvetica-Bold",
    "font-size": 9,
    "font-color": [
     0,
     0,
     0.502,
     1
    ],
    "align": "decimal",
    "align-v": "center",
    "aliases": {
     "stable": 33900
    },
    "origin": [
     363.002,
     414.282
    ],
    "format": ".2f",
    "max-length": 13
   },
   "/form1[0]/Page1[0]/Line7[0]/AmountD[0]/Line10Amount[0]": {
    "description": "Montant D. Montant B plus montant C.",
    "class": "text",
    "bounding-box": [
     312.001,
     420.001,
     69.001,
     11.279
    ],
    "font-family": "Helvetica-Bold",
    "font-size": 8,
    "font-color": [
     0,
     0,
     0.502,
     1
    ],
    "align": "center",
    "align-v": "center"
   },
   "/form1[0]/Page1[0]/Line7[0]/Line11Amount[0]": {
    "description": "Ligne 7. Montant D multiplié par 25 %.",
    "class": "text",
    "bounding-box": [
     501.001,
     420.001,
     69.001,
     11.279
    ],
    "font-family": "Helvetica-Bold",
    "font-size": 9,
    "font-color": [
     0,
     0,
     0.502,
     1
    ],
    "align": "decimal",
    "align-v": "center",
    "aliases": {
     "line": 7
    },
    "origin": [
     552.002,
     429.28
    ],
    "format": ".2f",
    "max-length": 13
   },
   "/form1[0]/Page1[0]/Line8[0]/Line12_Amount[0]": {
    "description": "Ligne 8. Ligne 6 plus ligne 7.",
    "class": "text",
    "bounding-box": [
     501.001,
     434.999,
     69.001,
     11.279
    ],
    "font-family": "Helvetica-Bold",
    "font-size": 9,
    "font-color": [
     0,
     0,
     0.502,
     1
    ],
    "align": "decimal",
    "align-v": "center",
    "aliases": {
     "line": 8
    },
    "origin": [
     552.002,
     444.278
    ],
    "format": ".2f",
    "max-length": 13
   },
   "/form1[0]/Page1[0]/Line9[0]/Line12Amount[0]": {
    "description": "Ligne 9. Limite totale des dons. Inscrivez le montant le moins élevé. Montant A ou ligne 8.",
    "class": "text",
    "bounding-box": [
     489.002,
     450,
     81,
     11.279
    ],
    "font-family": "Helvetica-Bold",
    "font-size": 9,
    "font-color": [
     0,
     0,
     0.502,
     1
    ],
    "align": "decimal",
    "align-v": "center",
    "aliases": {
     "line": 9
    },
    "origin": [
     552.002,
     459.279
    ],
    "format": ".2f",
    "max-length": 13
   },
   "/form1[0]/Page1[0]/Line10[0]/Line14_Amount[0]": {
    "description": "Line 34000. Ligne 10. Dons de bienfaisance admissibles. Inscrivez le montant le moins élevé. Ligne 5 ou ligne 9.",
    "class": "text",
    "bounding-box": [
     489.002,
     465.001,
     81,
     23.281
    ],
    "font-family": "Helvetica-Bold",
    "font-size": 9,
    "font-color": [
     0,
     0,
     0.502,
     1
    ],
    "align": "decimal",
    "align-v": "center",
    "aliases": {
     "line": 10,
     "stable": 34000
    },
    "origin": [
     552.002,
     486.282
    ],
    "format": ".2f",
    "max-length": 13
   },
   "/form1[0]/Page1[0]/Line11[0]/Line15_Amount[0]": {
    "description": "Ligne 34200. Ligne 11. Montant admissible de dons de biens écosensibles et de dons de biens culturels. Consultez le guide P113.",
    "class": "text",
    "bounding-box": [
     501.001,
     492.001,
     69.001,
     23.281
    ],
    "font-family": "Helvetica-Bold",
    "font-size": 9,
    "font-color": [
     0,
     0,
     0.502,
     1
    ],
    "align": "decimal",
    "align-v": "center",
    "aliases": {
     "line": 11,
     "stable": 34200
    },
    "origin": [
     552.002,
     513.282
    ],
    "format": ".2f",
    "max-length": 13
   },
   "/form1[0]/Page1[0]/Line12[0]/Line16_Amount[0]": {
    "description": "Ligne 12. Ligne 10 plus ligne 11.",
    "class": "text",
    "bounding-box": [
     501.001,
     519.001,
     69.001,
     11.279
    ],
    "font-family": "Helvetica-Bold",
    "font-size": 9,
    "font-color": [
     0,
     0,
     0.502,
     1
    ],
    "align": "decimal",
    "align-v": "center",
    "aliases": {
     "line": 12
    },
    "origin": [
     552.002,
     528.28
    ],
    "format": ".2f",
    "max-length": 13
   },
   "/form1[0]/Page1[0]/Line13[0]/Line17_Amount[0]": {
    "description": "Ligne 13. Inscrivez le montant le moins élevé. Ligne 12 ou 200 $.",
    "class": "text",
    "bounding-box": [
     501.001,
     533.999,
     69.001,
     11.279
    ],
    "font-family": "Helvetica-Bold",
    "font-size": 9,
    "font-color": [
     0,
     0,
     0.502,
     1
    ],
    "align": "decimal",
    "align-v": "center",
    "aliases": {
     "line": 13
    },
    "origin": [
     552.002,
     543.278
    ],
    "format": ".2f",
    "max-length": 13
   },
   "/form1[0]/Page1[0]/Line14[0]/Line18_Amount[0]": {
    "description": "Ligne 14. Ligne 12 moins ligne 13. ",
    "class": "text",
    "bounding-box": [
     501.001,
     549,
     69.001,
     11.279
    ],
    "font-family": "Helvetica-Bold",
    "font-size": 9,
    "font-color": [
     0,
     0,
     0.502,
     1
    ],
    "align": "decimal",
    "align-v": "center",
    "aliases": {
     "line": 14
    },
    "origin": [
     552.002,
     558.279
    ],
    "format": ".2f",
    "max-length": 13
   },
   "/form1[0]/Page1[0]/Line15[0]/Line14_Amount[0]": {
    "description": "Ligne 34210. Ligne 15. Total des dons de biens écosensibles faits après le 10 février 2014 et avant 2016 inclus dans le montant de la ligne 11.",
    "class": "text",
    "bounding-box": [
     501.001,
     564.001,
     69.001,
     23.281
    ],
    "font-family": "Helvetica-Bold",
    "font-size": 9,
    "font-color": [
     0,
     0,
     0.502,
     1
    ],
    "align": "decimal",
    "align-v": "center",
    "aliases": {
     "line": 15,
     "stable": 34210
    },
    "origin": [
     552.002,
     585.282
    ],
    "format": ".2f",
    "max-length": 13
   },
   "/form1[0]/Page1[0]/Line16[0]/NumWithoutCurrency[0]": {
    "description": "Ligne 16. Ligne 14 moins ligne 15. Si négatif, inscrivez 0.",
    "class": "text",
    "bounding-box": [
     501.001,
     591.001,
     69.001,
     11.279
    ],
    "font-family": "Helvetica-Bold",
    "font-size": 9,
    "font-color": [
     0,
     0,
     0.502,
     1
    ],
    "align": "decimal",
    "align-v": "center",
    "aliases": {
     "line": 16
    },
    "origin": [
     552.002,
     600.28
    ],
    "format": ".2f",
    "max-length": 13
   },
   "/form1[0]/Page1[0]/Line17[0]/Line28_Amount[0]": {
    "description": "Ligne 17. Inscrivez votre revenu imposable de la ligne 26000 de votre déclaration.",
    "class": "text",
    "bounding-box": [
     489.002,
     605.999,
     81,
     11.279
    ],
    "font-family": "Helvetica-Bold",
    "font-size": 9,
    "font-color": [
     0,
     0,
     0.502,
     1
    ],
    "align": "decimal",
    "align-v": "center",
    "aliases": {
     "line": 17
    },
    "origin": [
     552.002,
     615.278
    ],
    "format": ".2f",
    "max-length": 13
   },
   "/form1[0]/Page1[0]/Line18[0]/Line24Amount[0]": {
    "description": "Ligne 18. Seuil du revenu.",
    "class": "text",
    "bounding-box": [
     501.001,
     621,
     69.001,
     11.279
    ],
    "font-family": "Helvetica",
    "font-size": 9,
    "font-color": [
     0,
     0,
     0,
     1
    ],
    "align": "decimal",
    "align-v": "center",
    "aliases": {
     "line": 18
    },
    "origin": [
     552.002,
     630.279
    ],
    "format": ".2f",
    "max-length": 13
   },
   "/form1[0]/Page1[0]/Line19[0]/Line25_Amount[0]": {
    "description": "Ligne 19. Ligne 17 moins ligne 18. Si négatif, inscrivez 0.",
    "class": "text",
    "bounding-box": [
     501.001,
     636.001,
     69.001,
     11.279
    ],
    "font-family": "Helvetica-Bold",
    "font-size": 9,
    "font-color": [
     0,
     0,
     0.502,
     1
    ],
    "align": "decimal",
    "align-v": "center",
    "aliases": {
     "line": 19
    },
    "origin": [
     552.002,
     645.28
    ],
    "format": ".2f",
    "max-length": 13
   },
   "/form1[0]/Page1[0]/AmountE[0]/Line28_Amount[0]": {
    "description": "Montant E. Montant de la ligne 14.  ",
    "class": "text",
    "bounding-box": [
     300.002,
     650.999,
     81,
     11.279
    ],
    "font-family": "Helvetica-Bold",
    "font-size": 8,
    "font-color": [
     0,
     0,
     0.502,
     1
    ],
    "align": "center",
    "align-v": "center"
   },
   "/form1[0]/Page1[0]/Line20[0]/AmountF[0]/Line26_Amount[0]": {
    "description": "Montant F. Inscrivez le montant le moins élevé. Ligne 16 ou ligne 19.",
    "class": "text",
    "bounding-box": [
     312.001,
     666,
     69.001,
     11.279
    ],
    "font-family": "Helvetica-Bold",
    "font-size": 8,
    "font-color": [
     0,
     0,
     0.502,
     1
    ],
    "align": "center",
    "align-v": "center"
   },
   "/form1[0]/Page1[0]/Line20[0]/Line20_Amount[0]": {
    "description": "Ligne 20. Montant F multiplié par 33 %.",
    "class": "text",
    "bounding-box": [
     489.002,
     666,
     81,
     11.279
    ],
    "font-family": "Helvetica-Bold",
    "font-size": 9,
    "font-color": [
     0,
     0,
     0.502,
     1
    ],
    "align": "decimal",
    "align-v": "center",
    "aliases": {
     "line": 20
    },
    "origin": [
     552.002,
     675.279
    ],
    "format": ".2f",
    "max-length": 13
   },
   "/form1[0]/Page1[0]/Line21[0]/Line30[0]/Line30_Amount[0]": {
    "description": "Montant G. Montant E moins montant F.",
    "class": "text",
    "bounding-box": [
     312.001,
     681.001,
     69.001,
     11.279
    ],
    "font-family": "Helvetica-Bold",
    "font-size": 8,
    "font-color": [
     0,
     0,
     0.502,
     1
    ],
    "align": "center",
    "align-v": "center"
   },
   "/form1[0]/Page1[0]/Line21[0]/Line31_Amount[0]": {
    "description": "Ligne 21. Montant G multiplié par 29 %.",
    "class": "text",
    "bounding-box": [
     501.001,
     681.001,
     69.001,
     11.279
    ],
    "font-family": "Helvetica-Bold",
    "font-size": 9,
    "font-color": [
     0,
     0,
     0.502,
     1
    ],
    "align": "decimal",
    "align-v": "center",
    "aliases": {
     "line": 21
    },
    "origin": [
     552.002,
     690.28
    ],
    "format": ".2f",
    "max-length": 13
   },
   "/form1[0]/Page1[0]/Line22[0]/Line32[0]/Line32_Amount[0]": {
    "description": "Montant H. Montant de la ligne 13. ",
    "class": "text",
    "bounding-box": [
     300.002,
     695.999,
     81,
     11.279
    ],
    "font-family": "Helvetica-Bold",
    "font-size": 8,
    "font-color": [
     0,
     0,
     0.502,
     1
    ],
    "align": "center",
    "align-v": "center"
   },
   "/form1[0]/Page1[0]/Line22[0]/Line33_Amount[0]": {
    "description": "Ligne 22. Montant H multiplié par 15 %.",
    "class": "text",
    "bounding-box": [
     501.001,
     695.999,
     69.001,
     11.279
    ],
    "font-family": "Helvetica-Bold",
    "font-size": 9,
    "font-color": [
     0,
     0,
     0.502,
     1
    ],
    "align": "decimal",
    "align-v": "center",
    "aliases": {
     "line": 22
    },
    "origin": [
     552.002,
     705.278
    ],
    "format": ".2f",
    "max-length": 13
   },
   "/form1[0]/Page1[0]/Line23[0]/Line32Amount[0]": {
    "description": "Ligne 23. Dons. Additionnez les lignes 20 à 22. Inscrivez ce montant à la ligne 34900 de votre déclaration.",
    "class": "text",
    "bounding-box": [
     501.001,
     711.72,
     69.001,
     22.561
    ],
    "font-family": "Helvetica-Bold",
    "font-size": 9,
    "font-color": [
     0,
     0,
     0.502,
     1
    ],
    "align": "decimal",
    "align-v": "center",
    "aliases": {
     "line": 23
    },
    "origin": [
     552.002,
     732.281
    ],
    "format": ".2f",
    "max-length": 13
   }
  }
 }
}