{
 "1": {
  "size": [
   612,
   792
  ],
  "fields": {
   "/form1[0]/#pageSet[0]/Page1[0]/ClearData_FR[0]": {
    "description": "Effacer les données",
    "class": "checkbox",
    "bounding-box": [
     492.001,
     2.999,
     96.001,
     15.001
    ],
    "font-family": "Helvetica",
    "font-size": 10,
    "font-color": [
     0,
     0,
     0,
     1
    ],
    "align": "center",
    "align-v": "center"
   }
  }
 },
 "2": {
  "size": [
   612,
   792
  ],
  "fields": {
   "/form1[0]/#pageSet[0]/Page1[1]/ClearData_FR[0]": {
    "description": "Effacer les données",
    "class": "checkbox",
    "bounding-box": [
     492.001,
     2.999,
     96.001,
     15.001
    ],
    "font-family": "Helvetica",
    "font-size": 10,
    "font-color": [
     0,
     0,
     0,
     1
    ],
    "align": "center",
    "align-v": "center"
   },
   "/form1[0]/Page2[0]/Step1_tickboxes[0]/Line38100[0]/Line38100_CheckBoxGroup[0]/Line38100_CheckBox_FR[0]": {
    "description": "Ligne 38100. Avez-vous une personne à charge admissible? Oui.",
    "class": "checkbox",
    "bounding-box": [
     501.001,
     52,
     10,
     10
    ],
    "font-family": "ZapfDingbats",
    "font-size": 9,
    "font-color": [
     0,
     0,
     0.502,
     1
    ],
    "align": "decimal",
    "align-v": "center",
    "aliases": {
     "stable": 38100
    },
    "origin": [
     493.001,
     60
    ],
    "format": ".2f",
    "max-length": 13
   },
   "/form1[0]/Page2[0]/Step1_tickboxes[0]/Line38100[0]/Line38100_CheckBoxGroup[0]/Line38100_CheckBox_FR[1]": {
    "description": "Ligne 38100. Avez-vous une personne à charge admissible? Non.",
    "class": "checkbox",
    "bounding-box": [
     549.003,
     52,
     10,
     10
    ],
    "font-family": "ZapfDingbats",
    "font-size": 9,
    "font-color": [
     0,
     0,
     0.502,
     1
    ],
    "align": "decimal",
    "align-v": "center",
    "aliases": {
     "stable": 38100
    },
    "origin": [
     541.003,
     60
    ],
    "format": ".2f",
    "max-length": 13
   },
   "/form1[0]/Page2[0]/Step1_tickboxes[0]/Line38101[0]/Line38101_CheckBoxGroup[0]/Line38101_CheckBox_FR[0]": {
    "description": "Ligne 38101. Avez-vous un conjoint admissible? Oui.",
    "class": "checkbox",
    "bounding-box": [
     501.001,
     67.001,
     10,
     10
    ],
    "font-family": "ZapfDingbats",
    "font-size": 9,
    "font-color": [
     0,
     0,
     0.502,
     1
    ],
    "align": "decimal",
    "align-v": "center",
    "aliases": {
     "stable": 38101
    },
    "origin": [
     493.001,
     75.001
    ],
    "format": ".2f",
    "max-length": 13
   },
   "/form1[0]/Page2[0]/Step1_tickboxes[0]/Line38101[0]/Line38101_CheckBoxGroup[0]/Line38101_CheckBox_FR[1]": {
    "description": "Ligne 38101. Avez-vous un conjoint admissible? Non.",
    "class": "checkbox",
    "bounding-box": [
     549.003,
     67.001,
     10,
     10
    ],
    "font-family": "ZapfDingbats",
    "font-size": 9,
    "font-color": [
     0,
     0,
     0.502,
     1
    ],
    "align": "decimal",
    "align-v": "center",
    "aliases": {
     "stable": 38101
    },
    "origin": [
     541.003,
     75.001
    ],
    "format": ".2f",
    "max-length": 13
   },
   "/form1[0]/Page2[0]/Step1_tickboxes[0]/Line38102[0]/Line38102_CheckBoxGroup[0]/Line38102_CheckBox_FR[0]": {
    "description": "Ligne 38102. Demandez-vous l'Allocation canadienne pour les travailleurs de base? Oui. Si oui, remplissez les parties A et B, ensuite, s'il y a lieu, remplissez l'étape 2.",
    "class": "checkbox",
    "bounding-box": [
     501.001,
     93.998,
     10,
     10
    ],
    "font-family": "ZapfDingbats",
    "font-size": 9,
    "font-color": [
     0,
     0,
     0.502,
     1
    ],
    "align": "decimal",
    "align-v": "center",
    "aliases": {
     "stable": 38102
    },
    "origin": [
     493.001,
     101.998
    ],
    "format": ".2f",
    "max-length": 13
   },
   "/form1[0]/Page2[0]/Step1_tickboxes[0]/Line38102[0]/Line38102_CheckBoxGroup[0]/Line38102_CheckBox_FR[1]": {
    "description": "Ligne 38102. Demandez-vous l'Allocation canadienne pour les travailleurs de base? Non.",
    "class": "checkbox",
    "bounding-box": [
     549.003,
     93.998,
     10,
     10
    ],
    "font-family": "ZapfDingbats",
    "font-size": 9,
    "font-color": [
     0,
     0,
     0.502,
     1
    ],
    "align": "decimal",
    "align-v": "center",
    "aliases": {
     "stable": 38102
    },
    "origin": [
     541.003,
     101.998
    ],
    "format": ".2f",
    "max-length": 13
   },
   "/form1[0]/Page2[0]/Step1_tickboxes[0]/Line38103[0]/Line38103_CheckBoxGroup[0]/Line38103_CheckBox_FR[0]": {
    "description": "Ligne 38103. Êtes-vous admissible au crédit d'impôt pour personnes handicapées? Oui. Si oui, remplissez les parties A et B, ensuite, s'il y a lieu, remplissez l'étape 3.",
    "class": "checkbox",
    "bounding-box": [
     501.001,
     120.998,
     10,
     10
    ],
    "font-family": "ZapfDingbats",
    "font-size": 9,
    "font-color": [
     0,
     0,
     0.502,
     1
    ],
    "align": "decimal",
    "align-v": "center",
    "aliases": {
     "stable": 38103
    },
    "origin": [
     493.001,
     128.998
    ],
    "format": ".2f",
    "max-length": 13
   },
   "/form1[0]/Page2[0]/Step1_tickboxes[0]/Line38103[0]/Line38103_CheckBoxGroup[0]/Line38103_CheckBox_FR[1]": {
    "description": "Ligne 38103. Êtes-vous admissible au crédit d'impôt pour personnes handicapées? Non.",
    "class": "checkbox",
    "bounding-box": [
     549.003,
     120.998,
     10,
     10
    ],
    "font-family": "ZapfDingbats",
    "font-size": 9,
    "font-color": [
     0,
     0,
     0.502,
     1
    ],
    "align": "decimal",
    "align-v": "center",
    "aliases": {
     "stable": 38103
    },
    "origin": [
     541.003,
     128.998
    ],
    "format": ".2f",
    "max-length": 13
   },
   "/form1[0]/Page2[0]/Step1_tickboxes[0]/Line38104[0]/Line38104_CheckBoxGroup[0]/Line38104_CheckBox_FR[0]": {
    "description": "Ligne 38104. Votre conjoint admissible est-il admissible au crédit d'impôt pour personnes handicapées pour lui-même? Oui. Si oui, votre conjoint admissible doit remplir les étapes 1 et 3 sur une annexe 6 distincte.",
    "class": "checkbox",
    "bounding-box": [
     501.001,
     147.998,
     10,
     10
    ],
    "font-family": "ZapfDingbats",
    "font-size": 9,
    "font-color": [
     0,
     0,
     0.502,
     1
    ],
    "align": "decimal",
    "align-v": "center",
    "aliases": {
     "stable": 38104
    },
    "origin": [
     493.001,
     155.998
    ],
    "format": ".2f",
    "max-length": 13
   },
   "/form1[0]/Page2[0]/Step1_tickboxes[0]/Line38104[0]/Line38104_CheckBoxGroup[0]/Line38104_CheckBox_FR[1]": {
    "description": "Ligne 38104. Votre conjoint admissible est-il admissible au crédit d'impôt pour personnes handicapées pour lui-même? Non.",
    "class": "checkbox",
    "bounding-box": [
     549.003,
     147.998,
     10,
     10
    ],
    "font-family": "ZapfDingbats",
    "font-size": 9,
    "font-color": [
     0,
     0,
     0.502,
     1
    ],
    "align": "decimal",
    "align-v": "center",
    "aliases": {
     "stable": 38104
    },
    "origin": [
     541.003,
     155.998
    ],
    "format": ".2f",
    "max-length": 13
   },
   "/form1[0]/Page2[0]/Step1_tickboxes[0]/Line38105[0]/Remarque1[0]": {
    "description": "Remarque1",
    "class": "checkbox",
    "bounding-box": [
     369,
     162,
     36,
     11.999
    ],
    "font-family": "Helvetica",
    "font-size": 10,
    "font-color": [
     0,
     0,
     0,
     1
    ],
    "align": "center",
    "align-v": "center"
   },
   "/form1[0]/Page2[0]/Step1_tickboxes[0]/Line38105[0]/Line38105_CheckBoxGroup[0]/Line38105_CheckBox_FR[0]": {
    "description": "Ligne 38105. Choisissez-vous d'inclure les revenus exonérés d'impôt dans le calcul de l'Allocation canadienne pour les travailleurs? Oui.",
    "class": "checkbox",
    "bounding-box": [
     501.001,
     162.999,
     10,
     10
    ],
    "font-family": "ZapfDingbats",
    "font-size": 9,
    "font-color": [
     0,
     0,
     0.502,
     1
    ],
    "align": "decimal",
    "align-v": "center",
    "aliases": {
     "stable": 38105
    },
    "origin": [
     493.001,
     170.999
    ],
    "format": ".2f",
    "max-length": 13
   },
   "/form1[0]/Page2[0]/Step1_tickboxes[0]/Line38105[0]/Line38105_CheckBoxGroup[0]/Line38105_CheckBox_FR[1]": {
    "description": "Ligne 38105. Choisissez-vous d'inclure les revenus exonérés d'impôt dans le calcul de l'Allocation canadienne pour les travailleurs? Non.",
    "class": "checkbox",
    "bounding-box": [
     549.003,
     162.999,
     10,
     10
    ],
    "font-family": "ZapfDingbats",
    "font-size": 9,
    "font-color": [
     0,
     0,
     0.502,
     1
    ],
    "align": "decimal",
    "align-v": "center",
    "aliases": {
     "stable": 38105
    },
    "origin": [
     541.003,
     170.999
    ],
    "format": ".2f",
    "max-length": 13
   },
   "/form1[0]/Page2[0]/PartA_sub[0]/Chart[0]/Line1[0]/Amount1[0]/Amount[0]": {
    "description": "Ligne 1. Colonne 1. Vous. Revenus d'emploi et autres revenus d'emploi des lignes 10100 et 10400 de la déclaration.",
    "class": "text",
    "bounding-box": [
     381.002,
     266.998,
     81,
     23.281
    ],
    "font-family": "Helvetica-Bold",
    "font-size": 9,
    "font-color": [
     0,
     0,
     0.502,
     1
    ],
    "align": "decimal",
    "align-v": "center",
    "aliases": {
     "line": 1
    },
    "origin": [
     444.002,
     288.279
    ],
    "format": ".2f",
    "max-length": 13
   },
   "/form1[0]/Page2[0]/PartA_sub[0]/Chart[0]/Line1[0]/Amount2[0]/Amount[0]": {
    "description": "Ligne 1. Colonne 2. Votre conjoint admissible. Revenus d'emploi et autres revenus d'emploi des lignes 10100 et 10400 de la déclaration.",
    "class": "text",
    "bounding-box": [
     489.002,
     266.998,
     81,
     23.281
    ],
    "font-family": "Helvetica-Bold",
    "font-size": 9,
    "font-color": [
     0,
     0,
     0.502,
     1
    ],
    "align": "decimal",
    "align-v": "center",
    "aliases": {
     "line": 1
    },
    "origin": [
     552.002,
     288.279
    ],
    "format": ".2f",
    "max-length": 13
   },
   "/form1[0]/Page2[0]/PartA_sub[0]/Chart[0]/Line2[0]/Amount1[0]/Amount[0]": {
    "description": "Ligne 38106. Ligne 2. Colonne 1. Vous. Montant imposable des bourses d'études, de perfectionnement et d'entretien et des subventions reçues par des artistes pour un projet de la ligne 13010 de la déclaration.",
    "class": "text",
    "bounding-box": [
     393.001,
     293.998,
     69.001,
     35.28
    ],
    "font-family": "Helvetica-Bold",
    "font-size": 9,
    "font-color": [
     0,
     0,
     0.502,
     1
    ],
    "align": "decimal",
    "align-v": "center",
    "aliases": {
     "line": 2,
     "stable": 38106
    },
    "origin": [
     444.002,
     327.278
    ],
    "format": ".2f",
    "max-length": 13
   },
   "/form1[0]/Page2[0]/PartA_sub[0]/Chart[0]/Line2[0]/Amount2[0]/Amount[0]": {
    "description": "Ligne 38106. Ligne 2. Colonne 2. Votre conjoint admissible. Montant imposable des bourses d'études, de perfectionnement et d'entretien et des subventions reçues par des artistes pour un projet de la ligne 13010 de la déclaration.",
    "class": "text",
    "bounding-box": [
     501.001,
     293.998,
     69.001,
     35.28
    ],
    "font-family": "Helvetica-Bold",
    "font-size": 9,
    "font-color": [
     0,
     0,
     0.502,
     1
    ],
    "align": "decimal",
    "align-v": "center",
    "aliases": {
     "line": 2,
     "stable": 38106
    },
    "origin": [
     552.002,
     327.278
    ],
    "format": ".2f",
    "max-length": 13
   },
   "/form1[0]/Page2[0]/PartA_sub[0]/Chart[0]/Line3[0]/Remarque2[0]": {
    "description": "Remarque2",
    "class": "checkbox",
    "bounding-box": [
     300.002,
     344.999,
     36,
     11.999
    ],
    "font-family": "Helvetica",
    "font-size": 10,
    "font-color": [
     0,
     0,
     0,
     1
    ],
    "align": "center",
    "align-v": "center"
   },
   "/form1[0]/Page2[0]/PartA_sub[0]/Chart[0]/Line3[0]/Amount1[0]/Amount[0]": {
    "description": "Ligne 3. Colonne 1. Vous. Total des revenus d'un travail indépendant des lignes 13500, 13700, 13900, 14100 et 14300 de la déclaration, en excluant les pertes.",
    "class": "text",
    "bounding-box": [
     393.001,
     333,
     69.001,
     23.281
    ],
    "font-family": "Helvetica-Bold",
    "font-size": 9,
    "font-color": [
     0,
     0,
     0.502,
     1
    ],
    "align": "decimal",
    "align-v": "center",
    "aliases": {
     "line": 3
    },
    "origin": [
     444.002,
     354.281
    ],
    "format": ".2f",
    "max-length": 13
   },
   "/form1[0]/Page2[0]/PartA_sub[0]/Chart[0]/Line3[0]/Amount2[0]/Amount[0]": {
    "description": "Ligne 3. Colonne 2. Votre conjoint admissible. Total des revenus d'un travail indépendant des lignes 13500, 13700, 13900, 14100 et 14300 de la déclaration, en excluant les pertes.",
    "class": "text",
    "bounding-box": [
     501.001,
     333,
     69.001,
     23.281
    ],
    "font-family": "Helvetica-Bold",
    "font-size": 9,
    "font-color": [
     0,
     0,
     0.502,
     1
    ],
    "align": "decimal",
    "align-v": "center",
    "aliases": {
     "line": 3
    },
    "origin": [
     552.002,
     354.281
    ],
    "format": ".2f",
    "max-length": 13
   },
   "/form1[0]/Page2[0]/PartA_sub[0]/Chart[0]/Line4[0]/Remarque1[0]": {
    "description": "Remarque1",
    "class": "checkbox",
    "bounding-box": [
     66.002,
     384.001,
     36,
     11.999
    ],
    "font-family": "Helvetica",
    "font-size": 10,
    "font-color": [
     0,
     0,
     0,
     1
    ],
    "align": "center",
    "align-v": "center"
   },
   "/form1[0]/Page2[0]/PartA_sub[0]/Chart[0]/Line4[0]/Amount1[0]/Amount[0]": {
    "description": "Ligne 38107. Ligne 4. Colonne 1. Vous. Revenu de travail exonéré d'impôt gagné dans une réserve, selon la ligne 10000 du formulaire T90, Revenu exonéré d'impôt selon la Loi sur les Indiens, ou allocation qui vous a été versée à titre de volontaire des services d'urgence, selon la ligne 10105 de la déclaration.",
    "class": "text",
    "bounding-box": [
     393.001,
     360,
     69.001,
     47.279
    ],
    "font-family": "Helvetica-Bold",
    "font-size": 9,
    "font-color": [
     0,
     0,
     0.502,
     1
    ],
    "align": "decimal",
    "align-v": "center",
    "aliases": {
     "line": 4,
     "stable": 38107
    },
    "origin": [
     444.002,
     405.279
    ],
    "format": ".2f",
    "max-length": 13
   },
   "/form1[0]/Page2[0]/PartA_sub[0]/Chart[0]/Line4[0]/Amount2[0]/Amount[0]": {
    "description": "Ligne 38107. Ligne 4. Colonne 2. Votre conjoint admissible. Revenu de travail exonéré d'impôt gagné dans une réserve, selon la ligne 10000 du formulaire T90, Revenu exonéré d'impôt selon la Loi sur les Indiens, ou allocation qui vous a été versée à titre de volontaire des services d'urgence, selon la ligne 10105 de la déclaration.",
    "class": "text",
    "bounding-box": [
     501.001,
     360,
     69.001,
     47.279
    ],
    "font-family": "Helvetica-Bold",
    "font-size": 9,
    "font-color": [
     0,
     0,
     0.502,
     1
    ],
    "align": "decimal",
    "align-v": "center",
    "aliases": {
     "line": 4,
     "stable": 38107
    },
    "origin": [
     552.002,
     405.279
    ],
    "format": ".2f",
    "max-length": 13
   },
   "/form1[0]/Page2[0]/PartA_sub[0]/Chart[0]/Line5[0]/Amount1[0]/Amount[0]": {
    "description": "Ligne 38108. Ligne 5. Colonne 1. Vous. Revenu de travail. Additionnez les lignes 1 à 4. Inscrivez le résultat, même s'il est 0.",
    "class": "text",
    "bounding-box": [
     393.001,
     410.998,
     69.001,
     23.281
    ],
    "font-family": "Helvetica-Bold",
    "font-size": 9,
    "font-color": [
     0,
     0,
     0.502,
     1
    ],
    "align": "decimal",
    "align-v": "center",
    "aliases": {
     "line": 5,
     "stable": 38108
    },
    "origin": [
     444.002,
     432.279
    ],
    "format": ".2f",
    "max-length": 13
   },
   "/form1[0]/Page2[0]/PartA_sub[0]/Chart[0]/Line5[0]/Amount2[0]/Amount[0]": {
    "description": "Ligne 38108. Ligne 5. Colonne 2. Votre conjoint admissible. Revenu de travail. Additionnez les lignes 1 à 4. Inscrivez le résultat, même s'il est 0.",
    "class": "text",
    "bounding-box": [
     501.001,
     410.998,
     69.001,
     23.281
    ],
    "font-family": "Helvetica-Bold",
    "font-size": 9,
    "font-color": [
     0,
     0,
     0.502,
     1
    ],
    "align": "decimal",
    "align-v": "center",
    "aliases": {
     "line": 5,
     "stable": 38108
    },
    "origin": [
     552.002,
     432.279
    ],
    "format": ".2f",
    "max-length": 13
   },
   "/form1[0]/Page2[0]/PartA_sub[0]/Line6_Sub[0]/Amount[0]": {
    "description": "Ligne 6. Revenu de travail familial. Additionnez les montants de la ligne 5 des colonnes 1 et 2. Inscrivez ce montant à la ligne 16.",
    "class": "text",
    "bounding-box": [
     489.002,
     443.999,
     81,
     23.281
    ],
    "font-family": "Helvetica-Bold",
    "font-size": 9,
    "font-color": [
     0,
     0,
     0.502,
     1
    ],
    "align": "decimal",
    "align-v": "center",
    "aliases": {
     "line": 6
    },
    "origin": [
     552.002,
     465.28
    ],
    "format": ".2f",
    "max-length": 13
   }
  }
 },
 "3": {
  "size": [
   612,
   792
  ],
  "fields": {
   "/form1[0]/#pageSet[0]/Page1[2]/ClearData_FR[0]": {
    "description": "Effacer les données",
    "class": "checkbox",
    "bounding-box": [
     492.001,
     2.999,
     96.001,
     15.001
    ],
    "font-family": "Helvetica",
    "font-size": 10,
    "font-color": [
     0,
     0,
     0,
     1
    ],
    "align": "center",
    "align-v": "center"
   },
   "/form1[0]/Page3[0]/PartB[0]/Chart[0]/Line7[0]/Amount1[0]/Line7Amount1[0]": {
    "description": "Ligne 7. Colonne 1. Vous. Revenu net de la ligne 23600 de la déclaration.",
    "class": "text",
    "bounding-box": [
     381.002,
     113.998,
     81,
     11.279
    ],
    "font-family": "Helvetica-Bold",
    "font-size": 9,
    "font-color": [
     0,
     0,
     0.502,
     1
    ],
    "align": "decimal",
    "align-v": "center",
    "aliases": {
     "line": 7
    },
    "origin": [
     444.002,
     123.277
    ],
    "format": ".2f",
    "max-length": 13
   },
   "/form1[0]/Page3[0]/PartB[0]/Chart[0]/Line7[0]/Amount2[0]/Line7Amount2[0]": {
    "description": "Ligne 7. Colonne 2. Votre conjoint admissible. Revenu net de la ligne 23600 de la déclaration.",
    "class": "text",
    "bounding-box": [
     489.002,
     113.998,
     81,
     11.279
    ],
    "font-family": "Helvetica-Bold",
    "font-size": 9,
    "font-color": [
     0,
     0,
     0.502,
     1
    ],
    "align": "decimal",
    "align-v": "center",
    "aliases": {
     "line": 7
    },
    "origin": [
     552.002,
     123.277
    ],
    "format": ".2f",
    "max-length": 13
   },
   "/form1[0]/Page3[0]/PartB[0]/Chart[0]/Line8[0]/Amount1[0]/Line8Amount1[0]": {
    "description": "Ligne 38109. Ligne 8. Colonne 1. Vous. Partie exonérée d'impôt de tout revenu gagné ou reçu dans une réserve moins les déductions liées à ce revenu, selon la ligne 10026 du formulaire T90, ou allocation qui vous a été versée à titre de volontaire des services d'urgence, selon la ligne 10105 de la déclaration.",
    "class": "text",
    "bounding-box": [
     393.001,
     128.999,
     69.001,
     44.28
    ],
    "font-family": "Helvetica-Bold",
    "font-size": 9,
    "font-color": [
     0,
     0,
     0.502,
     1
    ],
    "align": "decimal",
    "align-v": "center",
    "aliases": {
     "line": 8,
     "stable": 38109
    },
    "origin": [
     444.002,
     171.279
    ],
    "format": ".2f",
    "max-length": 13
   },
   "/form1[0]/Page3[0]/PartB[0]/Chart[0]/Line8[0]/Amount2[0]/Line8Amount2[0]": {
    "description": "Ligne 38109. Ligne 8. Colonne 2. Votre conjoint admissible. Partie exonérée d'impôt de tout revenu gagné ou reçu dans une réserve moins les déductions liées à ce revenu, selon la ligne 10026 du formulaire T90, ou allocation qui vous a été versée à titre de volontaire des services d'urgence, selon la ligne 10105 de la déclaration.",
    "class": "text",
    "bounding-box": [
     501.001,
     128.999,
     69.001,
     44.28
    ],
    "font-family": "Helvetica-Bold",
    "font-size": 9,
    "font-color": [
     0,
     0,
     0.502,
     1
    ],
    "align": "decimal",
    "align-v": "center",
    "aliases": {
     "line": 8,
     "stable": 38109
    },
    "origin": [
     552.002,
     171.279
    ],
    "format": ".2f",
    "max-length": 13
   },
   "/form1[0]/Page3[0]/PartB[0]/Chart[0]/Line9[0]/Amount1[0]/Line9Amount1[0]": {
    "description": "Ligne 9. Colonne 1. Vous.  Remboursement total de la prestation universelle pour la garde d'enfants, ligne 21300 de la déclaration, et des revenus d'un régime enregistré d'épargne-invalidité, inclus dans le montant de la ligne 23200 de la déclaration.",
    "class": "text",
    "bounding-box": [
     393.001,
     176.998,
     69.001,
     44.28
    ],
    "font-family": "Helvetica-Bold",
    "font-size": 9,
    "font-color": [
     0,
     0,
     0.502,
     1
    ],
    "align": "decimal",
    "align-v": "center",
    "aliases": {
     "line": 9
    },
    "origin": [
     444.002,
     219.278
    ],
    "format": ".2f",
    "max-length": 13
   },
   "/form1[0]/Page3[0]/PartB[0]/Chart[0]/Line9[0]/Amount2[0]/Line9Amount2[0]": {
    "description": "Ligne 9. Colonne 2. Votre conjoint admissible. Remboursement total de la prestation universelle pour la garde d'enfants, ligne 21300 de la déclaration, et des revenus d'un régime enregistré d'épargne-invalidité, inclus dans le montant de la ligne 23200 de la déclaration.",
    "class": "text",
    "bounding-box": [
     501.001,
     176.998,
     69.001,
     44.28
    ],
    "font-family": "Helvetica-Bold",
    "font-size": 9,
    "font-color": [
     0,
     0,
     0.502,
     1
    ],
    "align": "decimal",
    "align-v": "center",
    "aliases": {
     "line": 9
    },
    "origin": [
     552.002,
     219.278
    ],
    "format": ".2f",
    "max-length": 13
   },
   "/form1[0]/Page3[0]/PartB[0]/Chart[0]/Line10[0]/Amount1[0]/Line10Amount1[0]": {
    "description": "Ligne 10. Colonne 1. Vous. Additionnez les lignes 7 à 9.",
    "class": "text",
    "bounding-box": [
     393.001,
     225,
     69.001,
     11.279
    ],
    "font-family": "Helvetica-Bold",
    "font-size": 9,
    "font-color": [
     0,
     0,
     0.502,
     1
    ],
    "align": "decimal",
    "align-v": "center",
    "aliases": {
     "line": 10
    },
    "origin": [
     444.002,
     234.279
    ],
    "format": ".2f",
    "max-length": 13
   },
   "/form1[0]/Page3[0]/PartB[0]/Chart[0]/Line10[0]/Amount2[0]/Line10Amount2[0]": {
    "description": "Ligne 10. Colonne 2. Votre conjoint admissible. Additionnez les lignes 7 à 9. ",
    "class": "text",
    "bounding-box": [
     501.001,
     225,
     69.001,
     11.279
    ],
    "font-family": "Helvetica-Bold",
    "font-size": 9,
    "font-color": [
     0,
     0,
     0.502,
     1
    ],
    "align": "decimal",
    "align-v": "center",
    "aliases": {
     "line": 10
    },
    "origin": [
     552.002,
     234.279
    ],
    "format": ".2f",
    "max-length": 13
   },
   "/form1[0]/Page3[0]/PartB[0]/Chart[0]/Line11[0]/Amount1[0]/Line11Amount1[0]": {
    "description": "Ligne 11. Colonne 1. Vous. Total de la prestation universelle pour la garde d'enfants, ligne 11700 de la déclaration, et des revenus d'un régime enregistré d'épargne-invalidité, ligne 12500 de la déclaration.",
    "class": "text",
    "bounding-box": [
     393.001,
     239.998,
     69.001,
     23.281
    ],
    "font-family": "Helvetica-Bold",
    "font-size": 9,
    "font-color": [
     0,
     0,
     0.502,
     1
    ],
    "align": "decimal",
    "align-v": "center",
    "aliases": {
     "line": 11
    },
    "origin": [
     444.002,
     261.279
    ],
    "format": ".2f",
    "max-length": 13
   },
   "/form1[0]/Page3[0]/PartB[0]/Chart[0]/Line11[0]/Amount2[0]/Line11Amount2[0]": {
    "description": "Ligne 11. Colonne 2. Votre conjoint admissible. Total de la prestation universelle pour la garde d'enfants, ligne 11700 de la déclaration, et des revenus d'un régime enregistré d'épargne-invalidité, ligne 12500 de la déclaration.",
    "class": "text",
    "bounding-box": [
     501.001,
     239.998,
     69.001,
     23.281
    ],
    "font-family": "Helvetica-Bold",
    "font-size": 9,
    "font-color": [
     0,
     0,
     0.502,
     1
    ],
    "align": "decimal",
    "align-v": "center",
    "aliases": {
     "line": 11
    },
    "origin": [
     552.002,
     261.279
    ],
    "format": ".2f",
    "max-length": 13
   },
   "/form1[0]/Page3[0]/PartB[0]/Chart[0]/Line12[0]/Amount1[0]/Line12Amount1[0]": {
    "description": "Ligne 38110. Ligne 12. Colonne 1. Vous. Ligne 10 moins ligne 11. Si négatif, inscrivez 0.",
    "class": "text",
    "bounding-box": [
     393.001,
     266.998,
     69.001,
     11.279
    ],
    "font-family": "Helvetica-Bold",
    "font-size": 9,
    "font-color": [
     0,
     0,
     0.502,
     1
    ],
    "align": "decimal",
    "align-v": "center",
    "aliases": {
     "line": 12,
     "stable": 38110
    },
    "origin": [
     444.002,
     276.277
    ],
    "format": ".2f",
    "max-length": 13
   },
   "/form1[0]/Page3[0]/PartB[0]/Chart[0]/Line12[0]/Amount2[0]/Line12Amount2[0]": {
    "description": "Ligne 38110. Ligne 12. Colonne 2. Votre conjoint admissible. Ligne 10 moins ligne 11. Si négatif, inscrivez 0.",
    "class": "text",
    "bounding-box": [
     501.001,
     266.998,
     69.001,
     11.279
    ],
    "font-family": "Helvetica-Bold",
    "font-size": 9,
    "font-color": [
     0,
     0,
     0.502,
     1
    ],
    "align": "decimal",
    "align-v": "center",
    "aliases": {
     "line": 12,
     "stable": 38110
    },
    "origin": [
     552.002,
     276.277
    ],
    "format": ".2f",
    "max-length": 13
   },
   "/form1[0]/Page3[0]/PartB[0]/Line13[0]/Amount[0]": {
    "description": "Ligne 13. Additionnez les montants de la ligne 12 des colonnes 1 et 2. Si vous aviez un conjoint admissible, continuez à la ligne 14. Sinon, continuez à la ligne 15.",
    "class": "text",
    "bounding-box": [
     489.002,
     288,
     81,
     23.281
    ],
    "font-family": "Helvetica-Bold",
    "font-size": 9,
    "font-color": [
     0,
     0,
     0.502,
     1
    ],
    "align": "decimal",
    "align-v": "center",
    "aliases": {
     "line": 13
    },
    "origin": [
     552.002,
     309.281
    ],
    "format": ".2f",
    "max-length": 13
   },
   "/form1[0]/Page3[0]/PartB[0]/Line14[0]/Amount[0]": {
    "description": "Ligne 14. Exemption pour le second titulaire de revenu de travail. Si votre revenu de travail, ligne 5, est moins que le revenu de travail de votre conjoint admissible, inscrivez le montant le moins élevé de la colonne 1. Ligne 5 ou ligne 12. Si votre revenu de travail, ligne 5, est égal au revenu de travail de votre conjoint admissible ou est plus élevé que son revenu, inscrivez le montant le moins élevé de la colonne 2. Ligne 5 ou linge 12. Maximum 15 239 $.",
    "class": "text",
    "bounding-box": [
     501.001,
     315,
     69.001,
     77.281
    ],
    "font-family": "Helvetica-Bold",
    "font-size": 9,
    "font-color": [
     0,
     0,
     0.502,
     1
    ],
    "align": "decimal",
    "align-v": "center",
    "aliases": {
     "line": 14
    },
    "origin": [
     552.002,
     390.281
    ],
    "format": ".2f",
    "max-length": 13
   },
   "/form1[0]/Page3[0]/PartB[0]/Line15[0]/Amount[0]": {
    "description": "Ligne 15. Revenu familial net rajusté. Ligne 13 moins ligne 14. Inscrivez ce montant à la ligne 23 et à la ligne 35.",
    "class": "text",
    "bounding-box": [
     501.001,
     396,
     69.001,
     23.281
    ],
    "font-family": "Helvetica-Bold",
    "font-size": 9,
    "font-color": [
     0,
     0,
     0.502,
     1
    ],
    "align": "decimal",
    "align-v": "center",
    "aliases": {
     "line": 15
    },
    "origin": [
     552.002,
     417.281
    ],
    "format": ".2f",
    "max-length": 13
   }
  }
 },
 "4": {
  "size": [
   612,
   792
  ],
  "fields": {
   "/form1[0]/#pageSet[0]/Page1[3]/ClearData_FR[0]": {
    "description": "Effacer les données",
    "class": "checkbox",
    "bounding-box": [
     492.001,
     2.999,
     96.001,
     15.001
    ],
    "font-family": "Helvetica",
    "font-size": 10,
    "font-color": [
     0,
     0,
     0,
     1
    ],
    "align": "center",
    "align-v": "center"
   },
   "/form1[0]/Page4[0]/Line16_Sub[0]/Line16Amount[0]": {
    "description": "Ligne 16. Revenu de travail familial de la ligne 6.",
    "class": "text",
    "bounding-box": [
     381.002,
     128.999,
     81,
     11.279
    ],
    "font-family": "Helvetica-Bold",
    "font-size": 9,
    "font-color": [
     0,
     0,
     0.502,
     1
    ],
    "align": "decimal",
    "align-v": "center",
    "aliases": {
     "line": 16
    },
    "origin": [
     444.002,
     138.278
    ],
    "format": ".2f",
    "max-length": 13
   },
   "/form1[0]/Page4[0]/Line17_Sub[0]/Line17Amount[0]": {
    "description": "Ligne 17. Montant de base. Si vous aviez un conjoint admissible ou si vous aviez un conjoint admissible et une personne à charge admissible, inscrivez 3 600 $. Sinon, inscrivez 2 400 $.",
    "class": "text",
    "bounding-box": [
     393.001,
     144,
     69.001,
     44.28
    ],
    "font-family": "Helvetica-Bold",
    "font-size": 9,
    "font-color": [
     0,
     0,
     0.502,
     1
    ],
    "align": "decimal",
    "align-v": "center",
    "aliases": {
     "line": 17
    },
    "origin": [
     444.002,
     186.28
    ],
    "format": ".2f",
    "max-length": 13
   },
   "/form1[0]/Page4[0]/Line18_Sub[0]/Line18Amount[0]": {
    "description": "Ligne 18. Ligne 16 moins ligne 17. Si négatif, inscrivez 0.",
    "class": "text",
    "bounding-box": [
     393.001,
     191.999,
     69.001,
     11.279
    ],
    "font-family": "Helvetica-Bold",
    "font-size": 9,
    "font-color": [
     0,
     0,
     0.502,
     1
    ],
    "align": "decimal",
    "align-v": "center",
    "aliases": {
     "line": 18
    },
    "origin": [
     444.002,
     201.278
    ],
    "format": ".2f",
    "max-length": 13
   },
   "/form1[0]/Page4[0]/Line19_Sub[0]/Percent[0]": {
    "description": "Ligne 19. Taux. Si vous aviez une personne à charge admissible mais que vous n'aviez pas un conjoint admissible, inscrivez 20 %. Si vous aviez un conjoint admissible et une personne à charge admissible, inscrivez 23,9 %. Sinon, inscrivez 37,3 %.",
    "class": "text",
    "bounding-box": [
     393.001,
     207,
     69.001,
     56.279
    ],
    "font-family": "Helvetica-Bold",
    "font-size": 9,
    "font-color": [
     0,
     0,
     0.502,
     1
    ],
    "align": "decimal",
    "align-v": "center",
    "aliases": {
     "line": 19
    },
    "origin": [
     444.002,
     261.279
    ],
    "format": ".2f",
    "max-length": 13
   },
   "/form1[0]/Page4[0]/Line20_Sub[0]/Line20Amount[0]": {
    "description": "Ligne 20. Ligne 18 multipliée par le pourcentage de la ligne 19.",
    "class": "text",
    "bounding-box": [
     393.001,
     267.001,
     69.001,
     11.279
    ],
    "font-family": "Helvetica-Bold",
    "font-size": 9,
    "font-color": [
     0,
     0,
     0.502,
     1
    ],
    "align": "decimal",
    "align-v": "center",
    "aliases": {
     "line": 20
    },
    "origin": [
     444.002,
     276.28
    ],
    "format": ".2f",
    "max-length": 13
   },
   "/form1[0]/Page4[0]/Line21_Sub[0]/Line21Amount[0]": {
    "description": "Ligne 21. Prestation maximale. Si vous n'aviez pas de conjoint admissible ni de personne à charge admissible, inscrivez 3 521,87 $. Si vous aviez un conjoint admissible et que vous n'aviez pas de personne à charge admissible, inscrivez 5 497,27 $. Si vous aviez une personne à charge admissible et que vous n'aviez pas de conjoint admissible, inscrivez 1 888,40 $. Si vous aviez un conjoint admissible et une personne à charge admissible, inscrivez 3 522,38 $.",
    "class": "text",
    "bounding-box": [
     381.002,
     288,
     81,
     89.28
    ],
    "font-family": "Helvetica-Bold",
    "font-size": 9,
    "font-color": [
     0,
     0,
     0.502,
     1
    ],
    "align": "decimal",
    "align-v": "center",
    "aliases": {
     "line": 21
    },
    "origin": [
     444.002,
     375.28
    ],
    "format": ".2f",
    "max-length": 13
   },
   "/form1[0]/Page4[0]/Line22_Sub[0]/Line22Amount2[0]": {
    "description": "Ligne 22. Inscrivez le montant le moins élevé. Ligne 20 ou ligne 21.",
    "class": "text",
    "bounding-box": [
     489.002,
     387,
     81,
     11.279
    ],
    "font-family": "Helvetica-Bold",
    "font-size": 9,
    "font-color": [
     0,
     0,
     0.502,
     1
    ],
    "align": "decimal",
    "align-v": "center",
    "aliases": {
     "line": 22
    },
    "origin": [
     552.002,
     396.279
    ],
    "format": ".2f",
    "max-length": 13
   },
   "/form1[0]/Page4[0]/Line23_Sub[0]/Line23Amount[0]": {
    "description": "Ligne 23. Revenu familial net rajusté de la ligne 15.",
    "class": "text",
    "bounding-box": [
     381.002,
     407.999,
     81,
     11.279
    ],
    "font-family": "Helvetica-Bold",
    "font-size": 9,
    "font-color": [
     0,
     0,
     0.502,
     1
    ],
    "align": "decimal",
    "align-v": "center",
    "aliases": {
     "line": 23
    },
    "origin": [
     444.002,
     417.278
    ],
    "format": ".2f",
    "max-length": 13
   },
   "/form1[0]/Page4[0]/Line24_Sub[0]/Line24Amount[0]": {
    "description": "Ligne 24. Montant de base. Si vous n'aviez pas de conjoint admissible ni de personne à charge admissible, inscrivez 13 294,87 $. Si vous aviez un conjoint admissible et que vous n'aviez pas de personne à charge admissible, inscrivez 20 412,45 $. Si vous aviez une personne à charge admissible et que vous n'aviez pas de conjoint admissible, inscrivez 13 400,24 $. Si vous aviez un conjoint admissible et une personne à charge admissible, inscrivez 20 563,57 $.",
    "class": "text",
    "bounding-box": [
     393.001,
     423,
     69.001,
     89.28
    ],
    "font-family": "Helvetica-Bold",
    "font-size": 9,
    "font-color": [
     0,
     0,
     0.502,
     1
    ],
    "align": "decimal",
    "align-v": "center",
    "aliases": {
     "line": 24
    },
    "origin": [
     444.002,
     510.28
    ],
    "format": ".2f",
    "max-length": 13
   },
   "/form1[0]/Page4[0]/Line25_sub[0]/Line25Amount[0]": {
    "description": "Ligne 25. Ligne 23 moins ligne 24. Si négatif, inscrivez 0.",
    "class": "text",
    "bounding-box": [
     393.001,
     515.999,
     69.001,
     11.279
    ],
    "font-family": "Helvetica-Bold",
    "font-size": 9,
    "font-color": [
     0,
     0,
     0.502,
     1
    ],
    "align": "decimal",
    "align-v": "center",
    "aliases": {
     "line": 25
    },
    "origin": [
     444.002,
     525.278
    ],
    "format": ".2f",
    "max-length": 13
   },
   "/form1[0]/Page4[0]/Line26_Sub[0]/Percent[0]": {
    "description": "Ligne 26. Taux.",
    "class": "text",
    "bounding-box": [
     393.001,
     531,
     69.001,
     10.559
    ],
    "font-family": "Helvetica",
    "font-size": 9,
    "font-color": [
     0,
     0,
     0,
     1
    ],
    "align": "decimal",
    "align-v": "center",
    "aliases": {
     "line": 26
    },
    "origin": [
     444.002,
     539.559
    ],
    "format": ".2f",
    "max-length": 13
   },
   "/form1[0]/Page4[0]/Line27_Sub[0]/Line27Amount1[0]": {
    "description": "Ligne 27. Ligne 25 multipliée par le pourcentage de la ligne 26. Cas 1.",
    "class": "text",
    "bounding-box": [
     393.001,
     546.001,
     69.001,
     11.279
    ],
    "font-family": "Helvetica-Bold",
    "font-size": 9,
    "font-color": [
     0,
     0,
     0.502,
     1
    ],
    "align": "decimal",
    "align-v": "center",
    "aliases": {
     "line": 27
    },
    "origin": [
     444.002,
     555.28
    ],
    "format": ".2f",
    "max-length": 13
   },
   "/form1[0]/Page4[0]/Line27_Sub[0]/Line27Amount2[0]": {
    "description": "Ligne 27. Cas 2.",
    "class": "text",
    "bounding-box": [
     501.001,
     546.001,
     69.001,
     11.279
    ],
    "font-family": "Helvetica-Bold",
    "font-size": 9,
    "font-color": [
     0,
     0,
     0.502,
     1
    ],
    "align": "decimal",
    "align-v": "center",
    "aliases": {
     "line": 27
    },
    "origin": [
     552.002,
     555.28
    ],
    "format": ".2f",
    "max-length": 13
   },
   "/form1[0]/Page4[0]/Line28_Sub[0]/Line28Amount[0]": {
    "description": "Ligne 28. Ligne 22 moins ligne 27. Si négatif, inscrivez 0. Si vous ne remplissez pas l'étape 3, inscrivez ce montant à la ligne 45300 de votre déclaration.",
    "class": "text",
    "bounding-box": [
     501.001,
     561.719,
     69.001,
     22.561
    ],
    "font-family": "Helvetica-Bold",
    "font-size": 9,
    "font-color": [
     0,
     0,
     0.502,
     1
    ],
    "align": "decimal",
    "align-v": "center",
    "aliases": {
     "line": 28
    },
    "origin": [
     552.002,
     582.28
    ],
    "format": ".2f",
    "max-length": 13
   }
  }
 },
 "5": {
  "size": [
   612,
   792
  ],
  "fields": {
   "/form1[0]/#pageSet[0]/Page1[4]/ClearData_FR[0]": {
    "description": "Effacer les données",
    "class": "checkbox",
    "bounding-box": [
     492.001,
     2.999,
     96.001,
     15.001
    ],
    "font-family": "Helvetica",
    "font-size": 10,
    "font-color": [
     0,
     0,
     0,
     1
    ],
    "align": "center",
    "align-v": "center"
   },
   "/form1[0]/Page5[0]/Line29_Sub[0]/Line29Amount[0]": {
    "description": "Ligne 29. Montant de la ligne 5 de la colonne 1.",
    "class": "text",
    "bounding-box": [
     381.002,
     108,
     81,
     11.279
    ],
    "font-family": "Helvetica-Bold",
    "font-size": 9,
    "font-color": [
     0,
     0,
     0.502,
     1
    ],
    "align": "decimal",
    "align-v": "center",
    "aliases": {
     "line": 29
    },
    "origin": [
     444.002,
     117.279
    ],
    "format": ".2f",
    "max-length": 13
   },
   "/form1[0]/Page5[0]/Line30_Sub[0]/Line30Amount[0]": {
    "description": "Ligne 30. Montant de base.",
    "class": "text",
    "bounding-box": [
     393.001,
     123.001,
     69.001,
     11.999
    ],
    "font-family": "Helvetica",
    "font-size": 9,
    "font-color": [
     0,
     0,
     0,
     1
    ],
    "align": "decimal",
    "align-v": "center",
    "aliases": {
     "line": 30
    },
    "origin": [
     444.002,
     133.0
    ],
    "format": ".2f",
    "max-length": 13
   },
   "/form1[0]/Page5[0]/Line31_Sub[0]/Line31Amount[0]": {
    "description": "Ligne 31. Ligne 29 moins ligne 30. Si négatif, inscrivez 0.",
    "class": "text",
    "bounding-box": [
     393.001,
     137.999,
     69.001,
     11.279
    ],
    "font-family": "Helvetica-Bold",
    "font-size": 9,
    "font-color": [
     0,
     0,
     0.502,
     1
    ],
    "align": "decimal",
    "align-v": "center",
    "aliases": {
     "line": 31
    },
    "origin": [
     444.002,
     147.278
    ],
    "format": ".2f",
    "max-length": 13
   },
   "/form1[0]/Page5[0]/Line32_Sub[0]/Percent[0]": {
    "description": "Ligne 32. Taux. Si vous aviez un conjoint admissible ou si vous aviez un conjoint admissible et une personne à charge admissible, inscrivez 20 %. Sinon, inscrivez 40 %.",
    "class": "text",
    "bounding-box": [
     393.001,
     153,
     69.001,
     44.28
    ],
    "font-family": "Helvetica-Bold",
    "font-size": 9,
    "font-color": [
     0,
     0,
     0.502,
     1
    ],
    "align": "decimal",
    "align-v": "center",
    "aliases": {
     "line": 32
    },
    "origin": [
     444.002,
     195.28
    ],
    "format": ".2f",
    "max-length": 13
   },
   "/form1[0]/Page5[0]/Line33_Sub[0]/Line33Amount[0]": {
    "description": "Ligne 33. Ligne 31 multipliée par le pourcentage de la ligne 32.",
    "class": "text",
    "bounding-box": [
     393.001,
     200.999,
     69.001,
     11.279
    ],
    "font-family": "Helvetica-Bold",
    "font-size": 9,
    "font-color": [
     0,
     0,
     0.502,
     1
    ],
    "align": "decimal",
    "align-v": "center",
    "aliases": {
     "line": 33
    },
    "origin": [
     444.002,
     210.278
    ],
    "format": ".2f",
    "max-length": 13
   },
   "/form1[0]/Page5[0]/Line34_Sub[0]/Line34Amount2[0]": {
    "description": "Ligne 34. Inscrivez le montant le moins élevé. Ligne 33 ou 787,70 $.",
    "class": "text",
    "bounding-box": [
     489.002,
     222.001,
     81,
     11.279
    ],
    "font-family": "Helvetica-Bold",
    "font-size": 9,
    "font-color": [
     0,
     0,
     0.502,
     1
    ],
    "align": "decimal",
    "align-v": "center",
    "aliases": {
     "line": 34
    },
    "origin": [
     552.002,
     231.28
    ],
    "format": ".2f",
    "max-length": 13
   },
   "/form1[0]/Page5[0]/Line35_Sub[0]/Line35Amount[0]": {
    "description": "Ligne 35. Revenu familial net rajusté de la ligne 15.",
    "class": "text",
    "bounding-box": [
     381.002,
     243,
     81,
     11.279
    ],
    "font-family": "Helvetica-Bold",
    "font-size": 9,
    "font-color": [
     0,
     0,
     0.502,
     1
    ],
    "align": "decimal",
    "align-v": "center",
    "aliases": {
     "line": 35
    },
    "origin": [
     444.002,
     252.279
    ],
    "format": ".2f",
    "max-length": 13
   },
   "/form1[0]/Page5[0]/Line36_Sub[0]/Line36Amount[0]": {
    "description": "Ligne 36. Montant de base. Si vous n'aviez pas de conjoint admissible ni de personne à charge admissible, inscrivez 30 904,22 $. Si vous aviez un conjoint admissible et que vous n'aviez pas de personne à charge admissible, inscrivez 47 898,80 $. Si vous aviez une personne à charge admissible et que vous n'aviez pas de conjoint admissible, inscrivez 22 842,24 $. Si vous aviez un conjoint admissible et une personne à charge admissible, inscrivez 38 175,47 $.",
    "class": "text",
    "bounding-box": [
     393.001,
     257.998,
     69.001,
     89.28
    ],
    "font-family": "Helvetica-Bold",
    "font-size": 9,
    "font-color": [
     0,
     0,
     0.502,
     1
    ],
    "align": "decimal",
    "align-v": "center",
    "aliases": {
     "line": 36
    },
    "origin": [
     444.002,
     345.278
    ],
    "format": ".2f",
    "max-length": 13
   },
   "/form1[0]/Page5[0]/Line37_Sub[0]/Line37Amount[0]": {
    "description": "Ligne 37. Ligne 35 moins ligne 36. Si négatif, inscrivez 0.",
    "class": "text",
    "bounding-box": [
     393.001,
     351,
     69.001,
     11.279
    ],
    "font-family": "Helvetica-Bold",
    "font-size": 9,
    "font-color": [
     0,
     0,
     0.502,
     1
    ],
    "align": "decimal",
    "align-v": "center",
    "aliases": {
     "line": 37
    },
    "origin": [
     444.002,
     360.279
    ],
    "format": ".2f",
    "max-length": 13
   },
   "/form1[0]/Page5[0]/Line38_Sub[0]/Line38Percent[0]": {
    "description": "Ligne 38. Taux. Si vous aviez un conjoint admissible qui est aussi admissible au crédit d'impôt pour personnes handicapées, inscrivez 10 %. Sinon, inscrivez 20 %.",
    "class": "text",
    "bounding-box": [
     393.001,
     365.998,
     69.001,
     35.28
    ],
    "font-family": "Helvetica-Bold",
    "font-size": 9,
    "font-color": [
     0,
     0,
     0.502,
     1
    ],
    "align": "decimal",
    "align-v": "center",
    "aliases": {
     "line": 38
    },
    "origin": [
     444.002,
     399.278
    ],
    "format": ".2f",
    "max-length": 13
   },
   "/form1[0]/Page5[0]/Line39_Sub[0]/Line39Amount1[0]": {
    "description": "Ligne 39. Ligne 37 multipliée par le pourcentage de la ligne 38. Cas 1.",
    "class": "text",
    "bounding-box": [
     393.001,
     405,
     69.001,
     11.279
    ],
    "font-family": "Helvetica-Bold",
    "font-size": 9,
    "font-color": [
     0,
     0,
     0.502,
     1
    ],
    "align": "decimal",
    "align-v": "center",
    "aliases": {
     "line": 39
    },
    "origin": [
     444.002,
     414.279
    ],
    "format": ".2f",
    "max-length": 13
   },
   "/form1[0]/Page5[0]/Line39_Sub[0]/Line39Amount2[0]": {
    "description": "Ligne 39. Cas 2.",
    "class": "text",
    "bounding-box": [
     501.001,
     405,
     69.001,
     11.279
    ],
    "font-family": "Helvetica-Bold",
    "font-size": 9,
    "font-color": [
     0,
     0,
     0.502,
     1
    ],
    "align": "decimal",
    "align-v": "center",
    "aliases": {
     "line": 39
    },
    "origin": [
     552.002,
     414.279
    ],
    "format": ".2f",
    "max-length": 13
   },
   "/form1[0]/Page5[0]/Line40_Sub[0]/Line40Amount[0]": {
    "description": "Ligne 40. Ligne 34 moins ligne 39. Si négatif, inscrivez 0.",
    "class": "text",
    "bounding-box": [
     501.001,
     419.998,
     69.001,
     11.279
    ],
    "font-family": "Helvetica-Bold",
    "font-size": 9,
    "font-color": [
     0,
     0,
     0.502,
     1
    ],
    "align": "decimal",
    "align-v": "center",
    "aliases": {
     "line": 40
    },
    "origin": [
     552.002,
     429.277
    ],
    "format": ".2f",
    "max-length": 13
   },
   "/form1[0]/Page5[0]/Line41_Sub[0]/Line41Amount[0]": {
    "description": "Ligne 41. Si vous avez rempli l'étape 2, inscrivez le montant de la ligne 28. Sinon, inscrivez 0.",
    "class": "text",
    "bounding-box": [
     501.001,
     434.999,
     69.001,
     11.279
    ],
    "font-family": "Helvetica-Bold",
    "font-size": 9,
    "font-color": [
     0,
     0,
     0.502,
     1
    ],
    "align": "decimal",
    "align-v": "center",
    "aliases": {
     "line": 41
    },
    "origin": [
     552.002,
     444.278
    ],
    "format": ".2f",
    "max-length": 13
   },
   "/form1[0]/Page5[0]/Line42_Sub[0]/Line42Amount[0]": {
    "description": "Ligne 42. Ligne 40 plus ligne 41. Inscrivez ce montant à la ligne 45300 de votre déclaration.",
    "class": "text",
    "bounding-box": [
     501.001,
     450.72,
     69.001,
     22.561
    ],
    "font-family": "Helvetica-Bold",
    "font-size": 9,
    "font-color": [
     0,
     0,
     0.502,
     1
    ],
    "align": "decimal",
    "align-v": "center",
    "aliases": {
     "line": 42
    },
    "origin": [
     552.002,
     471.281
    ],
    "format": ".2f",
    "max-length": 13
   }
  }
 },
 "6": {
  "size": [
   612,
   792
  ],
  "fields": {
   "/form1[0]/#pageSet[0]/Page1[5]/ClearData_FR[0]": {
    "description": "Effacer les données",
    "class": "checkbox",
    "bounding-box": [
     492.001,
     2.999,
     96.001,
     15.001
    ],
    "font-family": "Helvetica",
    "font-size": 10,
    "font-color": [
     0,
     0,
     0,
     1
    ],
    "align": "center",
    "align-v": "center"
   },
   "/form1[0]/Page6[0]/Step4[0]/Line43[0]/Amount[0]": {
    "description": "Ligne 43. Inscrivez le montant le plus élevé. Ligne 28 ou ligne 42. Si vous ne demandez pas l'Allocation canadienne pour les travailleurs de base ou le supplément pour personnes handicapées de l'Allocation canadienne pour les travailleurs, inscrivez 0.",
    "class": "text",
    "bounding-box": [
     489.002,
     108.003,
     81,
     11.279
    ],
    "font-family": "Helvetica-Bold",
    "font-size": 9,
    "font-color": [
     0,
     0,
     0.502,
     1
    ],
    "align": "decimal",
    "align-v": "center",
    "aliases": {
     "line": 43
    },
    "origin": [
     552.002,
     117.282
    ],
    "format": ".2f",
    "max-length": 13
   },
   "/form1[0]/Page6[0]/Step4[0]/Line44[0]/Amount[0]": {
    "description": "Ligne 38120. Ligne 44. Total de base de l'avance de l'allocation canadienne pour les travailleurs qui vous a été versé. Case 10 de votre feuillet RC210.",
    "class": "text",
    "bounding-box": [
     381.002,
     227.999,
     81,
     23.281
    ],
    "font-family": "Helvetica-Bold",
    "font-size": 9,
    "font-color": [
     0,
     0,
     0.502,
     1
    ],
    "align": "decimal",
    "align-v": "center",
    "aliases": {
     "line": 44,
     "stable": 38120
    },
    "origin": [
     444.002,
     249.28
    ],
    "format": ".2f",
    "max-length": 13
   },
   "/form1[0]/Page6[0]/Step4[0]/Line45[0]/Amount[0]": {
    "description": "Ligne 38121. Ligne 45. Total de base de l'avance de l'allocation canadienne pour les travailleurs versé à votre époux ou conjoint de fait. Case 10 de son feuillet RC210.",
    "class": "text",
    "bounding-box": [
     393.001,
     254.999,
     69.001,
     23.281
    ],
    "font-family": "Helvetica-Bold",
    "font-size": 9,
    "font-color": [
     0,
     0,
     0.502,
     1
    ],
    "align": "decimal",
    "align-v": "center",
    "aliases": {
     "line": 45,
     "stable": 38121
    },
    "origin": [
     444.002,
     276.28
    ],
    "format": ".2f",
    "max-length": 13
   },
   "/form1[0]/Page6[0]/Step4[0]/Line46[0]/Amount[0]": {
    "description": "Ligne 46. Ligne 44 plus ligne 45.",
    "class": "text",
    "bounding-box": [
     393.001,
     281.999,
     69.001,
     11.279
    ],
    "font-family": "Helvetica-Bold",
    "font-size": 9,
    "font-color": [
     0,
     0,
     0.502,
     1
    ],
    "align": "decimal",
    "align-v": "center",
    "aliases": {
     "line": 46
    },
    "origin": [
     444.002,
     291.278
    ],
    "format": ".2f",
    "max-length": 13
   },
   "/form1[0]/Page6[0]/Step4[0]/Line47[0]/Amount[0]": {
    "description": "Ligne 38122. Ligne 47. Total du supplément pour personnes handicapées de l'avance de l'allocation canadienne pour les travailleurs qui vous a été versé. Case 11 de votre feuillet RC210.",
    "class": "text",
    "bounding-box": [
     393.001,
     297,
     69.001,
     23.281
    ],
    "font-family": "Helvetica-Bold",
    "font-size": 9,
    "font-color": [
     0,
     0,
     0.502,
     1
    ],
    "align": "decimal",
    "align-v": "center",
    "aliases": {
     "line": 47,
     "stable": 38122
    },
    "origin": [
     444.002,
     318.281
    ],
    "format": ".2f",
    "max-length": 13
   },
   "/form1[0]/Page6[0]/Step4[0]/Line48[0]/Amount[0]": {
    "description": "Ligne 48. Ligne 46 plus ligne 47.",
    "class": "text",
    "bounding-box": [
     393.001,
     324,
     69.001,
     11.279
    ],
    "font-family": "Helvetica-Bold",
    "font-size": 9,
    "font-color": [
     0,
     0,
     0.502,
     1
    ],
    "align": "decimal",
    "align-v": "center",
    "aliases": {
     "line": 48
    },
    "origin": [
     444.002,
     333.279
    ],
    "format": ".2f",
    "max-length": 13
   },
   "/form1[0]/Page6[0]/Step4[0]/Line49[0]/Amount[0]": {
    "description": "Ligne 49. Avance de l'allocation canadienne pour les travailleurs. Inscrivez le montant le mois élevé. Ligne 43 ou ligne 48. Inscrivez ce montant à la ligne 41500 de votre déclaration.",
    "class": "text",
    "bounding-box": [
     489.002,
     345.002,
     81,
     23.281
    ],
    "font-family": "Helvetica-Bold",
    "font-size": 9,
    "font-color": [
     0,
     0,
     0.502,
     1
    ],
    "align": "decimal",
    "align-v": "center",
    "aliases": {
     "line": 49
    },
    "origin": [
     552.002,
     366.283
    ],
    "format": ".2f",
    "max-length": 13
   }
  }
 }
}