{
 "1": {
  "size": [
   603.0,
   774.0
  ],
  "fields": {
   "checkbox": {
    "bounding-box": [
     261.533,
     96.316,
     11.5,
     11.5
    ],
    "font-color": [
     0,
     0,
     1,
     1
    ]
   },
   "checkbox-3": {
    "bounding-box": [
     545.9,
     153.223,
     11.7,
     11.7
    ],
    "align": "center",
    "align-v": "center",
    "font-color": [
     0,
     0,
     1,
     1
    ],
    "aliases": {
     "identity": "first-declaration"
    }
   },
   "checkbox-4": {
    "bounding-box": [
     94.893,
     230.635,
     10.5,
     10.5
    ],
    "align": "center",
    "align-v": "center",
    "font-color": [
     0,
     0,
     1,
     1
    ],
    "aliases": {
     "identity": "sex-male"
    }
   },
   "checkbox-4/1": {
    "bounding-box": [
     168.893,
     230.635,
     10.5,
     10.5
    ],
    "align": "center",
    "align-v": "center",
    "font-color": [
     0,
     0,
     1,
     1
    ],
    "aliases": {
     "identity": "sex-female"
    }
   },
   "checkbox-5": {
    "bounding-box": [
     458.423,
     230.635,
     10.5,
     10.5
    ],
    "align": "center",
    "align-v": "center",
    "font-color": [
     0,
     0,
     1,
     1
    ],
    "aliases": {
     "identity": "lang-fr"
    }
   },
   "checkbox-5/1": {
    "bounding-box": [
     525.423,
     230.635,
     10.5,
     10.5
    ],
    "align": "center",
    "align-v": "center",
    "font-color": [
     0,
     0,
     1,
     1
    ],
    "aliases": {
     "identity": "lang-en"
    }
   },
   "checkbox-10.2": {
    "bounding-box": [
     561.05,
     333.592,
     11.7,
     11.7
    ],
    "align": "center",
    "align-v": "center",
    "font-color": [
     0,
     0,
     1,
     1
    ],
    "aliases": {
     "identity": "email-only"
    }
   },
   "checkbox-12": {
    "bounding-box": [
     60.243,
     420.583,
     10.5,
     10.5
    ],
    "align": "center",
    "align-v": "center",
    "font-color": [
     0,
     0,
     1,
     1
    ],
    "aliases": {
     "identity": "not-spouse"
    }
   },
   "checkbox-12/1": {
    "bounding-box": [
     186.243,
     420.583,
     10.5,
     10.5
    ],
    "align": "center",
    "align-v": "center",
    "font-color": [
     0,
     0,
     1,
     1
    ],
    "aliases": {
     "identity": "yes-spouse"
    }
   },
   "checkbox-21": {
    "bounding-box": [
     453.323,
     423.146,
     11.5,
     11.5
    ],
    "align": "center",
    "align-v": "center",
    "font-color": [
     0,
     0,
     1,
     1
    ],
    "aliases": {
     "identity": "bankruptcy-after"
    }
   },
   "checkbox-21/1": {
    "bounding-box": [
     453.323,
     437.039,
     11.5,
     11.5
    ],
    "align": "center",
    "align-v": "center",
    "font-color": [
     0,
     0,
     1,
     1
    ],
    "aliases": {
     "identity": "bankruptcy-before"
    }
   },
   "checkbox-13": {
    "bounding-box": [
     555.496,
     459.708,
     11.5,
     11.5
    ],
    "align": "center",
    "align-v": "center",
    "font-color": [
     0,
     0,
     1,
     1
    ],
    "aliases": {
     "identity": "bankruptcy-rrq-choice"
    }
   },
   "checkbox-22": {
    "bounding-box": [
     555.05,
     479.028,
     11.7,
     11.7
    ],
    "align": "center",
    "align-v": "center",
    "font-color": [
     0,
     0,
     1,
     1
    ]
   },
   "checkbox-23": {
    "bounding-box": [
     555.01,
     546.778,
     11.7,
     11.7
    ],
    "align": "center",
    "align-v": "center",
    "font-color": [
     0,
     0,
     1,
     1
    ],
    "aliases": {
     "identity": "death-distinct"
    }
   },
   "checkbox-24": {
    "bounding-box": [
     555.05,
     574.278,
     11.7,
     11.7
    ],
    "align": "center",
    "align-v": "center",
    "font-color": [
     0,
     0,
     1,
     1
    ],
    "aliases": {
     "identity": "cryptobro"
    }
   },
   "checkbox-50": {
    "bounding-box": [
     561.05,
     640.587,
     11.7,
     11.7
    ],
    "align": "center",
    "align-v": "center",
    "font-color": [
     0,
     0,
     1,
     1
    ],
    "aliases": {
     "identity": "spouse/self-employed"
    }
   },
   "numeric-19": {
    "origin": [
     555.084,
     403.1514
    ],
    "align": "decimal",
    "format": ".2f",
    "font-size": 8,
    "max-length": 13,
    "font-color": [
     0,
     0,
     1,
     1
    ],
    "aliases": {
     "identity": "foreign-income"
    }
   },
   "numeric-51": {
    "origin": [
     552.084,
     680.3142
    ],
    "align": "decimal",
    "format": ".2f",
    "font-size": 8,
    "max-length": 13,
    "font-color": [
     0,
     0,
     1,
     1
    ],
    "aliases": {
     "identity": "spouse/net-revenue"
    }
   },
   "char-1": {
    "origin": [
     57.375,
     191.4679
    ],
    "max-length": 33,
    "character-spacing": 12,
    "font-color": [
     0,
     0,
     1,
     1
    ],
    "aliases": {
     "identity": "last-name"
    }
   },
   "char-2": {
    "origin": [
     57.375,
     215.4679
    ],
    "max-length": 33,
    "character-spacing": 12,
    "font-color": [
     0,
     0,
     1,
     1
    ],
    "aliases": {
     "identity": "first-name"
    }
   },
   "char-6": {
    "origin": [
     483.125,
     215.4679
    ],
    "max-length": 8,
    "character-spacing": 12,
    "font-color": [
     0,
     0,
     1,
     1
    ],
    "aliases": {
     "identity": "dob"
    }
   },
   "char-7": {
    "origin": [
     57.0,
     266.3852
    ],
    "max-length": 5,
    "character-spacing": 12,
    "font-color": [
     0,
     0,
     1,
     1
    ],
    "aliases": {
     "identity": "mailing/appartment-number"
    }
   },
   "char-7/1": {
    "origin": [
     126.0,
     266.3852
    ],
    "max-length": 9,
    "character-spacing": 12,
    "font-color": [
     0,
     0,
     1,
     1
    ],
    "aliases": {
     "identity": "mailing/street-number"
    }
   },
   "char-7/2": {
    "origin": [
     243.25,
     266.3852
    ],
    "max-length": 28,
    "character-spacing": 12,
    "font-color": [
     0,
     0,
     1,
     1
    ],
    "aliases": {
     "identity": "mailing/street-name-po-box"
    }
   },
   "char-8": {
    "origin": [
     57.25,
     290.5102
    ],
    "max-length": 32,
    "character-spacing": 12,
    "font-color": [
     0,
     0,
     1,
     1
    ],
    "aliases": {
     "identity": "mailing/city"
    }
   },
   "char-8/1": {
    "origin": [
     450.0,
     290.5102
    ],
    "max-length": 2,
    "character-spacing": 12,
    "font-color": [
     0,
     0,
     1,
     1
    ],
    "aliases": {
     "identity": "mailing/province"
    }
   },
   "char-9": {
    "origin": [
     507.0,
     290.5102
    ],
    "max-length": 6,
    "character-spacing": 12,
    "font-color": [
     0,
     0,
     1,
     1
    ],
    "aliases": {
     "identity": "mailing/postal-code"
    }
   },
   "char-10": {
    "origin": [
     179.384,
     345.6084
    ],
    "max-length": 10,
    "character-spacing": 12,
    "font-color": [
     0,
     0,
     1,
     1
    ],
    "aliases": {
     "identity": "phone-number"
    }
   },
   "char-11": {
    "origin": [
     57.0,
     390.0834
    ],
    "max-length": 9,
    "character-spacing": 12,
    "font-color": [
     0,
     0,
     1,
     1
    ],
    "aliases": {
     "identity": "sin"
    }
   },
   "char-21": {
    "origin": [
     343.0625,
     440.5834
    ],
    "max-length": 8,
    "character-spacing": 12,
    "font-color": [
     0,
     0,
     1,
     1
    ],
    "aliases": {
     "identity": "bankruptcy-date"
    }
   },
   "char-13": {
    "origin": [
     203.6425,
     467.4584
    ],
    "max-length": 8,
    "character-spacing": 12,
    "font-color": [
     0,
     0,
     1,
     1
    ],
    "aliases": {
     "identity": "situation-change-date"
    }
   },
   "char-17": {
    "origin": [
     191.58,
     518.926
    ],
    "max-length": 9,
    "character-spacing": 12,
    "font-color": [
     0,
     0,
     1,
     1
    ],
    "aliases": {
     "identity": "residence-if-not-qc"
    }
   },
   "char-20": {
    "origin": [
     477.0226,
     528.8945
    ],
    "max-length": 8,
    "character-spacing": 12,
    "font-color": [
     0,
     0,
     1,
     1
    ],
    "aliases": {
     "identity": "dod"
    }
   },
   "char-18": {
    "origin": [
     57.0625,
     557.1759
    ],
    "max-length": 8,
    "character-spacing": 12,
    "font-color": [
     0,
     0,
     1,
     1
    ],
    "aliases": {
     "identity": "residence-landing-date"
    }
   },
   "char-18/1": {
    "origin": [
     168.0625,
     557.1759
    ],
    "max-length": 8,
    "character-spacing": 12,
    "font-color": [
     0,
     0,
     1,
     1
    ]
   },
   "chr": {
    "origin": [
     275.465,
     579.176
    ],
    "max-length": 2,
    "character-spacing": 12,
    "font-color": [
     0,
     0,
     1,
     1
    ]
   },
   "char-31": {
    "origin": [
     62.25,
     626.7035
    ],
    "max-length": 30,
    "character-spacing": 12,
    "font-color": [
     0,
     0,
     1,
     1
    ],
    "aliases": {
     "identity": "spouse/last-name"
    }
   },
   "char-32": {
    "origin": [
     62.25,
     653.7035
    ],
    "max-length": 30,
    "character-spacing": 12,
    "font-color": [
     0,
     0,
     1,
     1
    ],
    "aliases": {
     "identity": "spouse/first-name"
    }
   },
   "char-36": {
    "origin": [
     204.0,
     670.9535
    ],
    "max-length": 8,
    "character-spacing": 12,
    "font-color": [
     0,
     0,
     1,
     1
    ],
    "aliases": {
     "identity": "spouse/dob"
    }
   },
   "char-37": {
    "origin": [
     204.0625,
     700.4535
    ],
    "max-length": 8,
    "character-spacing": 12,
    "font-color": [
     0,
     0,
     1,
     1
    ],
    "aliases": {
     "identity": "spouse/dod"
    }
   },
   "char-41": {
    "origin": [
     192.0,
     726.2035
    ],
    "max-length": 9,
    "character-spacing": 12,
    "font-color": [
     0,
     0,
     1,
     1
    ],
    "aliases": {
     "identity": "spouse/sin"
    }
   },
   "char-52": {
    "origin": [
     459.5,
     726.2035
    ],
    "max-length": 10,
    "character-spacing": 12,
    "font-color": [
     0,
     0,
     1,
     1
    ],
    "aliases": {
     "identity": "spouse/residence-if-not-qc"
    }
   }
  }
 },
 "2": {
  "size": [
   603.0,
   774.0
  ],
  "fields": {
   "checkbox-94": {
    "bounding-box": [
     411.5,
     54.5133,
     12.0,
     12.0
    ],
    "align": "center",
    "align-v": "center",
    "font-color": [
     0,
     0,
     1,
     1
    ],
    "aliases": {
     "identity": "job-outside-canada"
    }
   },
   "checkbox-95": {
    "bounding-box": [
     450.5,
     66.5133,
     12.0,
     12.0
    ],
    "align": "center",
    "align-v": "center",
    "font-color": [
     0,
     0,
     1,
     1
    ],
    "aliases": {
     "identity": "job-outside-quebec"
    }
   },
   "numeric-96": {
    "origin": [
     257.084,
     94.0814
    ],
    "align": "decimal",
    "format": ".2f",
    "font-size": 8,
    "max-length": 13,
    "font-color": [
     0,
     0,
     1,
     1
    ]
   },
   "numeric-98": {
    "origin": [
     543.084,
     94.0814
    ],
    "align": "decimal",
    "format": ".2f",
    "font-size": 8,
    "max-length": 13,
    "font-color": [
     0,
     0,
     1,
     1
    ]
   },
   "numeric-96.1": {
    "origin": [
     257.084,
     106.0814
    ],
    "align": "decimal",
    "format": ".2f",
    "font-size": 8,
    "max-length": 13,
    "font-color": [
     0,
     0,
     1,
     1
    ]
   },
   "numeric-97": {
    "origin": [
     257.084,
     118.0813
    ],
    "align": "decimal",
    "format": ".2f",
    "font-size": 8,
    "max-length": 13,
    "font-color": [
     0,
     0,
     1,
     1
    ]
   },
   "numeric-98.1": {
    "origin": [
     543.084,
     118.0813
    ],
    "align": "decimal",
    "format": ".2f",
    "font-size": 8,
    "max-length": 13,
    "font-color": [
     0,
     0,
     1,
     1
    ]
   },
   "numeric-100": {
    "origin": [
     257.084,
     130.0813
    ],
    "align": "decimal",
    "format": ".2f",
    "font-size": 8,
    "max-length": 13,
    "font-color": [
     0,
     0,
     1,
     1
    ]
   },
   "numeric-102": {
    "origin": [
     543.084,
     130.0813
    ],
    "align": "decimal",
    "format": ".2f",
    "font-size": 8,
    "max-length": 13,
    "font-color": [
     0,
     0,
     1,
     1
    ]
   },
   "numeric-101": {
    "origin": [
     553.4186,
     148.9563
    ],
    "align": "decimal",
    "format": ".2f",
    "font-size": 8,
    "max-length": 13,
    "font-color": [
     0,
     0,
     1,
     1
    ]
   },
   "numeric-105": {
    "origin": [
     553.4186,
     160.9563
    ],
    "align": "decimal",
    "format": ".2f",
    "font-size": 8,
    "max-length": 13,
    "font-color": [
     0,
     0,
     1,
     1
    ]
   },
   "numeric-165": {
    "origin": [
     257.0186,
     184.9563
    ],
    "align": "decimal",
    "format": ".2f",
    "font-size": 8,
    "max-length": 13,
    "font-color": [
     0,
     0,
     1,
     1
    ]
   },
   "numeric-107": {
    "origin": [
     553.4186,
     184.9563
    ],
    "align": "decimal",
    "format": ".2f",
    "font-size": 8,
    "max-length": 13,
    "font-color": [
     0,
     0,
     1,
     1
    ]
   },
   "numeric-110": {
    "origin": [
     553.4044,
     197.2063
    ],
    "align": "decimal",
    "format": ".2f",
    "font-size": 8,
    "max-length": 13,
    "font-color": [
     0,
     0,
     1,
     1
    ]
   },
   "numeric-111": {
    "origin": [
     553.4044,
     209.2063
    ],
    "align": "decimal",
    "format": ".2f",
    "font-size": 8,
    "max-length": 13,
    "font-color": [
     0,
     0,
     1,
     1
    ]
   },
   "numeric-114": {
    "origin": [
     553.4044,
     221.2063
    ],
    "align": "decimal",
    "format": ".2f",
    "font-size": 8,
    "max-length": 13,
    "font-color": [
     0,
     0,
     1,
     1
    ]
   },
   "numeric-119": {
    "origin": [
     553.4044,
     233.2063
    ],
    "align": "decimal",
    "format": ".2f",
    "font-size": 8,
    "max-length": 13,
    "font-color": [
     0,
     0,
     1,
     1
    ]
   },
   "numeric-122": {
    "origin": [
     553.4044,
     245.2063
    ],
    "align": "decimal",
    "format": ".2f",
    "font-size": 8,
    "max-length": 13,
    "font-color": [
     0,
     0,
     1,
     1
    ]
   },
   "numeric-123": {
    "origin": [
     553.4044,
     257.2063
    ],
    "align": "decimal",
    "format": ".2f",
    "font-size": 8,
    "max-length": 13,
    "font-color": [
     0,
     0,
     1,
     1
    ]
   },
   "numeric-166": {
    "origin": [
     364.7586,
     269.2063
    ],
    "align": "decimal",
    "format": ".2f",
    "font-size": 8,
    "max-length": 13,
    "font-color": [
     0,
     0,
     1,
     1
    ]
   },
   "numeric-167": {
    "origin": [
     364.7586,
     281.2063
    ],
    "align": "decimal",
    "format": ".2f",
    "font-size": 8,
    "max-length": 13,
    "font-color": [
     0,
     0,
     1,
     1
    ]
   },
   "numeric-128": {
    "origin": [
     553.4044,
     281.2063
    ],
    "align": "decimal",
    "format": ".2f",
    "font-size": 8,
    "max-length": 13,
    "font-color": [
     0,
     0,
     1,
     1
    ]
   },
   "numeric-130": {
    "origin": [
     553.4044,
     293.2063
    ],
    "align": "decimal",
    "format": ".2f",
    "font-size": 8,
    "max-length": 13,
    "font-color": [
     0,
     0,
     1,
     1
    ]
   },
   "numeric-168": {
    "origin": [
     364.7586,
     317.2063
    ],
    "align": "decimal",
    "format": ".2f",
    "font-size": 8,
    "max-length": 13,
    "font-color": [
     0,
     0,
     1,
     1
    ]
   },
   "numeric-136": {
    "origin": [
     553.4044,
     317.2063
    ],
    "align": "decimal",
    "format": ".2f",
    "font-size": 8,
    "max-length": 13,
    "font-color": [
     0,
     0,
     1,
     1
    ]
   },
   "numeric-139": {
    "origin": [
     553.4044,
     329.2063
    ],
    "align": "decimal",
    "format": ".2f",
    "font-size": 8,
    "max-length": 13,
    "font-color": [
     0,
     0,
     1,
     1
    ]
   },
   "numeric-142": {
    "origin": [
     553.4044,
     341.2063
    ],
    "align": "decimal",
    "format": ".2f",
    "font-size": 8,
    "max-length": 13,
    "font-color": [
     0,
     0,
     1,
     1
    ]
   },
   "numeric-147": {
    "origin": [
     553.4044,
     353.2063
    ],
    "align": "decimal",
    "format": ".2f",
    "font-size": 8,
    "max-length": 13,
    "font-color": [
     0,
     0,
     1,
     1
    ]
   },
   "numeric-148": {
    "origin": [
     553.4044,
     365.2063
    ],
    "align": "decimal",
    "format": ".2f",
    "font-size": 8,
    "max-length": 13,
    "font-color": [
     0,
     0,
     1,
     1
    ]
   },
   "numeric-169": {
    "origin": [
     319.2507,
     392.1196
    ],
    "align": "decimal",
    "format": ".2f",
    "font-size": 8,
    "max-length": 13,
    "font-color": [
     0,
     0,
     1,
     1
    ]
   },
   "numeric-154": {
    "origin": [
     553.4044,
     395.2063
    ],
    "align": "decimal",
    "format": ".2f",
    "font-size": 8,
    "max-length": 13,
    "font-color": [
     0,
     0,
     1,
     1
    ]
   },
   "numeric-164": {
    "origin": [
     553.4044,
     406.5813
    ],
    "align": "decimal",
    "format": ".2f",
    "font-size": 8,
    "max-length": 13,
    "font-color": [
     0,
     0,
     1,
     1
    ]
   },
   "numeric-199": {
    "origin": [
     553.4044,
     427.8313
    ],
    "align": "decimal",
    "format": ".2f",
    "font-size": 8,
    "max-length": 13,
    "font-color": [
     0,
     0,
     1,
     1
    ]
   },
   "numeric-201": {
    "origin": [
     442.5766,
     458.8313
    ],
    "align": "decimal",
    "format": ".2f",
    "font-size": 8,
    "max-length": 13,
    "font-color": [
     0,
     0,
     1,
     1
    ]
   },
   "numeric-205": {
    "origin": [
     442.5766,
     470.8313
    ],
    "align": "decimal",
    "format": ".2f",
    "font-size": 8,
    "max-length": 13,
    "font-color": [
     0,
     0,
     1,
     1
    ]
   },
   "numeric-207": {
    "origin": [
     442.5765,
     482.8313
    ],
    "align": "decimal",
    "format": ".2f",
    "font-size": 8,
    "max-length": 13,
    "font-color": [
     0,
     0,
     1,
     1
    ]
   },
   "numeric-212": {
    "origin": [
     333.349,
     498.3963
    ],
    "align": "decimal",
    "format": ".2f",
    "font-size": 8,
    "max-length": 13,
    "font-color": [
     0,
     0,
     1,
     1
    ]
   },
   "numeric-214": {
    "origin": [
     442.5766,
     500.8313
    ],
    "align": "decimal",
    "format": ".2f",
    "font-size": 8,
    "max-length": 13,
    "font-color": [
     0,
     0,
     1,
     1
    ]
   },
   "numeric-215": {
    "origin": [
     442.5766,
     512.874
    ],
    "align": "decimal",
    "format": ".2f",
    "font-size": 8,
    "max-length": 13,
    "font-color": [
     0,
     0,
     1,
     1
    ]
   },
   "numeric-225": {
    "origin": [
     442.5841,
     537.0813
    ],
    "align": "decimal",
    "format": ".2f",
    "font-size": 8,
    "max-length": 13,
    "font-color": [
     0,
     0,
     1,
     1
    ]
   },
   "numeric-228": {
    "origin": [
     442.5841,
     549.3313
    ],
    "align": "decimal",
    "format": ".2f",
    "font-size": 8,
    "max-length": 13,
    "font-color": [
     0,
     0,
     1,
     1
    ]
   },
   "numeric-231": {
    "origin": [
     442.5841,
     561.3313
    ],
    "align": "decimal",
    "format": ".2f",
    "font-size": 8,
    "max-length": 13,
    "font-color": [
     0,
     0,
     1,
     1
    ]
   },
   "numeric-233": {
    "origin": [
     265.484,
     585.3313
    ],
    "align": "decimal",
    "format": ".2f",
    "font-size": 8,
    "max-length": 13,
    "font-color": [
     0,
     0,
     1,
     1
    ]
   },
   "numeric-234": {
    "origin": [
     442.5841,
     585.3313
    ],
    "align": "decimal",
    "format": ".2f",
    "font-size": 8,
    "max-length": 13,
    "font-color": [
     0,
     0,
     1,
     1
    ]
   },
   "numeric-236": {
    "origin": [
     442.5841,
     597.5813
    ],
    "align": "decimal",
    "format": ".2f",
    "font-size": 8,
    "max-length": 13,
    "font-color": [
     0,
     0,
     1,
     1
    ]
   },
   "numeric-241": {
    "origin": [
     442.5841,
     609.5813
    ],
    "align": "decimal",
    "format": ".2f",
    "font-size": 8,
    "max-length": 13,
    "font-color": [
     0,
     0,
     1,
     1
    ]
   },
   "numeric-245": {
    "origin": [
     442.5841,
     621.5813
    ],
    "align": "decimal",
    "format": ".2f",
    "font-size": 8,
    "max-length": 13,
    "font-color": [
     0,
     0,
     1,
     1
    ]
   },
   "numeric-246": {
    "origin": [
     442.5841,
     633.5813
    ],
    "align": "decimal",
    "format": ".2f",
    "font-size": 8,
    "max-length": 13,
    "font-color": [
     0,
     0,
     1,
     1
    ]
   },
   "numeric-248": {
    "origin": [
     442.4031,
     646.3313
    ],
    "align": "decimal",
    "format": ".2f",
    "font-size": 8,
    "max-length": 13,
    "font-color": [
     0,
     0,
     1,
     1
    ]
   },
   "numeric-250": {
    "origin": [
     442.5841,
     657.5813
    ],
    "align": "decimal",
    "format": ".2f",
    "font-size": 8,
    "max-length": 13,
    "font-color": [
     0,
     0,
     1,
     1
    ]
   },
   "numeric-252": {
    "origin": [
     442.5841,
     668.9563
    ],
    "align": "decimal",
    "format": ".2f",
    "font-size": 8,
    "max-length": 13,
    "font-color": [
     0,
     0,
     1,
     1
    ]
   },
   "numeric-254": {
    "origin": [
     553.584,
     680.9563
    ],
    "align": "decimal",
    "format": ".2f",
    "font-size": 8,
    "max-length": 13,
    "font-color": [
     0,
     0,
     1,
     1
    ]
   },
   "numeric-254/1": {
    "origin": [
     442.5841,
     681.5813
    ],
    "align": "decimal",
    "format": ".2f",
    "font-size": 8,
    "max-length": 13,
    "font-color": [
     0,
     0,
     1,
     1
    ]
   },
   "numeric-256": {
    "origin": [
     553.584,
     693.5813
    ],
    "align": "decimal",
    "format": ".2f",
    "font-size": 8,
    "max-length": 13,
    "font-color": [
     0,
     0,
     1,
     1
    ]
   },
   "numeric-260": {
    "origin": [
     553.584,
     704.9563
    ],
    "align": "decimal",
    "format": ".2f",
    "font-size": 8,
    "max-length": 13,
    "font-color": [
     0,
     0,
     1,
     1
    ]
   },
   "numeric-275": {
    "origin": [
     553.584,
     728.2063
    ],
    "align": "decimal",
    "format": ".2f",
    "font-size": 8,
    "max-length": 13,
    "font-color": [
     0,
     0,
     1,
     1
    ]
   },
   "char-106": {
    "origin": [
     443.9596,
     171.6383
    ],
    "max-length": 2,
    "character-spacing": 12,
    "font-color": [
     0,
     0,
     1,
     1
    ]
   },
   "char-149": {
    "origin": [
     443.8204,
     363.8883
    ],
    "max-length": 2,
    "character-spacing": 12,
    "font-color": [
     0,
     0,
     1,
     1
    ]
   },
   "char-153": {
    "origin": [
     443.8204,
     393.8883
    ],
    "max-length": 2,
    "character-spacing": 12,
    "font-color": [
     0,
     0,
     1,
     1
    ]
   },
   "char-206": {
    "origin": [
     332.9925,
     481.5133
    ],
    "max-length": 2,
    "character-spacing": 12,
    "font-color": [
     0,
     0,
     1,
     1
    ]
   },
   "char-224": {
    "origin": [
     249.0001,
     535.7643
    ],
    "max-length": 9,
    "character-spacing": 12,
    "font-color": [
     0,
     0,
     1,
     1
    ]
   },
   "char-248.1": {
    "origin": [
     333.0001,
     644.2633
    ],
    "max-length": 2,
    "character-spacing": 12,
    "font-color": [
     0,
     0,
     1,
     1
    ]
   },
   "char-249": {
    "origin": [
     333.0001,
     656.2633
    ],
    "max-length": 2,
    "character-spacing": 12,
    "font-color": [
     0,
     0,
     1,
     1
    ]
   }
  }
 },
 "3": {
  "size": [
   603.0,
   774.0
  ],
  "fields": {
   "checkbox-403": {
    "bounding-box": [
     450.0001,
     567.084,
     12.0,
     12.0
    ],
    "align": "center",
    "align-v": "center",
    "font-color": [
     0,
     0,
     1,
     1
    ]
   },
   "checkbox-404": {
    "bounding-box": [
     450.0001,
     591.084,
     12.0,
     12.0
    ],
    "align": "center",
    "align-v": "center",
    "font-color": [
     0,
     0,
     1,
     1
    ]
   },
   "checkbox-405": {
    "bounding-box": [
     450.0001,
     608.084,
     12.0,
     12.0
    ],
    "align": "center",
    "align-v": "center",
    "font-color": [
     0,
     0,
     1,
     1
    ]
   },
   "numeric-275": {
    "origin": [
     548.1973,
     73.402
    ],
    "align": "decimal",
    "format": ".2f",
    "font-size": 8,
    "max-length": 13,
    "font-color": [
     0,
     0,
     1,
     1
    ]
   },
   "numeric-276": {
    "origin": [
     548.1973,
     85.402
    ],
    "align": "decimal",
    "format": ".2f",
    "font-size": 8,
    "max-length": 13,
    "font-color": [
     0,
     0,
     1,
     1
    ]
   },
   "numeric-278": {
    "origin": [
     548.1973,
     96.777
    ],
    "align": "decimal",
    "format": ".2f",
    "font-size": 8,
    "max-length": 13,
    "font-color": [
     0,
     0,
     1,
     1
    ]
   },
   "numeric-279": {
    "origin": [
     548.1973,
     109.402
    ],
    "align": "decimal",
    "format": ".2f",
    "font-size": 8,
    "max-length": 13,
    "font-color": [
     0,
     0,
     1,
     1
    ]
   },
   "numeric-287": {
    "origin": [
     437.1973,
     121.402
    ],
    "align": "decimal",
    "format": ".2f",
    "font-size": 8,
    "max-length": 13,
    "font-color": [
     0,
     0,
     1,
     1
    ]
   },
   "numeric-289": {
    "origin": [
     437.1973,
     133.402
    ],
    "align": "decimal",
    "format": ".2f",
    "font-size": 8,
    "max-length": 13,
    "font-color": [
     0,
     0,
     1,
     1
    ]
   },
   "numeric-290": {
    "origin": [
     437.1973,
     145.402
    ],
    "align": "decimal",
    "format": ".2f",
    "font-size": 8,
    "max-length": 13,
    "font-color": [
     0,
     0,
     1,
     1
    ]
   },
   "numeric-292": {
    "origin": [
     437.1973,
     157.402
    ],
    "align": "decimal",
    "format": ".2f",
    "font-size": 8,
    "max-length": 13,
    "font-color": [
     0,
     0,
     1,
     1
    ]
   },
   "numeric-293": {
    "origin": [
     437.1973,
     169.402
    ],
    "align": "decimal",
    "format": ".2f",
    "font-size": 8,
    "max-length": 13,
    "font-color": [
     0,
     0,
     1,
     1
    ]
   },
   "numeric-295": {
    "origin": [
     437.1973,
     181.402
    ],
    "align": "decimal",
    "format": ".2f",
    "font-size": 8,
    "max-length": 13,
    "font-color": [
     0,
     0,
     1,
     1
    ]
   },
   "numeric-297": {
    "origin": [
     437.1973,
     192.777
    ],
    "align": "decimal",
    "format": ".2f",
    "font-size": 8,
    "max-length": 13,
    "font-color": [
     0,
     0,
     1,
     1
    ]
   },
   "numeric-298": {
    "origin": [
     548.1973,
     204.777
    ],
    "align": "decimal",
    "format": ".2f",
    "font-size": 8,
    "max-length": 13,
    "font-color": [
     0,
     0,
     1,
     1
    ]
   },
   "numeric-298/1": {
    "origin": [
     437.1973,
     205.402
    ],
    "align": "decimal",
    "format": ".2f",
    "font-size": 8,
    "max-length": 13,
    "font-color": [
     0,
     0,
     1,
     1
    ]
   },
   "numeric-299": {
    "origin": [
     548.1973,
     217.027
    ],
    "align": "decimal",
    "format": ".2f",
    "font-size": 8,
    "max-length": 13,
    "font-color": [
     0,
     0,
     1,
     1
    ]
   },
   "numeric-358": {
    "origin": [
     553.584,
     258.402
    ],
    "align": "decimal",
    "format": ".2f",
    "font-size": 8,
    "max-length": 13,
    "font-color": [
     0,
     0,
     1,
     1
    ]
   },
   "numeric-359": {
    "origin": [
     553.584,
     271.027
    ],
    "align": "decimal",
    "format": ".2f",
    "font-size": 8,
    "max-length": 13,
    "font-color": [
     0,
     0,
     1,
     1
    ]
   },
   "numeric-361": {
    "origin": [
     553.584,
     283.277
    ],
    "align": "decimal",
    "format": ".2f",
    "font-size": 8,
    "max-length": 13,
    "font-color": [
     0,
     0,
     1,
     1
    ]
   },
   "numeric-367": {
    "origin": [
     553.584,
     295.277
    ],
    "align": "decimal",
    "format": ".2f",
    "font-size": 8,
    "max-length": 13,
    "font-color": [
     0,
     0,
     1,
     1
    ]
   },
   "numeric-376": {
    "origin": [
     553.584,
     306.652
    ],
    "align": "decimal",
    "format": ".2f",
    "font-size": 8,
    "max-length": 13,
    "font-color": [
     0,
     0,
     1,
     1
    ]
   },
   "numeric-377": {
    "origin": [
     553.584,
     319.277
    ],
    "align": "decimal",
    "format": ".2f",
    "font-size": 8,
    "max-length": 13,
    "font-color": [
     0,
     0,
     1,
     1
    ]
   },
   "numeric-377.1": {
    "origin": [
     553.584,
     343.277
    ],
    "align": "decimal",
    "format": ".2f",
    "font-size": 8,
    "max-length": 13,
    "font-color": [
     0,
     0,
     1,
     1
    ]
   },
   "numeric-378": {
    "origin": [
     442.6468,
     355.527
    ],
    "align": "decimal",
    "format": ".2f",
    "font-size": 8,
    "max-length": 13,
    "font-color": [
     0,
     0,
     1,
     1
    ]
   },
   "numeric-381": {
    "origin": [
     442.6469,
     367.527
    ],
    "align": "decimal",
    "format": ".2f",
    "font-size": 8,
    "max-length": 13,
    "font-color": [
     0,
     0,
     1,
     1
    ]
   },
   "numeric-385": {
    "origin": [
     442.6469,
     378.902
    ],
    "align": "decimal",
    "format": ".2f",
    "font-size": 8,
    "max-length": 13,
    "font-color": [
     0,
     0,
     1,
     1
    ]
   },
   "numeric-388": {
    "origin": [
     442.6469,
     391.527
    ],
    "align": "decimal",
    "format": ".2f",
    "font-size": 8,
    "max-length": 13,
    "font-color": [
     0,
     0,
     1,
     1
    ]
   },
   "numeric-389": {
    "origin": [
     442.6469,
     415.527
    ],
    "align": "decimal",
    "format": ".2f",
    "font-size": 8,
    "max-length": 13,
    "font-color": [
     0,
     0,
     1,
     1
    ]
   },
   "numeric-389/1": {
    "origin": [
     553.6468,
     415.527
    ],
    "align": "decimal",
    "format": ".2f",
    "font-size": 8,
    "max-length": 13,
    "font-color": [
     0,
     0,
     1,
     1
    ]
   },
   "numeric-390": {
    "origin": [
     553.634,
     437.777
    ],
    "align": "decimal",
    "format": ".2f",
    "font-size": 8,
    "max-length": 13,
    "font-color": [
     0,
     0,
     1,
     1
    ]
   },
   "numeric-391": {
    "origin": [
     553.634,
     449.777
    ],
    "align": "decimal",
    "format": ".2f",
    "font-size": 8,
    "max-length": 13,
    "font-color": [
     0,
     0,
     1,
     1
    ]
   },
   "numeric-392": {
    "origin": [
     553.634,
     461.777
    ],
    "align": "decimal",
    "format": ".2f",
    "font-size": 8,
    "max-length": 13,
    "font-color": [
     0,
     0,
     1,
     1
    ]
   },
   "numeric-393": {
    "origin": [
     444.463,
     476.662
    ],
    "align": "decimal",
    "format": ".2f",
    "font-size": 8,
    "max-length": 13,
    "font-color": [
     0,
     0,
     1,
     1
    ]
   },
   "numeric-395": {
    "origin": [
     553.634,
     479.777
    ],
    "align": "decimal",
    "format": ".2f",
    "font-size": 8,
    "max-length": 13,
    "font-color": [
     0,
     0,
     1,
     1
    ]
   },
   "numeric-396": {
    "origin": [
     553.634,
     491.777
    ],
    "align": "decimal",
    "format": ".2f",
    "font-size": 8,
    "max-length": 13,
    "font-color": [
     0,
     0,
     1,
     1
    ]
   },
   "numeric-397.1": {
    "origin": [
     399.6637,
     503.777
    ],
    "align": "decimal",
    "format": ".2f",
    "font-size": 8,
    "max-length": 13,
    "font-color": [
     0,
     0,
     1,
     1
    ]
   },
   "numeric-397": {
    "origin": [
     553.634,
     503.777
    ],
    "align": "decimal",
    "format": ".2f",
    "font-size": 8,
    "max-length": 13,
    "font-color": [
     0,
     0,
     1,
     1
    ]
   },
   "numeric-398": {
    "origin": [
     553.634,
     515.777
    ],
    "align": "decimal",
    "format": ".2f",
    "font-size": 8,
    "max-length": 13,
    "font-color": [
     0,
     0,
     1,
     1
    ]
   },
   "numeric-398.1": {
    "origin": [
     553.634,
     527.152
    ],
    "align": "decimal",
    "format": ".2f",
    "font-size": 8,
    "max-length": 13,
    "font-color": [
     0,
     0,
     1,
     1
    ]
   },
   "numeric-399": {
    "origin": [
     553.634,
     539.402
    ],
    "align": "decimal",
    "format": ".2f",
    "font-size": 8,
    "max-length": 13,
    "font-color": [
     0,
     0,
     1,
     1
    ]
   },
   "numeric-401": {
    "origin": [
     553.584,
     578.277
    ],
    "align": "decimal",
    "format": ".2f",
    "font-size": 8,
    "max-length": 13,
    "font-color": [
     0,
     0,
     1,
     1
    ]
   },
   "numeric-406": {
    "origin": [
     553.584,
     589.652
    ],
    "align": "decimal",
    "format": ".2f",
    "font-size": 8,
    "max-length": 13,
    "font-color": [
     0,
     0,
     1,
     1
    ]
   },
   "numeric-413": {
    "origin": [
     553.584,
     622.277
    ],
    "align": "decimal",
    "format": ".2f",
    "font-size": 8,
    "max-length": 13,
    "font-color": [
     0,
     0,
     1,
     1
    ]
   },
   "numeric-414": {
    "origin": [
     442.5841,
     634.277
    ],
    "align": "decimal",
    "format": ".2f",
    "font-size": 8,
    "max-length": 13,
    "font-color": [
     0,
     0,
     1,
     1
    ]
   },
   "numeric-415": {
    "origin": [
     442.5841,
     646.277
    ],
    "align": "decimal",
    "format": ".2f",
    "font-size": 8,
    "max-length": 13,
    "font-color": [
     0,
     0,
     1,
     1
    ]
   },
   "numeric-422": {
    "origin": [
     442.5841,
     658.277
    ],
    "align": "decimal",
    "format": ".2f",
    "font-size": 8,
    "max-length": 13,
    "font-color": [
     0,
     0,
     1,
     1
    ]
   },
   "numeric-424": {
    "origin": [
     442.5841,
     669.652
    ],
    "align": "decimal",
    "format": ".2f",
    "font-size": 8,
    "max-length": 13,
    "font-color": [
     0,
     0,
     1,
     1
    ]
   },
   "numeric-425": {
    "origin": [
     553.584,
     681.652
    ],
    "align": "decimal",
    "format": ".2f",
    "font-size": 8,
    "max-length": 13,
    "font-color": [
     0,
     0,
     1,
     1
    ]
   },
   "numeric-425/1": {
    "origin": [
     442.5841,
     682.277
    ],
    "align": "decimal",
    "format": ".2f",
    "font-size": 8,
    "max-length": 13,
    "font-color": [
     0,
     0,
     1,
     1
    ]
   },
   "numeric-430": {
    "origin": [
     553.584,
     694.277
    ],
    "align": "decimal",
    "format": ".2f",
    "font-size": 8,
    "max-length": 13,
    "font-color": [
     0,
     0,
     1,
     1
    ]
   },
   "numeric-431": {
    "origin": [
     553.584,
     705.652
    ],
    "align": "decimal",
    "format": ".2f",
    "font-size": 8,
    "max-length": 13,
    "font-color": [
     0,
     0,
     1,
     1
    ]
   },
   "numeric-432": {
    "origin": [
     553.584,
     728.277
    ],
    "align": "decimal",
    "format": ".2f",
    "font-size": 8,
    "max-length": 13,
    "font-color": [
     0,
     0,
     1,
     1
    ]
   },
   "char-277": {
    "origin": [
     438.6189,
     84.084
    ],
    "max-length": 2,
    "character-spacing": 12,
    "font-color": [
     0,
     0,
     1,
     1
    ]
   },
   "char-286": {
    "origin": [
     327.6035,
     120.084
    ],
    "max-length": 2,
    "character-spacing": 12,
    "font-color": [
     0,
     0,
     1,
     1
    ]
   },
   "char-289.1": {
    "origin": [
     327.6035,
     132.084
    ],
    "max-length": 2,
    "character-spacing": 12,
    "font-color": [
     0,
     0,
     1,
     1
    ]
   },
   "char-296": {
    "origin": [
     327.6035,
     192.084
    ],
    "max-length": 2,
    "character-spacing": 12,
    "font-color": [
     0,
     0,
     1,
     1
    ]
   },
   "char-390.1": {
    "origin": [
     444.05,
     433.584
    ],
    "max-length": 2,
    "character-spacing": 12,
    "font-color": [
     0,
     0,
     1,
     1
    ]
   }
  }
 },
 "4": {
  "size": [
   603.0,
   774.0
  ],
  "fields": {
   "checkbox-436": {
    "bounding-box": [
     340.835,
     61.992,
     8.0,
     8.0
    ],
    "align": "center",
    "align-v": "center",
    "font-color": [
     0,
     0,
     1,
     1
    ]
   },
   "checkbox-436/1": {
    "bounding-box": [
     379.835,
     61.992,
     8.0,
     8.0
    ],
    "align": "center",
    "align-v": "center",
    "font-color": [
     0,
     0,
     1,
     1
    ]
   },
   "checkbox-444": {
    "bounding-box": [
     435.0993,
     108.1173,
     12.0,
     12.0
    ],
    "align": "center",
    "align-v": "center",
    "font-color": [
     0,
     0,
     1,
     1
    ]
   },
   "checkbox": {
    "bounding-box": [
     561.25,
     717.746,
     11.5,
     11.5
    ],
    "font-color": [
     0,
     0,
     1,
     1
    ]
   },
   "numeric-432": {
    "origin": [
     549.1693,
     46.9354
    ],
    "align": "decimal",
    "format": ".2f",
    "font-size": 8,
    "max-length": 13,
    "font-color": [
     0,
     0,
     1,
     1
    ]
   },
   "numeric-438": {
    "origin": [
     549.1693,
     70.9354
    ],
    "align": "decimal",
    "format": ".2f",
    "font-size": 8,
    "max-length": 13,
    "font-color": [
     0,
     0,
     1,
     1
    ]
   },
   "numeric-439": {
    "origin": [
     549.1693,
     82.9354
    ],
    "align": "decimal",
    "format": ".2f",
    "font-size": 8,
    "max-length": 13,
    "font-color": [
     0,
     0,
     1,
     1
    ]
   },
   "numeric-441": {
    "origin": [
     549.2039,
     95.3104
    ],
    "align": "decimal",
    "format": ".2f",
    "font-size": 8,
    "max-length": 13,
    "font-color": [
     0,
     0,
     1,
     1
    ]
   },
   "numeric-443": {
    "origin": [
     549.2039,
     107.3104
    ],
    "align": "decimal",
    "format": ".2f",
    "font-size": 8,
    "max-length": 13,
    "font-color": [
     0,
     0,
     1,
     1
    ]
   },
   "numeric-445": {
    "origin": [
     549.2039,
     119.3103
    ],
    "align": "decimal",
    "format": ".2f",
    "font-size": 8,
    "max-length": 13,
    "font-color": [
     0,
     0,
     1,
     1
    ]
   },
   "numeric-446": {
    "origin": [
     549.2039,
     131.3103
    ],
    "align": "decimal",
    "format": ".2f",
    "font-size": 8,
    "max-length": 13,
    "font-color": [
     0,
     0,
     1,
     1
    ]
   },
   "numeric-447": {
    "origin": [
     549.2039,
     152.9353
    ],
    "align": "decimal",
    "format": ".2f",
    "font-size": 8,
    "max-length": 13,
    "font-color": [
     0,
     0,
     1,
     1
    ]
   },
   "numeric-450": {
    "origin": [
     549.2039,
     165.1853
    ],
    "align": "decimal",
    "format": ".2f",
    "font-size": 8,
    "max-length": 13,
    "font-color": [
     0,
     0,
     1,
     1
    ]
   },
   "numeric-451": {
    "origin": [
     325.4005,
     210.0603
    ],
    "align": "decimal",
    "format": ".2f",
    "font-size": 8,
    "max-length": 13,
    "font-color": [
     0,
     0,
     1,
     1
    ]
   },
   "numeric-451.1": {
    "origin": [
     325.4005,
     221.4353
    ],
    "align": "decimal",
    "format": ".2f",
    "font-size": 8,
    "max-length": 13,
    "font-color": [
     0,
     0,
     1,
     1
    ]
   },
   "numeric-451.2": {
    "origin": [
     325.4005,
     234.0603
    ],
    "align": "decimal",
    "format": ".2f",
    "font-size": 8,
    "max-length": 13,
    "font-color": [
     0,
     0,
     1,
     1
    ]
   },
   "numeric-451.2/1": {
    "origin": [
     436.4024,
     234.0603
    ],
    "align": "decimal",
    "format": ".2f",
    "font-size": 8,
    "max-length": 13,
    "font-color": [
     0,
     0,
     1,
     1
    ]
   },
   "numeric-451.3": {
    "origin": [
     436.4024,
     246.0603
    ],
    "align": "decimal",
    "format": ".2f",
    "font-size": 8,
    "max-length": 13,
    "font-color": [
     0,
     0,
     1,
     1
    ]
   },
   "numeric-452": {
    "origin": [
     436.4024,
     258.0603
    ],
    "align": "decimal",
    "format": ".2f",
    "font-size": 8,
    "max-length": 13,
    "font-color": [
     0,
     0,
     1,
     1
    ]
   },
   "numeric-453": {
    "origin": [
     436.4024,
     270.0603
    ],
    "align": "decimal",
    "format": ".2f",
    "font-size": 8,
    "max-length": 13,
    "font-color": [
     0,
     0,
     1,
     1
    ]
   },
   "numeric-454": {
    "origin": [
     436.4024,
     282.0603
    ],
    "align": "decimal",
    "format": ".2f",
    "font-size": 8,
    "max-length": 13,
    "font-color": [
     0,
     0,
     1,
     1
    ]
   },
   "numeric-455": {
    "origin": [
     436.4024,
     294.0603
    ],
    "align": "decimal",
    "format": ".2f",
    "font-size": 8,
    "max-length": 13,
    "font-color": [
     0,
     0,
     1,
     1
    ]
   },
   "numeric-456": {
    "origin": [
     436.4024,
     306.0603
    ],
    "align": "decimal",
    "format": ".2f",
    "font-size": 8,
    "max-length": 13,
    "font-color": [
     0,
     0,
     1,
     1
    ]
   },
   "numeric-457": {
    "origin": [
     436.4024,
     318.0603
    ],
    "align": "decimal",
    "format": ".2f",
    "font-size": 8,
    "max-length": 13,
    "font-color": [
     0,
     0,
     1,
     1
    ]
   },
   "numeric-458": {
    "origin": [
     436.4024,
     330.0603
    ],
    "align": "decimal",
    "format": ".2f",
    "font-size": 8,
    "max-length": 13,
    "font-color": [
     0,
     0,
     1,
     1
    ]
   },
   "numeric-459": {
    "origin": [
     436.4024,
     342.0603
    ],
    "align": "decimal",
    "format": ".2f",
    "font-size": 8,
    "max-length": 13,
    "font-color": [
     0,
     0,
     1,
     1
    ]
   },
   "numeric-460": {
    "origin": [
     436.4024,
     354.0603
    ],
    "align": "decimal",
    "format": ".2f",
    "font-size": 8,
    "max-length": 13,
    "font-color": [
     0,
     0,
     1,
     1
    ]
   },
   "numeric-462": {
    "origin": [
     436.4024,
     366.0603
    ],
    "align": "decimal",
    "format": ".2f",
    "font-size": 8,
    "max-length": 13,
    "font-color": [
     0,
     0,
     1,
     1
    ]
   },
   "numeric-463": {
    "origin": [
     436.4024,
     377.4353
    ],
    "align": "decimal",
    "format": ".2f",
    "font-size": 8,
    "max-length": 13,
    "font-color": [
     0,
     0,
     1,
     1
    ]
   },
   "numeric-465": {
    "origin": [
     436.4024,
     390.0603
    ],
    "align": "decimal",
    "format": ".2f",
    "font-size": 8,
    "max-length": 13,
    "font-color": [
     0,
     0,
     1,
     1
    ]
   },
   "numeric-466": {
    "origin": [
     436.4024,
     401.4353
    ],
    "align": "decimal",
    "format": ".2f",
    "font-size": 8,
    "max-length": 13,
    "font-color": [
     0,
     0,
     1,
     1
    ]
   },
   "numeric-468": {
    "origin": [
     547.4023,
     413.4353
    ],
    "align": "decimal",
    "format": ".2f",
    "font-size": 8,
    "max-length": 13,
    "font-color": [
     0,
     0,
     1,
     1
    ]
   },
   "numeric-468/1": {
    "origin": [
     436.4024,
     414.0603
    ],
    "align": "decimal",
    "format": ".2f",
    "font-size": 8,
    "max-length": 13,
    "font-color": [
     0,
     0,
     1,
     1
    ]
   },
   "numeric-470": {
    "origin": [
     547.4023,
     430.0603
    ],
    "align": "decimal",
    "format": ".2f",
    "font-size": 8,
    "max-length": 13,
    "font-color": [
     0,
     0,
     1,
     1
    ]
   },
   "numeric-474": {
    "origin": [
     436.4024,
     469.0603
    ],
    "align": "decimal",
    "format": ".2f",
    "font-size": 8,
    "max-length": 13,
    "font-color": [
     0,
     0,
     1,
     1
    ]
   },
   "numeric-476": {
    "origin": [
     436.4024,
     480.4353
    ],
    "align": "decimal",
    "format": ".2f",
    "font-size": 8,
    "max-length": 13,
    "font-color": [
     0,
     0,
     1,
     1
    ]
   },
   "numeric-478": {
    "origin": [
     436.4024,
     493.0603
    ],
    "align": "decimal",
    "format": ".2f",
    "font-size": 8,
    "max-length": 13,
    "font-color": [
     0,
     0,
     1,
     1
    ]
   },
   "numeric-480": {
    "origin": [
     436.4024,
     505.0603
    ],
    "align": "decimal",
    "format": ".2f",
    "font-size": 8,
    "max-length": 13,
    "font-color": [
     0,
     0,
     1,
     1
    ]
   },
   "numeric-475": {
    "origin": [
     547.4023,
     520.0603
    ],
    "align": "decimal",
    "format": ".2f",
    "font-size": 8,
    "max-length": 13,
    "font-color": [
     0,
     0,
     1,
     1
    ]
   },
   "numeric-477": {
    "origin": [
     547.4023,
     531.4353
    ],
    "align": "decimal",
    "format": ".2f",
    "font-size": 8,
    "max-length": 13,
    "font-color": [
     0,
     0,
     1,
     1
    ]
   },
   "numeric-479": {
    "origin": [
     547.4023,
     544.0603
    ],
    "align": "decimal",
    "format": ".2f",
    "font-size": 8,
    "max-length": 13,
    "font-color": [
     0,
     0,
     1,
     1
    ]
   },
   "numeric-481": {
    "origin": [
     547.4023,
     566.0603
    ],
    "align": "decimal",
    "format": ".2f",
    "font-size": 8,
    "max-length": 13,
    "font-color": [
     0,
     0,
     1,
     1
    ]
   },
   "char-437": {
    "origin": [
     343.6478,
     57.6173
    ],
    "max-length": 10,
    "character-spacing": 12,
    "font-color": [
     0,
     0,
     1,
     1
    ]
   },
   "char-442": {
    "origin": [
     390.626,
     105.9923
    ],
    "max-length": 2,
    "character-spacing": 12,
    "font-color": [
     0,
     0,
     1,
     1
    ]
   },
   "char-449": {
    "origin": [
     439.6199,
     152.2423
    ],
    "max-length": 2,
    "character-spacing": 12,
    "font-color": [
     0,
     0,
     1,
     1
    ]
   },
   "char-461": {
    "origin": [
     326.8165,
     364.7423
    ],
    "max-length": 2,
    "character-spacing": 12,
    "font-color": [
     0,
     0,
     1,
     1
    ]
   },
   "char-498": {
    "origin": [
     72.0089,
     684.3673
    ],
    "max-length": 10,
    "character-spacing": 12,
    "font-color": [
     0,
     0,
     1,
     1
    ],
    "aliases": {
     "identity": "phone-number"
    }
   },
   "char-499": {
    "origin": [
     243.0089,
     684.3673
    ],
    "max-length": 10,
    "character-spacing": 12,
    "font-color": [
     0,
     0,
     1,
     1
    ],
    "aliases": {
     "identity": "phone-number-work"
    }
   }
  }
 }
}