{
 "1": {
  "size": [
   603.0,
   774.0
  ],
  "fields": {
   "checkbox-200": {
    "bounding-box": [
     56.666,
     201.508,
     11.5,
     11.5
    ],
    "align": "center",
    "align-v": "center",
    "font-color": [
     0,
     0,
     1,
     1
    ]
   },
   "checkbox-200/1": {
    "bounding-box": [
     108.5,
     201.508,
     11.5,
     11.5
    ],
    "align": "center",
    "align-v": "center",
    "font-color": [
     0,
     0,
     1,
     1
    ]
   },
   "checkbox-200/2": {
    "bounding-box": [
     189.5,
     201.508,
     11.5,
     11.5
    ],
    "align": "center",
    "align-v": "center",
    "font-color": [
     0,
     0,
     1,
     1
    ]
   },
   "checkbox-200/3": {
    "bounding-box": [
     322.5,
     201.508,
     11.5,
     11.5
    ],
    "align": "center",
    "align-v": "center",
    "font-color": [
     0,
     0,
     1,
     1
    ]
   },
   "checkbox-200/4": {
    "bounding-box": [
     502.5,
     201.508,
     11.5,
     11.5
    ],
    "align": "center",
    "align-v": "center",
    "font-color": [
     0,
     0,
     1,
     1
    ]
   },
   "checkbox-208.1": {
    "bounding-box": [
     279.375,
     377.008,
     11.5,
     11.5
    ],
    "align": "center",
    "align-v": "center",
    "font-color": [
     0,
     0,
     1,
     1
    ]
   },
   "checkbox-208.1/1": {
    "bounding-box": [
     561.55,
     377.008,
     11.5,
     11.5
    ],
    "align": "center",
    "align-v": "center",
    "font-color": [
     0,
     0,
     1,
     1
    ]
   },
   "checkbox-234": {
    "bounding-box": [
     501.25,
     620.786,
     11.5,
     11.5
    ],
    "align": "center",
    "align-v": "center",
    "font-color": [
     0,
     0,
     1,
     1
    ]
   },
   "checkbox-234/1": {
    "bounding-box": [
     552.25,
     620.786,
     11.5,
     11.5
    ],
    "align": "center",
    "align-v": "center",
    "font-color": [
     0,
     0,
     1,
     1
    ]
   },
   "checkbox-236": {
    "bounding-box": [
     501.25,
     644.786,
     11.5,
     11.5
    ],
    "align": "center",
    "align-v": "center",
    "font-color": [
     0,
     0,
     1,
     1
    ]
   },
   "checkbox-236/1": {
    "bounding-box": [
     552.25,
     644.786,
     11.5,
     11.5
    ],
    "align": "center",
    "align-v": "center",
    "font-color": [
     0,
     0,
     1,
     1
    ]
   },
   "checkbox-238": {
    "bounding-box": [
     501.25,
     668.786,
     11.5,
     11.5
    ],
    "align": "center",
    "align-v": "center",
    "font-color": [
     0,
     0,
     1,
     1
    ]
   },
   "checkbox-238/1": {
    "bounding-box": [
     552.25,
     668.786,
     11.5,
     11.5
    ],
    "align": "center",
    "align-v": "center",
    "font-color": [
     0,
     0,
     1,
     1
    ]
   },
   "checkbox-240": {
    "bounding-box": [
     501.25,
     692.786,
     11.5,
     11.5
    ],
    "align": "center",
    "align-v": "center",
    "font-color": [
     0,
     0,
     1,
     1
    ]
   },
   "checkbox-240/1": {
    "bounding-box": [
     552.25,
     692.786,
     11.5,
     11.5
    ],
    "align": "center",
    "align-v": "center",
    "font-color": [
     0,
     0,
     1,
     1
    ]
   },
   "chr": {
    "origin": [
     36.375,
     164.7579
    ],
    "max-length": 39,
    "character-spacing": 12,
    "font-color": [
     0,
     0,
     1,
     1
    ]
   },
   "chr/1": {
    "origin": [
     507.125,
     164.7579
    ],
    "max-length": 6,
    "character-spacing": 12,
    "font-color": [
     0,
     0,
     1,
     1
    ]
   },
   "char-201": {
    "origin": [
     471.0,
     302.3829
    ],
    "max-length": 9,
    "character-spacing": 12,
    "font-color": [
     0,
     0,
     1,
     1
    ]
   },
   "char-208": {
    "origin": [
     57.125,
     359.6329
    ],
    "max-length": 20,
    "character-spacing": 12,
    "font-color": [
     0,
     0,
     1,
     1
    ]
   },
   "char-208/1": {
    "origin": [
     339.212,
     359.6329
    ],
    "max-length": 20,
    "character-spacing": 12,
    "font-color": [
     0,
     0,
     1,
     1
    ]
   },
   "char-210": {
    "origin": [
     57.1249,
     416.6329
    ],
    "max-length": 20,
    "character-spacing": 12,
    "font-color": [
     0,
     0,
     1,
     1
    ]
   },
   "char-210/1": {
    "origin": [
     339.1249,
     416.6329
    ],
    "max-length": 20,
    "character-spacing": 12,
    "font-color": [
     0,
     0,
     1,
     1
    ]
   },
   "char-212": {
    "origin": [
     57.1249,
     446.6329
    ],
    "max-length": 20,
    "character-spacing": 12,
    "font-color": [
     0,
     0,
     1,
     1
    ]
   },
   "char-212/1": {
    "origin": [
     339.1249,
     446.6329
    ],
    "max-length": 20,
    "character-spacing": 12,
    "font-color": [
     0,
     0,
     1,
     1
    ]
   },
   "char-214": {
    "origin": [
     57.1249,
     476.6329
    ],
    "max-length": 9,
    "character-spacing": 12,
    "font-color": [
     0,
     0,
     1,
     1
    ]
   },
   "char-218": {
    "origin": [
     201.1249,
     476.6329
    ],
    "max-length": 8,
    "character-spacing": 12,
    "font-color": [
     0,
     0,
     1,
     1
    ]
   },
   "char-224": {
    "origin": [
     120.425,
     530.1329
    ],
    "max-length": 4,
    "character-spacing": 12,
    "font-color": [
     0,
     0,
     1,
     1
    ]
   },
   "char-224/1": {
    "origin": [
     186.425,
     530.1329
    ],
    "max-length": 4,
    "character-spacing": 12,
    "font-color": [
     0,
     0,
     1,
     1
    ]
   },
   "char-224/2": {
    "origin": [
     246.4249,
     530.1329
    ],
    "max-length": 3,
    "character-spacing": 12,
    "font-color": [
     0,
     0,
     1,
     1
    ]
   },
   "char-224/3": {
    "origin": [
     407.549,
     530.1329
    ],
    "max-length": 4,
    "character-spacing": 12,
    "font-color": [
     0,
     0,
     1,
     1
    ]
   },
   "char-224/4": {
    "origin": [
     473.549,
     530.1329
    ],
    "max-length": 4,
    "character-spacing": 12,
    "font-color": [
     0,
     0,
     1,
     1
    ]
   },
   "char-224/5": {
    "origin": [
     533.5282,
     530.1329
    ],
    "max-length": 3,
    "character-spacing": 12,
    "font-color": [
     0,
     0,
     1,
     1
    ]
   },
   "char-226": {
    "origin": [
     120.425,
     554.1329
    ],
    "max-length": 4,
    "character-spacing": 12,
    "font-color": [
     0,
     0,
     1,
     1
    ]
   },
   "char-226/1": {
    "origin": [
     186.425,
     554.1329
    ],
    "max-length": 4,
    "character-spacing": 12,
    "font-color": [
     0,
     0,
     1,
     1
    ]
   },
   "char-226/2": {
    "origin": [
     246.4249,
     554.1329
    ],
    "max-length": 3,
    "character-spacing": 12,
    "font-color": [
     0,
     0,
     1,
     1
    ]
   },
   "char-226/3": {
    "origin": [
     407.5489,
     554.1329
    ],
    "max-length": 4,
    "character-spacing": 12,
    "font-color": [
     0,
     0,
     1,
     1
    ]
   },
   "char-226/4": {
    "origin": [
     473.5489,
     554.1329
    ],
    "max-length": 4,
    "character-spacing": 12,
    "font-color": [
     0,
     0,
     1,
     1
    ]
   },
   "char-226/5": {
    "origin": [
     533.5282,
     554.1329
    ],
    "max-length": 3,
    "character-spacing": 12,
    "font-color": [
     0,
     0,
     1,
     1
    ]
   },
   "char-228": {
    "origin": [
     120.425,
     578.1329
    ],
    "max-length": 4,
    "character-spacing": 12,
    "font-color": [
     0,
     0,
     1,
     1
    ]
   },
   "char-228/1": {
    "origin": [
     186.425,
     578.1329
    ],
    "max-length": 4,
    "character-spacing": 12,
    "font-color": [
     0,
     0,
     1,
     1
    ]
   },
   "char-228/2": {
    "origin": [
     246.4249,
     578.1329
    ],
    "max-length": 3,
    "character-spacing": 12,
    "font-color": [
     0,
     0,
     1,
     1
    ]
   },
   "char-228/3": {
    "origin": [
     407.5489,
     578.1329
    ],
    "max-length": 4,
    "character-spacing": 12,
    "font-color": [
     0,
     0,
     1,
     1
    ]
   },
   "char-228/4": {
    "origin": [
     473.5489,
     578.1329
    ],
    "max-length": 4,
    "character-spacing": 12,
    "font-color": [
     0,
     0,
     1,
     1
    ]
   },
   "char-228/5": {
    "origin": [
     533.5282,
     578.1329
    ],
    "max-length": 3,
    "character-spacing": 12,
    "font-color": [
     0,
     0,
     1,
     1
    ]
   }
  }
 },
 "2": {
  "size": [
   603.0,
   774.0
  ],
  "fields": {
   "numeric-251": {
    "origin": [
     541.0777,
     100.8776
    ],
    "align": "decimal",
    "format": ".2f",
    "font-size": 9,
    "max-length": 13,
    "font-color": [
     0,
     0,
     1,
     1
    ],
    "character-spacing": 12
   },
   "numeric-252": {
    "origin": [
     422.495,
     112.8776
    ],
    "align": "decimal",
    "format": ".2f",
    "font-size": 9,
    "max-length": 13,
    "font-color": [
     0,
     0,
     1,
     1
    ],
    "character-spacing": 12
   },
   "numeric-253": {
    "origin": [
     422.495,
     124.2526
    ],
    "align": "decimal",
    "format": ".2f",
    "font-size": 9,
    "max-length": 13,
    "font-color": [
     0,
     0,
     1,
     1
    ],
    "character-spacing": 12
   },
   "numeric-254": {
    "origin": [
     422.495,
     148.8776
    ],
    "align": "decimal",
    "format": ".2f",
    "font-size": 9,
    "max-length": 13,
    "font-color": [
     0,
     0,
     1,
     1
    ],
    "character-spacing": 12
   },
   "numeric-256": {
    "origin": [
     422.495,
     172.8776
    ],
    "align": "decimal",
    "format": ".2f",
    "font-size": 9,
    "max-length": 13,
    "font-color": [
     0,
     0,
     1,
     1
    ],
    "character-spacing": 12
   },
   "numeric-257": {
    "origin": [
     541.5949,
     184.2526
    ],
    "align": "decimal",
    "format": ".2f",
    "font-size": 9,
    "max-length": 13,
    "font-color": [
     0,
     0,
     1,
     1
    ],
    "character-spacing": 12
   },
   "numeric-258": {
    "origin": [
     541.5949,
     196.8776
    ],
    "align": "decimal",
    "format": ".2f",
    "font-size": 9,
    "max-length": 13,
    "font-color": [
     0,
     0,
     1,
     1
    ],
    "character-spacing": 12
   },
   "numeric-259": {
    "origin": [
     422.495,
     220.8776
    ],
    "align": "decimal",
    "format": ".2f",
    "font-size": 9,
    "max-length": 13,
    "font-color": [
     0,
     0,
     1,
     1
    ],
    "character-spacing": 12
   },
   "numeric-260": {
    "origin": [
     422.495,
     253.2526
    ],
    "align": "decimal",
    "format": ".2f",
    "font-size": 9,
    "max-length": 13,
    "font-color": [
     0,
     0,
     1,
     1
    ],
    "character-spacing": 12
   },
   "numeric-261": {
    "origin": [
     541.5949,
     265.2526
    ],
    "align": "decimal",
    "format": ".2f",
    "font-size": 9,
    "max-length": 13,
    "font-color": [
     0,
     0,
     1,
     1
    ],
    "character-spacing": 12
   },
   "numeric-261/1": {
    "origin": [
     422.495,
     265.8776
    ],
    "align": "decimal",
    "format": ".2f",
    "font-size": 9,
    "max-length": 13,
    "font-color": [
     0,
     0,
     1,
     1
    ],
    "character-spacing": 12
   },
   "numeric-262": {
    "origin": [
     541.5949,
     277.8775
    ],
    "align": "decimal",
    "format": ".2f",
    "font-size": 9,
    "max-length": 13,
    "font-color": [
     0,
     0,
     1,
     1
    ],
    "character-spacing": 12
   },
   "numeric-263": {
    "origin": [
     541.5949,
     289.2525
    ],
    "align": "decimal",
    "format": ".2f",
    "font-size": 9,
    "max-length": 13,
    "font-color": [
     0,
     0,
     1,
     1
    ],
    "character-spacing": 12
   },
   "numeric-264": {
    "origin": [
     541.5949,
     313.5025
    ],
    "align": "decimal",
    "format": ".2f",
    "font-size": 9,
    "max-length": 13,
    "font-color": [
     0,
     0,
     1,
     1
    ],
    "character-spacing": 12
   },
   "numeric-251/1": {
    "origin": [
     541.0777,
     360.3775
    ],
    "align": "decimal",
    "format": ".2f",
    "font-size": 9,
    "max-length": 13,
    "font-color": [
     0,
     0,
     1,
     1
    ],
    "character-spacing": 12
   },
   "numeric-252/1": {
    "origin": [
     422.495,
     372.3775
    ],
    "align": "decimal",
    "format": ".2f",
    "font-size": 9,
    "max-length": 13,
    "font-color": [
     0,
     0,
     1,
     1
    ],
    "character-spacing": 12
   },
   "numeric-253/1": {
    "origin": [
     422.495,
     383.7525
    ],
    "align": "decimal",
    "format": ".2f",
    "font-size": 9,
    "max-length": 13,
    "font-color": [
     0,
     0,
     1,
     1
    ],
    "character-spacing": 12
   },
   "numeric-254/1": {
    "origin": [
     422.495,
     408.3775
    ],
    "align": "decimal",
    "format": ".2f",
    "font-size": 9,
    "max-length": 13,
    "font-color": [
     0,
     0,
     1,
     1
    ],
    "character-spacing": 12
   },
   "numeric-256/1": {
    "origin": [
     422.495,
     432.3775
    ],
    "align": "decimal",
    "format": ".2f",
    "font-size": 9,
    "max-length": 13,
    "font-color": [
     0,
     0,
     1,
     1
    ],
    "character-spacing": 12
   },
   "numeric-257/1": {
    "origin": [
     541.5949,
     443.7525
    ],
    "align": "decimal",
    "format": ".2f",
    "font-size": 9,
    "max-length": 13,
    "font-color": [
     0,
     0,
     1,
     1
    ],
    "character-spacing": 12
   },
   "numeric-258/1": {
    "origin": [
     541.5949,
     456.3775
    ],
    "align": "decimal",
    "format": ".2f",
    "font-size": 9,
    "max-length": 13,
    "font-color": [
     0,
     0,
     1,
     1
    ],
    "character-spacing": 12
   },
   "numeric-259/1": {
    "origin": [
     422.495,
     480.3775
    ],
    "align": "decimal",
    "format": ".2f",
    "font-size": 9,
    "max-length": 13,
    "font-color": [
     0,
     0,
     1,
     1
    ],
    "character-spacing": 12
   },
   "numeric-260/1": {
    "origin": [
     422.495,
     512.7525
    ],
    "align": "decimal",
    "format": ".2f",
    "font-size": 9,
    "max-length": 13,
    "font-color": [
     0,
     0,
     1,
     1
    ],
    "character-spacing": 12
   },
   "numeric-261/2": {
    "origin": [
     541.5949,
     524.7525
    ],
    "align": "decimal",
    "format": ".2f",
    "font-size": 9,
    "max-length": 13,
    "font-color": [
     0,
     0,
     1,
     1
    ],
    "character-spacing": 12
   },
   "numeric-261/3": {
    "origin": [
     422.495,
     525.3775
    ],
    "align": "decimal",
    "format": ".2f",
    "font-size": 9,
    "max-length": 13,
    "font-color": [
     0,
     0,
     1,
     1
    ],
    "character-spacing": 12
   },
   "numeric-262/1": {
    "origin": [
     541.5949,
     537.3775
    ],
    "align": "decimal",
    "format": ".2f",
    "font-size": 9,
    "max-length": 13,
    "font-color": [
     0,
     0,
     1,
     1
    ],
    "character-spacing": 12
   },
   "numeric-263/1": {
    "origin": [
     541.5949,
     548.7525
    ],
    "align": "decimal",
    "format": ".2f",
    "font-size": 9,
    "max-length": 13,
    "font-color": [
     0,
     0,
     1,
     1
    ],
    "character-spacing": 12
   },
   "numeric-264/1": {
    "origin": [
     541.5949,
     573.0025
    ],
    "align": "decimal",
    "format": ".2f",
    "font-size": 9,
    "max-length": 13,
    "font-color": [
     0,
     0,
     1,
     1
    ],
    "character-spacing": 12
   },
   "numeric-265": {
    "origin": [
     541.595,
     604.6275
    ],
    "align": "decimal",
    "format": ".2f",
    "font-size": 9,
    "max-length": 13,
    "font-color": [
     0,
     0,
     1,
     1
    ],
    "character-spacing": 12
   },
   "numeric-266": {
    "origin": [
     422.495,
     628.8775
    ],
    "align": "decimal",
    "format": ".2f",
    "font-size": 9,
    "max-length": 13,
    "font-color": [
     0,
     0,
     1,
     1
    ],
    "character-spacing": 12
   },
   "numeric-267": {
    "origin": [
     541.5949,
     652.5025
    ],
    "align": "decimal",
    "format": ".2f",
    "font-size": 9,
    "max-length": 13,
    "font-color": [
     0,
     0,
     1,
     1
    ],
    "character-spacing": 12
   },
   "numeric-267/1": {
    "origin": [
     422.495,
     652.8775
    ],
    "align": "decimal",
    "format": ".2f",
    "font-size": 9,
    "max-length": 13,
    "font-color": [
     0,
     0,
     1,
     1
    ],
    "character-spacing": 12
   },
   "numeric-268": {
    "origin": [
     541.5949,
     676.5025
    ],
    "align": "decimal",
    "format": ".2f",
    "font-size": 9,
    "max-length": 13,
    "font-color": [
     0,
     0,
     1,
     1
    ],
    "character-spacing": 12
   },
   "char-252": {
    "origin": [
     367.0,
     111.375
    ],
    "max-length": 8,
    "character-spacing": 12,
    "font-color": [
     0,
     0,
     1,
     1
    ]
   },
   "char-253": {
    "origin": [
     367.0,
     122.75
    ],
    "max-length": 8,
    "character-spacing": 12,
    "font-color": [
     0,
     0,
     1,
     1
    ]
   },
   "char-254": {
    "origin": [
     355.0,
     147.375
    ],
    "max-length": 9,
    "character-spacing": 12,
    "font-color": [
     0,
     0,
     1,
     1
    ]
   },
   "char-256": {
    "origin": [
     355.0,
     171.375
    ],
    "max-length": 9,
    "character-spacing": 12,
    "font-color": [
     0,
     0,
     1,
     1
    ]
   },
   "char-257": {
    "origin": [
     498.1,
     182.75
    ],
    "max-length": 7,
    "character-spacing": 12,
    "font-color": [
     0,
     0,
     1,
     1
    ]
   },
   "char-258": {
    "origin": [
     498.1,
     195.375
    ],
    "max-length": 7,
    "character-spacing": 12,
    "font-color": [
     0,
     0,
     1,
     1
    ]
   },
   "char-259": {
    "origin": [
     379.0,
     219.375
    ],
    "max-length": 7,
    "character-spacing": 12,
    "font-color": [
     0,
     0,
     1,
     1
    ]
   },
   "char-260": {
    "origin": [
     367.0,
     251.75
    ],
    "max-length": 8,
    "character-spacing": 12,
    "font-color": [
     0,
     0,
     1,
     1
    ]
   },
   "char-261": {
    "origin": [
     498.1,
     263.75
    ],
    "max-length": 7,
    "character-spacing": 12,
    "font-color": [
     0,
     0,
     1,
     1
    ]
   },
   "char-261/1": {
    "origin": [
     367.0,
     264.375
    ],
    "max-length": 8,
    "character-spacing": 12,
    "font-color": [
     0,
     0,
     1,
     1
    ]
   },
   "char-262": {
    "origin": [
     498.1,
     276.375
    ],
    "max-length": 7,
    "character-spacing": 12,
    "font-color": [
     0,
     0,
     1,
     1
    ]
   },
   "char-263": {
    "origin": [
     498.1,
     287.75
    ],
    "max-length": 7,
    "character-spacing": 12,
    "font-color": [
     0,
     0,
     1,
     1
    ]
   },
   "char-264": {
    "origin": [
     498.1,
     312.0
    ],
    "max-length": 7,
    "character-spacing": 12,
    "font-color": [
     0,
     0,
     1,
     1
    ]
   },
   "char-252/1": {
    "origin": [
     367.0,
     370.875
    ],
    "max-length": 8,
    "character-spacing": 12,
    "font-color": [
     0,
     0,
     1,
     1
    ]
   },
   "char-253/1": {
    "origin": [
     367.0,
     382.25
    ],
    "max-length": 8,
    "character-spacing": 12,
    "font-color": [
     0,
     0,
     1,
     1
    ]
   },
   "char-254/1": {
    "origin": [
     355.0,
     406.875
    ],
    "max-length": 9,
    "character-spacing": 12,
    "font-color": [
     0,
     0,
     1,
     1
    ]
   },
   "char-256/1": {
    "origin": [
     355.0,
     430.875
    ],
    "max-length": 9,
    "character-spacing": 12,
    "font-color": [
     0,
     0,
     1,
     1
    ]
   },
   "char-257/1": {
    "origin": [
     498.1,
     442.25
    ],
    "max-length": 7,
    "character-spacing": 12,
    "font-color": [
     0,
     0,
     1,
     1
    ]
   },
   "char-258/1": {
    "origin": [
     498.1,
     454.875
    ],
    "max-length": 7,
    "character-spacing": 12,
    "font-color": [
     0,
     0,
     1,
     1
    ]
   },
   "char-259/1": {
    "origin": [
     379.0,
     478.875
    ],
    "max-length": 7,
    "character-spacing": 12,
    "font-color": [
     0,
     0,
     1,
     1
    ]
   },
   "char-260/1": {
    "origin": [
     367.0,
     511.25
    ],
    "max-length": 8,
    "character-spacing": 12,
    "font-color": [
     0,
     0,
     1,
     1
    ]
   },
   "char-261/2": {
    "origin": [
     498.1,
     523.25
    ],
    "max-length": 7,
    "character-spacing": 12,
    "font-color": [
     0,
     0,
     1,
     1
    ]
   },
   "char-261/3": {
    "origin": [
     367.0,
     523.875
    ],
    "max-length": 8,
    "character-spacing": 12,
    "font-color": [
     0,
     0,
     1,
     1
    ]
   },
   "char-262/1": {
    "origin": [
     498.1,
     535.875
    ],
    "max-length": 7,
    "character-spacing": 12,
    "font-color": [
     0,
     0,
     1,
     1
    ]
   },
   "char-263/1": {
    "origin": [
     498.1,
     547.25
    ],
    "max-length": 7,
    "character-spacing": 12,
    "font-color": [
     0,
     0,
     1,
     1
    ]
   },
   "char-264/1": {
    "origin": [
     498.1,
     571.5
    ],
    "max-length": 7,
    "character-spacing": 12,
    "font-color": [
     0,
     0,
     1,
     1
    ]
   },
   "char-265": {
    "origin": [
     498.1,
     603.125
    ],
    "max-length": 7,
    "character-spacing": 12,
    "font-color": [
     0,
     0,
     1,
     1
    ]
   },
   "char-266": {
    "origin": [
     367.0,
     627.375
    ],
    "max-length": 8,
    "character-spacing": 12,
    "font-color": [
     0,
     0,
     1,
     1
    ]
   },
   "char-267": {
    "origin": [
     498.1,
     651.0
    ],
    "max-length": 7,
    "character-spacing": 12,
    "font-color": [
     0,
     0,
     1,
     1
    ]
   },
   "char-267/1": {
    "origin": [
     379.0,
     651.375
    ],
    "max-length": 7,
    "character-spacing": 12,
    "font-color": [
     0,
     0,
     1,
     1
    ]
   },
   "char-268": {
    "origin": [
     498.1,
     675.0
    ],
    "max-length": 7,
    "character-spacing": 12,
    "font-color": [
     0,
     0,
     1,
     1
    ]
   }
  }
 },
 "3": {
  "size": [
   603.0,
   774.0
  ],
  "fields": {
   "checkbox-308.1": {
    "bounding-box": [
     279.292,
     171.174,
     11.5,
     11.5
    ],
    "align": "center",
    "align-v": "center",
    "font-color": [
     0,
     0,
     1,
     1
    ]
   },
   "checkbox-308.1/1": {
    "bounding-box": [
     561.467,
     171.174,
     11.5,
     11.5
    ],
    "align": "center",
    "align-v": "center",
    "font-color": [
     0,
     0,
     1,
     1
    ]
   },
   "checkbox-334": {
    "bounding-box": [
     501.167,
     378.787,
     11.5,
     11.5
    ],
    "align": "center",
    "align-v": "center",
    "font-color": [
     0,
     0,
     1,
     1
    ]
   },
   "checkbox-334/1": {
    "bounding-box": [
     552.167,
     378.787,
     11.5,
     11.5
    ],
    "align": "center",
    "align-v": "center",
    "font-color": [
     0,
     0,
     1,
     1
    ]
   },
   "checkbox-336": {
    "bounding-box": [
     501.167,
     402.787,
     11.5,
     11.5
    ],
    "align": "center",
    "align-v": "center",
    "font-color": [
     0,
     0,
     1,
     1
    ]
   },
   "checkbox-336/1": {
    "bounding-box": [
     552.167,
     402.787,
     11.5,
     11.5
    ],
    "align": "center",
    "align-v": "center",
    "font-color": [
     0,
     0,
     1,
     1
    ]
   },
   "checkbox-338": {
    "bounding-box": [
     501.167,
     426.787,
     11.5,
     11.5
    ],
    "align": "center",
    "align-v": "center",
    "font-color": [
     0,
     0,
     1,
     1
    ]
   },
   "checkbox-338/1": {
    "bounding-box": [
     552.167,
     426.787,
     11.5,
     11.5
    ],
    "align": "center",
    "align-v": "center",
    "font-color": [
     0,
     0,
     1,
     1
    ]
   },
   "checkbox-340": {
    "bounding-box": [
     501.167,
     450.787,
     11.5,
     11.5
    ],
    "align": "center",
    "align-v": "center",
    "font-color": [
     0,
     0,
     1,
     1
    ]
   },
   "checkbox-340/1": {
    "bounding-box": [
     552.167,
     450.787,
     11.5,
     11.5
    ],
    "align": "center",
    "align-v": "center",
    "font-color": [
     0,
     0,
     1,
     1
    ]
   },
   "numeric-351": {
    "origin": [
     546.995,
     518.1642
    ],
    "align": "decimal",
    "format": ".2f",
    "font-size": 9,
    "max-length": 13,
    "font-color": [
     0,
     0,
     1,
     1
    ],
    "character-spacing": 12
   },
   "numeric-352": {
    "origin": [
     428.4123,
     530.1642
    ],
    "align": "decimal",
    "format": ".2f",
    "font-size": 9,
    "max-length": 13,
    "font-color": [
     0,
     0,
     1,
     1
    ],
    "character-spacing": 12
   },
   "numeric-353": {
    "origin": [
     428.4124,
     541.5392
    ],
    "align": "decimal",
    "format": ".2f",
    "font-size": 9,
    "max-length": 13,
    "font-color": [
     0,
     0,
     1,
     1
    ],
    "character-spacing": 12
   },
   "numeric-354": {
    "origin": [
     428.4124,
     554.1642
    ],
    "align": "decimal",
    "format": ".2f",
    "font-size": 9,
    "max-length": 13,
    "font-color": [
     0,
     0,
     1,
     1
    ],
    "character-spacing": 12
   },
   "numeric-356": {
    "origin": [
     428.4124,
     578.1642
    ],
    "align": "decimal",
    "format": ".2f",
    "font-size": 9,
    "max-length": 13,
    "font-color": [
     0,
     0,
     1,
     1
    ],
    "character-spacing": 12
   },
   "numeric-357": {
    "origin": [
     547.5123,
     589.5392
    ],
    "align": "decimal",
    "format": ".2f",
    "font-size": 9,
    "max-length": 13,
    "font-color": [
     0,
     0,
     1,
     1
    ],
    "character-spacing": 12
   },
   "numeric-358": {
    "origin": [
     547.5123,
     602.1642
    ],
    "align": "decimal",
    "format": ".2f",
    "font-size": 9,
    "max-length": 13,
    "font-color": [
     0,
     0,
     1,
     1
    ],
    "character-spacing": 12
   },
   "numeric-359": {
    "origin": [
     428.4124,
     626.1642
    ],
    "align": "decimal",
    "format": ".2f",
    "font-size": 9,
    "max-length": 13,
    "font-color": [
     0,
     0,
     1,
     1
    ],
    "character-spacing": 12
   },
   "numeric-360": {
    "origin": [
     428.4124,
     658.5392
    ],
    "align": "decimal",
    "format": ".2f",
    "font-size": 9,
    "max-length": 13,
    "font-color": [
     0,
     0,
     1,
     1
    ],
    "character-spacing": 12
   },
   "numeric-361": {
    "origin": [
     547.5123,
     670.5392
    ],
    "align": "decimal",
    "format": ".2f",
    "font-size": 9,
    "max-length": 13,
    "font-color": [
     0,
     0,
     1,
     1
    ],
    "character-spacing": 12
   },
   "numeric-361/1": {
    "origin": [
     428.4124,
     671.1642
    ],
    "align": "decimal",
    "format": ".2f",
    "font-size": 9,
    "max-length": 13,
    "font-color": [
     0,
     0,
     1,
     1
    ],
    "character-spacing": 12
   },
   "numeric-362": {
    "origin": [
     547.5123,
     683.1642
    ],
    "align": "decimal",
    "format": ".2f",
    "font-size": 9,
    "max-length": 13,
    "font-color": [
     0,
     0,
     1,
     1
    ],
    "character-spacing": 12
   },
   "numeric-363": {
    "origin": [
     547.5123,
     694.5392
    ],
    "align": "decimal",
    "format": ".2f",
    "font-size": 9,
    "max-length": 13,
    "font-color": [
     0,
     0,
     1,
     1
    ],
    "character-spacing": 12
   },
   "numeric-364": {
    "origin": [
     547.5123,
     706.7892
    ],
    "align": "decimal",
    "format": ".2f",
    "font-size": 9,
    "max-length": 13,
    "font-color": [
     0,
     0,
     1,
     1
    ],
    "character-spacing": 12
   },
   "char-301": {
    "origin": [
     464.9174,
     103.5491
    ],
    "max-length": 9,
    "character-spacing": 12,
    "font-color": [
     0,
     0,
     1,
     1
    ]
   },
   "char-308": {
    "origin": [
     57.0423,
     153.7991
    ],
    "max-length": 20,
    "character-spacing": 12,
    "font-color": [
     0,
     0,
     1,
     1
    ]
   },
   "char-308/1": {
    "origin": [
     339.1294,
     153.7991
    ],
    "max-length": 20,
    "character-spacing": 12,
    "font-color": [
     0,
     0,
     1,
     1
    ]
   },
   "char-310": {
    "origin": [
     57.0423,
     207.7991
    ],
    "max-length": 20,
    "character-spacing": 12,
    "font-color": [
     0,
     0,
     1,
     1
    ]
   },
   "char-312": {
    "origin": [
     57.0423,
     234.7991
    ],
    "max-length": 20,
    "character-spacing": 12,
    "font-color": [
     0,
     0,
     1,
     1
    ]
   },
   "char-314": {
    "origin": [
     340.0423,
     261.7991
    ],
    "max-length": 9,
    "character-spacing": 12,
    "font-color": [
     0,
     0,
     1,
     1
    ]
   },
   "char-318": {
    "origin": [
     483.0423,
     261.7991
    ],
    "max-length": 8,
    "character-spacing": 12,
    "font-color": [
     0,
     0,
     1,
     1
    ]
   },
   "char-324": {
    "origin": [
     120.3423,
     306.2991
    ],
    "max-length": 4,
    "character-spacing": 12,
    "font-color": [
     0,
     0,
     1,
     1
    ]
   },
   "char-324/1": {
    "origin": [
     186.3423,
     306.2991
    ],
    "max-length": 4,
    "character-spacing": 12,
    "font-color": [
     0,
     0,
     1,
     1
    ]
   },
   "char-324/2": {
    "origin": [
     246.3423,
     306.2991
    ],
    "max-length": 3,
    "character-spacing": 12,
    "font-color": [
     0,
     0,
     1,
     1
    ]
   },
   "char-324/3": {
    "origin": [
     407.34,
     306.2991
    ],
    "max-length": 4,
    "character-spacing": 12,
    "font-color": [
     0,
     0,
     1,
     1
    ]
   },
   "char-324/4": {
    "origin": [
     473.34,
     306.2991
    ],
    "max-length": 4,
    "character-spacing": 12,
    "font-color": [
     0,
     0,
     1,
     1
    ]
   },
   "char-324/5": {
    "origin": [
     533.3192,
     306.2991
    ],
    "max-length": 3,
    "character-spacing": 12,
    "font-color": [
     0,
     0,
     1,
     1
    ]
   },
   "char-326": {
    "origin": [
     120.3423,
     324.2991
    ],
    "max-length": 4,
    "character-spacing": 12,
    "font-color": [
     0,
     0,
     1,
     1
    ]
   },
   "char-326/1": {
    "origin": [
     186.3423,
     324.2991
    ],
    "max-length": 4,
    "character-spacing": 12,
    "font-color": [
     0,
     0,
     1,
     1
    ]
   },
   "char-326/2": {
    "origin": [
     246.3423,
     324.2991
    ],
    "max-length": 3,
    "character-spacing": 12,
    "font-color": [
     0,
     0,
     1,
     1
    ]
   },
   "char-326/3": {
    "origin": [
     407.34,
     324.2991
    ],
    "max-length": 4,
    "character-spacing": 12,
    "font-color": [
     0,
     0,
     1,
     1
    ]
   },
   "char-326/4": {
    "origin": [
     473.34,
     324.2991
    ],
    "max-length": 4,
    "character-spacing": 12,
    "font-color": [
     0,
     0,
     1,
     1
    ]
   },
   "char-326/5": {
    "origin": [
     533.3192,
     324.2991
    ],
    "max-length": 3,
    "character-spacing": 12,
    "font-color": [
     0,
     0,
     1,
     1
    ]
   },
   "char-328": {
    "origin": [
     120.3423,
     344.2866
    ],
    "max-length": 4,
    "character-spacing": 12,
    "font-color": [
     0,
     0,
     1,
     1
    ]
   },
   "char-328/1": {
    "origin": [
     186.3423,
     344.2866
    ],
    "max-length": 4,
    "character-spacing": 12,
    "font-color": [
     0,
     0,
     1,
     1
    ]
   },
   "char-328/2": {
    "origin": [
     246.3423,
     344.2866
    ],
    "max-length": 3,
    "character-spacing": 12,
    "font-color": [
     0,
     0,
     1,
     1
    ]
   },
   "char-328/3": {
    "origin": [
     407.34,
     344.2866
    ],
    "max-length": 4,
    "character-spacing": 12,
    "font-color": [
     0,
     0,
     1,
     1
    ]
   },
   "char-328/4": {
    "origin": [
     473.34,
     344.2866
    ],
    "max-length": 4,
    "character-spacing": 12,
    "font-color": [
     0,
     0,
     1,
     1
    ]
   },
   "char-328/5": {
    "origin": [
     533.3192,
     344.2866
    ],
    "max-length": 3,
    "character-spacing": 12,
    "font-color": [
     0,
     0,
     1,
     1
    ]
   },
   "char-352": {
    "origin": [
     372.9173,
     528.6617
    ],
    "max-length": 8,
    "character-spacing": 12,
    "font-color": [
     0,
     0,
     1,
     1
    ]
   },
   "char-353": {
    "origin": [
     372.9174,
     540.0367
    ],
    "max-length": 8,
    "character-spacing": 12,
    "font-color": [
     0,
     0,
     1,
     1
    ]
   },
   "char-354": {
    "origin": [
     360.9174,
     552.6617
    ],
    "max-length": 9,
    "character-spacing": 12,
    "font-color": [
     0,
     0,
     1,
     1
    ]
   },
   "char-356": {
    "origin": [
     360.9174,
     576.6617
    ],
    "max-length": 9,
    "character-spacing": 12,
    "font-color": [
     0,
     0,
     1,
     1
    ]
   },
   "char-357": {
    "origin": [
     504.0173,
     588.0367
    ],
    "max-length": 7,
    "character-spacing": 12,
    "font-color": [
     0,
     0,
     1,
     1
    ]
   },
   "char-358": {
    "origin": [
     504.0173,
     600.6617
    ],
    "max-length": 7,
    "character-spacing": 12,
    "font-color": [
     0,
     0,
     1,
     1
    ]
   },
   "char-359": {
    "origin": [
     384.9174,
     624.6617
    ],
    "max-length": 7,
    "character-spacing": 12,
    "font-color": [
     0,
     0,
     1,
     1
    ]
   },
   "char-360": {
    "origin": [
     372.9174,
     657.0367
    ],
    "max-length": 8,
    "character-spacing": 12,
    "font-color": [
     0,
     0,
     1,
     1
    ]
   },
   "char-361": {
    "origin": [
     504.0173,
     669.0367
    ],
    "max-length": 7,
    "character-spacing": 12,
    "font-color": [
     0,
     0,
     1,
     1
    ]
   },
   "char-361/1": {
    "origin": [
     372.9174,
     669.6617
    ],
    "max-length": 8,
    "character-spacing": 12,
    "font-color": [
     0,
     0,
     1,
     1
    ]
   },
   "char-362": {
    "origin": [
     504.0173,
     681.6617
    ],
    "max-length": 7,
    "character-spacing": 12,
    "font-color": [
     0,
     0,
     1,
     1
    ]
   },
   "char-363": {
    "origin": [
     504.0173,
     693.0367
    ],
    "max-length": 7,
    "character-spacing": 12,
    "font-color": [
     0,
     0,
     1,
     1
    ]
   },
   "char-364": {
    "origin": [
     504.0173,
     705.2867
    ],
    "max-length": 7,
    "character-spacing": 12,
    "font-color": [
     0,
     0,
     1,
     1
    ]
   }
  }
 },
 "4": {
  "size": [
   603.0,
   774.0
  ],
  "fields": {
   "numeric-351": {
    "origin": [
     541.0777,
     68.3776
    ],
    "align": "decimal",
    "format": ".2f",
    "font-size": 9,
    "max-length": 13,
    "font-color": [
     0,
     0,
     1,
     1
    ],
    "character-spacing": 12
   },
   "numeric-352": {
    "origin": [
     422.495,
     80.3776
    ],
    "align": "decimal",
    "format": ".2f",
    "font-size": 9,
    "max-length": 13,
    "font-color": [
     0,
     0,
     1,
     1
    ],
    "character-spacing": 12
   },
   "numeric-353": {
    "origin": [
     422.495,
     91.7526
    ],
    "align": "decimal",
    "format": ".2f",
    "font-size": 9,
    "max-length": 13,
    "font-color": [
     0,
     0,
     1,
     1
    ],
    "character-spacing": 12
   },
   "numeric-354": {
    "origin": [
     422.495,
     116.3776
    ],
    "align": "decimal",
    "format": ".2f",
    "font-size": 9,
    "max-length": 13,
    "font-color": [
     0,
     0,
     1,
     1
    ],
    "character-spacing": 12
   },
   "numeric-356": {
    "origin": [
     422.495,
     140.3776
    ],
    "align": "decimal",
    "format": ".2f",
    "font-size": 9,
    "max-length": 13,
    "font-color": [
     0,
     0,
     1,
     1
    ],
    "character-spacing": 12
   },
   "numeric-357": {
    "origin": [
     541.5949,
     151.7526
    ],
    "align": "decimal",
    "format": ".2f",
    "font-size": 9,
    "max-length": 13,
    "font-color": [
     0,
     0,
     1,
     1
    ],
    "character-spacing": 12
   },
   "numeric-358": {
    "origin": [
     541.5949,
     164.3776
    ],
    "align": "decimal",
    "format": ".2f",
    "font-size": 9,
    "max-length": 13,
    "font-color": [
     0,
     0,
     1,
     1
    ],
    "character-spacing": 12
   },
   "numeric-359": {
    "origin": [
     422.495,
     188.3776
    ],
    "align": "decimal",
    "format": ".2f",
    "font-size": 9,
    "max-length": 13,
    "font-color": [
     0,
     0,
     1,
     1
    ],
    "character-spacing": 12
   },
   "numeric-360": {
    "origin": [
     422.495,
     220.7526
    ],
    "align": "decimal",
    "format": ".2f",
    "font-size": 9,
    "max-length": 13,
    "font-color": [
     0,
     0,
     1,
     1
    ],
    "character-spacing": 12
   },
   "numeric-361": {
    "origin": [
     541.5949,
     232.7526
    ],
    "align": "decimal",
    "format": ".2f",
    "font-size": 9,
    "max-length": 13,
    "font-color": [
     0,
     0,
     1,
     1
    ],
    "character-spacing": 12
   },
   "numeric-361/1": {
    "origin": [
     422.495,
     233.3776
    ],
    "align": "decimal",
    "format": ".2f",
    "font-size": 9,
    "max-length": 13,
    "font-color": [
     0,
     0,
     1,
     1
    ],
    "character-spacing": 12
   },
   "numeric-362": {
    "origin": [
     541.5949,
     245.3776
    ],
    "align": "decimal",
    "format": ".2f",
    "font-size": 9,
    "max-length": 13,
    "font-color": [
     0,
     0,
     1,
     1
    ],
    "character-spacing": 12
   },
   "numeric-363": {
    "origin": [
     541.5949,
     256.7526
    ],
    "align": "decimal",
    "format": ".2f",
    "font-size": 9,
    "max-length": 13,
    "font-color": [
     0,
     0,
     1,
     1
    ],
    "character-spacing": 12
   },
   "numeric-364": {
    "origin": [
     541.5949,
     269.0025
    ],
    "align": "decimal",
    "format": ".2f",
    "font-size": 9,
    "max-length": 13,
    "font-color": [
     0,
     0,
     1,
     1
    ],
    "character-spacing": 12
   },
   "numeric-365": {
    "origin": [
     541.595,
     300.6275
    ],
    "align": "decimal",
    "format": ".2f",
    "font-size": 9,
    "max-length": 13,
    "font-color": [
     0,
     0,
     1,
     1
    ],
    "character-spacing": 12
   },
   "char-352": {
    "origin": [
     367.0,
     78.875
    ],
    "max-length": 8,
    "character-spacing": 12,
    "font-color": [
     0,
     0,
     1,
     1
    ]
   },
   "char-353": {
    "origin": [
     367.0,
     90.25
    ],
    "max-length": 8,
    "character-spacing": 12,
    "font-color": [
     0,
     0,
     1,
     1
    ]
   },
   "char-354": {
    "origin": [
     355.0,
     114.875
    ],
    "max-length": 9,
    "character-spacing": 12,
    "font-color": [
     0,
     0,
     1,
     1
    ]
   },
   "char-356": {
    "origin": [
     355.0,
     138.875
    ],
    "max-length": 9,
    "character-spacing": 12,
    "font-color": [
     0,
     0,
     1,
     1
    ]
   },
   "char-357": {
    "origin": [
     498.1,
     150.25
    ],
    "max-length": 7,
    "character-spacing": 12,
    "font-color": [
     0,
     0,
     1,
     1
    ]
   },
   "char-358": {
    "origin": [
     498.1,
     162.875
    ],
    "max-length": 7,
    "character-spacing": 12,
    "font-color": [
     0,
     0,
     1,
     1
    ]
   },
   "char-359": {
    "origin": [
     379.0,
     186.875
    ],
    "max-length": 7,
    "character-spacing": 12,
    "font-color": [
     0,
     0,
     1,
     1
    ]
   },
   "char-360": {
    "origin": [
     367.0,
     219.25
    ],
    "max-length": 8,
    "character-spacing": 12,
    "font-color": [
     0,
     0,
     1,
     1
    ]
   },
   "char-361": {
    "origin": [
     498.1,
     231.25
    ],
    "max-length": 7,
    "character-spacing": 12,
    "font-color": [
     0,
     0,
     1,
     1
    ]
   },
   "char-361/1": {
    "origin": [
     367.0,
     231.875
    ],
    "max-length": 8,
    "character-spacing": 12,
    "font-color": [
     0,
     0,
     1,
     1
    ]
   },
   "char-362": {
    "origin": [
     498.1,
     243.875
    ],
    "max-length": 7,
    "character-spacing": 12,
    "font-color": [
     0,
     0,
     1,
     1
    ]
   },
   "char-363": {
    "origin": [
     498.1,
     255.25
    ],
    "max-length": 7,
    "character-spacing": 12,
    "font-color": [
     0,
     0,
     1,
     1
    ]
   },
   "char-364": {
    "origin": [
     498.1,
     267.5
    ],
    "max-length": 7,
    "character-spacing": 12,
    "font-color": [
     0,
     0,
     1,
     1
    ]
   },
   "char-365": {
    "origin": [
     498.1,
     299.125
    ],
    "max-length": 7,
    "character-spacing": 12,
    "font-color": [
     0,
     0,
     1,
     1
    ]
   },
   "char-401": {
    "origin": [
     471.0,
     384.375
    ],
    "max-length": 9,
    "character-spacing": 12,
    "font-color": [
     0,
     0,
     1,
     1
    ]
   },
   "char-408": {
    "origin": [
     56.9904,
     441.625
    ],
    "max-length": 20,
    "character-spacing": 12,
    "font-color": [
     0,
     0,
     1,
     1
    ]
   },
   "char-408/1": {
    "origin": [
     339.856,
     441.625
    ],
    "max-length": 20,
    "character-spacing": 12,
    "font-color": [
     0,
     0,
     1,
     1
    ]
   },
   "char-410": {
    "origin": [
     56.9904,
     471.625
    ],
    "max-length": 20,
    "character-spacing": 12,
    "font-color": [
     0,
     0,
     1,
     1
    ]
   },
   "char-410/1": {
    "origin": [
     339.856,
     471.625
    ],
    "max-length": 20,
    "character-spacing": 12,
    "font-color": [
     0,
     0,
     1,
     1
    ]
   },
   "char-412": {
    "origin": [
     56.9904,
     501.625
    ],
    "max-length": 20,
    "character-spacing": 12,
    "font-color": [
     0,
     0,
     1,
     1
    ]
   },
   "char-412/1": {
    "origin": [
     339.856,
     501.625
    ],
    "max-length": 20,
    "character-spacing": 12,
    "font-color": [
     0,
     0,
     1,
     1
    ]
   },
   "char-424": {
    "origin": [
     126.3,
     585.125
    ],
    "max-length": 4,
    "character-spacing": 12,
    "font-color": [
     0,
     0,
     1,
     1
    ]
   },
   "char-424/1": {
    "origin": [
     192.3,
     585.125
    ],
    "max-length": 4,
    "character-spacing": 12,
    "font-color": [
     0,
     0,
     1,
     1
    ]
   },
   "char-424/2": {
    "origin": [
     252.3,
     585.125
    ],
    "max-length": 3,
    "character-spacing": 12,
    "font-color": [
     0,
     0,
     1,
     1
    ]
   },
   "char-424/3": {
    "origin": [
     407.1601,
     585.125
    ],
    "max-length": 4,
    "character-spacing": 12,
    "font-color": [
     0,
     0,
     1,
     1
    ]
   },
   "char-424/4": {
    "origin": [
     473.1601,
     585.125
    ],
    "max-length": 4,
    "character-spacing": 12,
    "font-color": [
     0,
     0,
     1,
     1
    ]
   },
   "char-424/5": {
    "origin": [
     533.1393,
     585.125
    ],
    "max-length": 3,
    "character-spacing": 12,
    "font-color": [
     0,
     0,
     1,
     1
    ]
   },
   "char-426": {
    "origin": [
     126.3,
     609.125
    ],
    "max-length": 4,
    "character-spacing": 12,
    "font-color": [
     0,
     0,
     1,
     1
    ]
   },
   "char-426/1": {
    "origin": [
     192.3,
     609.125
    ],
    "max-length": 4,
    "character-spacing": 12,
    "font-color": [
     0,
     0,
     1,
     1
    ]
   },
   "char-426/2": {
    "origin": [
     252.3,
     609.125
    ],
    "max-length": 3,
    "character-spacing": 12,
    "font-color": [
     0,
     0,
     1,
     1
    ]
   },
   "char-426/3": {
    "origin": [
     407.16,
     609.125
    ],
    "max-length": 4,
    "character-spacing": 12,
    "font-color": [
     0,
     0,
     1,
     1
    ]
   },
   "char-426/4": {
    "origin": [
     473.16,
     609.125
    ],
    "max-length": 4,
    "character-spacing": 12,
    "font-color": [
     0,
     0,
     1,
     1
    ]
   },
   "char-426/5": {
    "origin": [
     533.1393,
     609.125
    ],
    "max-length": 3,
    "character-spacing": 12,
    "font-color": [
     0,
     0,
     1,
     1
    ]
   },
   "char-428": {
    "origin": [
     126.3,
     633.125
    ],
    "max-length": 4,
    "character-spacing": 12,
    "font-color": [
     0,
     0,
     1,
     1
    ]
   },
   "char-428/1": {
    "origin": [
     192.3,
     633.125
    ],
    "max-length": 4,
    "character-spacing": 12,
    "font-color": [
     0,
     0,
     1,
     1
    ]
   },
   "char-428/2": {
    "origin": [
     252.3,
     633.125
    ],
    "max-length": 3,
    "character-spacing": 12,
    "font-color": [
     0,
     0,
     1,
     1
    ]
   },
   "char-428/3": {
    "origin": [
     407.16,
     633.125
    ],
    "max-length": 4,
    "character-spacing": 12,
    "font-color": [
     0,
     0,
     1,
     1
    ]
   },
   "char-428/4": {
    "origin": [
     473.16,
     633.125
    ],
    "max-length": 4,
    "character-spacing": 12,
    "font-color": [
     0,
     0,
     1,
     1
    ]
   },
   "char-428/5": {
    "origin": [
     533.1393,
     633.125
    ],
    "max-length": 3,
    "character-spacing": 12,
    "font-color": [
     0,
     0,
     1,
     1
    ]
   }
  }
 },
 "5": {
  "size": [
   603.0,
   774.0
  ],
  "fields": {
   "checkbox-434": {
    "bounding-box": [
     501.25,
     72.21,
     11.5,
     11.5
    ],
    "align": "center",
    "align-v": "center",
    "font-color": [
     0,
     0,
     1,
     1
    ]
   },
   "checkbox-434/1": {
    "bounding-box": [
     552.25,
     72.21,
     11.5,
     11.5
    ],
    "align": "center",
    "align-v": "center",
    "font-color": [
     0,
     0,
     1,
     1
    ]
   },
   "checkbox-436": {
    "bounding-box": [
     501.25,
     96.21,
     11.5,
     11.5
    ],
    "align": "center",
    "align-v": "center",
    "font-color": [
     0,
     0,
     1,
     1
    ]
   },
   "checkbox-436/1": {
    "bounding-box": [
     552.25,
     96.21,
     11.5,
     11.5
    ],
    "align": "center",
    "align-v": "center",
    "font-color": [
     0,
     0,
     1,
     1
    ]
   },
   "checkbox-438": {
    "bounding-box": [
     501.25,
     120.21,
     11.5,
     11.5
    ],
    "align": "center",
    "align-v": "center",
    "font-color": [
     0,
     0,
     1,
     1
    ]
   },
   "checkbox-438/1": {
    "bounding-box": [
     552.25,
     120.21,
     11.5,
     11.5
    ],
    "align": "center",
    "align-v": "center",
    "font-color": [
     0,
     0,
     1,
     1
    ]
   },
   "checkbox-440": {
    "bounding-box": [
     501.25,
     144.21,
     11.5,
     11.5
    ],
    "align": "center",
    "align-v": "center",
    "font-color": [
     0,
     0,
     1,
     1
    ]
   },
   "checkbox-440/1": {
    "bounding-box": [
     552.25,
     144.21,
     11.5,
     11.5
    ],
    "align": "center",
    "align-v": "center",
    "font-color": [
     0,
     0,
     1,
     1
    ]
   },
   "numeric-451": {
    "origin": [
     547.495,
     200.5875
    ],
    "align": "decimal",
    "format": ".2f",
    "font-size": 9,
    "max-length": 13,
    "font-color": [
     0,
     0,
     1,
     1
    ],
    "character-spacing": 12
   },
   "numeric-452": {
    "origin": [
     547.495,
     211.9625
    ],
    "align": "decimal",
    "format": ".2f",
    "font-size": 9,
    "max-length": 13,
    "font-color": [
     0,
     0,
     1,
     1
    ],
    "character-spacing": 12
   },
   "numeric-453": {
    "origin": [
     547.495,
     236.2125
    ],
    "align": "decimal",
    "format": ".2f",
    "font-size": 9,
    "max-length": 13,
    "font-color": [
     0,
     0,
     1,
     1
    ],
    "character-spacing": 12
   },
   "numeric-451/1": {
    "origin": [
     547.495,
     279.0875
    ],
    "align": "decimal",
    "format": ".2f",
    "font-size": 9,
    "max-length": 13,
    "font-color": [
     0,
     0,
     1,
     1
    ],
    "character-spacing": 12
   },
   "numeric-452/1": {
    "origin": [
     547.495,
     290.4625
    ],
    "align": "decimal",
    "format": ".2f",
    "font-size": 9,
    "max-length": 13,
    "font-color": [
     0,
     0,
     1,
     1
    ],
    "character-spacing": 12
   },
   "numeric-453/1": {
    "origin": [
     547.495,
     314.7125
    ],
    "align": "decimal",
    "format": ".2f",
    "font-size": 9,
    "max-length": 13,
    "font-color": [
     0,
     0,
     1,
     1
    ],
    "character-spacing": 12
   },
   "numeric-454": {
    "origin": [
     547.495,
     349.9625
    ],
    "align": "decimal",
    "format": ".2f",
    "font-size": 9,
    "max-length": 13,
    "font-color": [
     0,
     0,
     1,
     1
    ],
    "character-spacing": 12
   },
   "char-451": {
    "origin": [
     504.0,
     199.085
    ],
    "max-length": 7,
    "character-spacing": 12,
    "font-color": [
     0,
     0,
     1,
     1
    ]
   },
   "char-452": {
    "origin": [
     504.0,
     210.46
    ],
    "max-length": 7,
    "character-spacing": 12,
    "font-color": [
     0,
     0,
     1,
     1
    ]
   },
   "char-453": {
    "origin": [
     504.0,
     234.71
    ],
    "max-length": 7,
    "character-spacing": 12,
    "font-color": [
     0,
     0,
     1,
     1
    ]
   },
   "char-451/1": {
    "origin": [
     504.0,
     277.585
    ],
    "max-length": 7,
    "character-spacing": 12,
    "font-color": [
     0,
     0,
     1,
     1
    ]
   },
   "char-452/1": {
    "origin": [
     504.0,
     288.96
    ],
    "max-length": 7,
    "character-spacing": 12,
    "font-color": [
     0,
     0,
     1,
     1
    ]
   },
   "char-453/1": {
    "origin": [
     504.0,
     313.21
    ],
    "max-length": 7,
    "character-spacing": 12,
    "font-color": [
     0,
     0,
     1,
     1
    ]
   },
   "char-454": {
    "origin": [
     504.0,
     348.46
    ],
    "max-length": 7,
    "character-spacing": 12,
    "font-color": [
     0,
     0,
     1,
     1
    ]
   }
  }
 }
}