{
 "1": {
  "size": [
   612,
   792
  ],
  "fields": {
   "/form1[0]/#pageSet[0]/Page1[0]/ClearData_EN[0]": {
    "description": "Clear Data",
    "class": "checkbox",
    "bounding-box": [
     492.001,
     2.999,
     96.001,
     15.001
    ],
    "font-family": "Helvetica",
    "font-size": 10,
    "font-color": [
     0,
     0,
     0,
     1
    ],
    "align": "center",
    "align-v": "center"
   },
   "/form1[0]/Page1[0]/Eligibility_sf[0]/Table1[0]/Row2[0]/Cell1_sf[0]/Note[0]": {
    "description": "Note",
    "class": "checkbox",
    "bounding-box": [
     270,
     359.997,
     36,
     11.999
    ],
    "font-family": "Helvetica",
    "font-size": 10,
    "font-color": [
     0,
     0,
     0,
     1
    ],
    "align": "center",
    "align-v": "center"
   },
   "/form1[0]/Page1[0]/Eligibility_sf[0]/Table1[0]/Row3[0]/Cell1_sf[0]/Note[0]": {
    "description": "Note",
    "class": "checkbox",
    "bounding-box": [
     99,
     407.999,
     36,
     11.999
    ],
    "font-family": "Helvetica",
    "font-size": 10,
    "font-color": [
     0,
     0,
     0,
     1
    ],
    "align": "center",
    "align-v": "center"
   },
   "/form1[0]/Page1[0]/Eligibility_sf[0]/Table1[0]/Row4[0]/Cell1_sf[0]/Note[0]": {
    "description": "Note",
    "class": "checkbox",
    "bounding-box": [
     273.002,
     438.001,
     36,
     11.999
    ],
    "font-family": "Helvetica",
    "font-size": 10,
    "font-color": [
     0,
     0,
     0,
     1
    ],
    "align": "center",
    "align-v": "center"
   }
  }
 },
 "2": {
  "size": [
   612,
   792
  ],
  "fields": {
   "/form1[0]/#pageSet[0]/Page1[1]/ClearData_EN[0]": {
    "description": "Clear Data",
    "class": "checkbox",
    "bounding-box": [
     492.001,
     2.999,
     96.001,
     15.001
    ],
    "font-family": "Helvetica",
    "font-size": 10,
    "font-color": [
     0,
     0,
     0,
     1
    ],
    "align": "center",
    "align-v": "center"
   },
   "/form1[0]/Page2[0]/Line30300[0]/Line30300_Chart[0]/Line55220[0]/Line30300_CheckBox[0]": {
    "description": "Line 30300. Spouse or common-law partner amount. Box 55220. Did your marital status change to a status other than married or living common-law in 2022? If yes, tick this box and enter the date of the change.",
    "class": "checkbox",
    "bounding-box": [
     489.001,
     231,
     12,
     12
    ],
    "font-family": "ZapfDingbats",
    "font-size": 9,
    "font-color": [
     0,
     0,
     0.502,
     1
    ],
    "align": "decimal",
    "align-v": "center",
    "aliases": {
     "stable": 30300
    },
    "origin": [
     483.001,
     241
    ],
    "format": ".2f",
    "max-length": 13
   },
   "/form1[0]/Page2[0]/Line30300[0]/Line30300_Chart[0]/Line55220[0]/MonthDay[0]/Line30300_DateMMDD_Comb[0]": {
    "description": "Line 30300. Spouse or common-law partner amount. Did your marital status change to a status other than married or living common-law in 2022? If yes, enter the date of the change. Date. Month 2 digits. Day 2 digits.",
    "class": "text",
    "bounding-box": [
     510.001,
     231.001,
     60.001,
     12.002
    ],
    "font-family": "Helvetica-Bold",
    "font-size": 9,
    "font-color": [
     0,
     0,
     0.502,
     1
    ],
    "max-length": 13,
    "origin": [
     552.002,
     241.003
    ],
    "character-spacing": 15.00025,
    "align": "decimal",
    "align-v": "center",
    "aliases": {
     "stable": 30300
    },
    "format": ".2f"
   },
   "/form1[0]/Page2[0]/Line30300[0]/Line30300_Chart[0]/Line1[0]/Line30300_L1_inpt[0]": {
    "description": "Line 30300. Spouse or common-law partner amount. Line 1. Basic personal amount from line 30000 of your return.",
    "class": "text",
    "bounding-box": [
     489.002,
     252,
     81,
     11.279
    ],
    "font-family": "Helvetica-Bold",
    "font-size": 9,
    "font-color": [
     0,
     0,
     0.502,
     1
    ],
    "align": "decimal",
    "align-v": "center",
    "aliases": {
     "stable": 30300
    },
    "origin": [
     552.002,
     261.279
    ],
    "format": ".2f",
    "max-length": 13
   },
   "/form1[0]/Page2[0]/Line30300[0]/Line30300_Chart[0]/Line2[0]/Line30300_L2_inpt[0]": {
    "description": "Line 30300. Spouse or common-law partner amount. Line 51090. Line 2. If you are eligible for the Canada caregiver amount for your spouse or common-law partner, enter $2,350. See line 30425 on page 4.",
    "class": "text",
    "bounding-box": [
     501.001,
     267.001,
     69.001,
     23.281
    ],
    "font-family": "Helvetica-Bold",
    "font-size": 9,
    "font-color": [
     0,
     0,
     0.502,
     1
    ],
    "align": "decimal",
    "align-v": "center",
    "aliases": {
     "stable": 30300
    },
    "origin": [
     552.002,
     288.282
    ],
    "format": ".2f",
    "max-length": 13
   },
   "/form1[0]/Page2[0]/Line30300[0]/Line30300_Chart[0]/Line3[0]/Line30300_L3_inpt[0]": {
    "description": "Line 30300. Spouse or common-law partner amount. Line 3. Line 1 plus line 2.",
    "class": "text",
    "bounding-box": [
     501.001,
     294.001,
     69.001,
     11.279
    ],
    "font-family": "Helvetica-Bold",
    "font-size": 9,
    "font-color": [
     0,
     0,
     0.502,
     1
    ],
    "align": "decimal",
    "align-v": "center",
    "aliases": {
     "stable": 30300
    },
    "origin": [
     552.002,
     303.28
    ],
    "format": ".2f",
    "max-length": 13
   },
   "/form1[0]/Page2[0]/Line30300[0]/Line30300_Chart[0]/Line4[0]/Note1[0]": {
    "description": "Note1",
    "class": "checkbox",
    "bounding-box": [
     381.002,
     309.002,
     36,
     11.999
    ],
    "font-family": "Helvetica",
    "font-size": 10,
    "font-color": [
     0,
     0,
     0,
     1
    ],
    "align": "center",
    "align-v": "center"
   },
   "/form1[0]/Page2[0]/Line30300[0]/Line30300_Chart[0]/Line4[0]/Line30300_L4_inpt[0]": {
    "description": "Line 30300. Spouse or common-law partner amount. Line 4. Your spouse's or common-law partner's net income from line 23600 of their return.",
    "class": "text",
    "bounding-box": [
     501.001,
     309.002,
     69.001,
     11.279
    ],
    "font-family": "Helvetica-Bold",
    "font-size": 9,
    "font-color": [
     0,
     0,
     0.502,
     1
    ],
    "align": "decimal",
    "align-v": "center",
    "aliases": {
     "stable": 30300
    },
    "origin": [
     552.002,
     318.281
    ],
    "format": ".2f",
    "max-length": 13
   },
   "/form1[0]/Page2[0]/Line30300[0]/Line30300_Chart[0]/Line5[0]/Line30300_L5_inpt[0]": {
    "description": "Line 30300. Spouse or common-law partner amount. Line 5. Line 3 minus line 4. If negative, enter 0. Enter this amount on line 30300 of your return.",
    "class": "text",
    "bounding-box": [
     501.001,
     324.72,
     69.001,
     22.561
    ],
    "font-family": "Helvetica-Bold",
    "font-size": 9,
    "font-color": [
     0,
     0,
     0.502,
     1
    ],
    "align": "decimal",
    "align-v": "center",
    "aliases": {
     "stable": 30300
    },
    "origin": [
     552.002,
     345.281
    ],
    "format": ".2f",
    "max-length": 13
   }
  }
 },
 "3": {
  "size": [
   612,
   792
  ],
  "fields": {
   "/form1[0]/#pageSet[0]/Page1[2]/ClearData_EN[0]": {
    "description": "Clear Data",
    "class": "checkbox",
    "bounding-box": [
     492.001,
     2.999,
     96.001,
     15.001
    ],
    "font-family": "Helvetica",
    "font-size": 10,
    "font-color": [
     0,
     0,
     0,
     1
    ],
    "align": "center",
    "align-v": "center"
   }
  }
 },
 "4": {
  "size": [
   612,
   792
  ],
  "fields": {
   "/form1[0]/#pageSet[0]/Page1[3]/ClearData_EN[0]": {
    "description": "Clear Data",
    "class": "checkbox",
    "bounding-box": [
     492.001,
     2.999,
     96.001,
     15.001
    ],
    "font-family": "Helvetica",
    "font-size": 10,
    "font-color": [
     0,
     0,
     0,
     1
    ],
    "align": "center",
    "align-v": "center"
   },
   "/form1[0]/Page4[0]/Line30400[0]/Line30400_chart[0]/Line55290[0]/Line30400_CheckBox[0]": {
    "description": "Line 30400. Amount for an eligible dependant. Box 55290. Did your marital status change to married or common-law in 2022? If yes, tick this box and enter the date of the change.",
    "class": "checkbox",
    "bounding-box": [
     489.001,
     74.998,
     12,
     12
    ],
    "font-family": "ZapfDingbats",
    "font-size": 9,
    "font-color": [
     0,
     0,
     0.502,
     1
    ],
    "align": "decimal",
    "align-v": "center",
    "aliases": {
     "stable": 30400
    },
    "origin": [
     483.001,
     84.998
    ],
    "format": ".2f",
    "max-length": 13
   },
   "/form1[0]/Page4[0]/Line30400[0]/Line30400_chart[0]/Line55290[0]/MonthDay[0]/Line30400_DateMMDD_Comb[0]": {
    "description": "Line 30400. Amount for an eligible dependant. Did your marital status change to married or common-law in 2022? If yes, tick this box and enter the date of the change. Date. Month 2 digits. Day 2 digits.",
    "class": "text",
    "bounding-box": [
     510.001,
     74.999,
     60.001,
     12.002
    ],
    "font-family": "Helvetica-Bold",
    "font-size": 9,
    "font-color": [
     0,
     0,
     0.502,
     1
    ],
    "max-length": 13,
    "origin": [
     552.002,
     85.001
    ],
    "character-spacing": 15.00025,
    "align": "decimal",
    "align-v": "center",
    "aliases": {
     "stable": 30400
    },
    "format": ".2f"
   },
   "/form1[0]/Page4[0]/Line30400[0]/Line30400_chart[0]/Line30400_Name_inpt[0]": {
    "description": "Line 30400. Amount for an eligible dependant. Information about your dependant. First and last name.",
    "class": "text",
    "bounding-box": [
     30.722,
     122.998,
     364.561,
     11.282
    ],
    "font-family": "Helvetica-Bold",
    "font-size": 9,
    "font-color": [
     0,
     0,
     0.502,
     1
    ],
    "align": "decimal",
    "align-v": "center",
    "aliases": {
     "stable": 30400
    },
    "origin": [
     377.283,
     132.28
    ],
    "format": ".2f",
    "max-length": 13
   },
   "/form1[0]/Page4[0]/Line30400[0]/Line30400_chart[0]/Line55295[0]/SIN_Comb_Top[0]/SIN_Comb[0]": {
    "description": "Line 30400. Amount for an eligible dependant. Information about your dependant. Line 55295. Social insurance number. 9 digits.",
    "class": "text",
    "bounding-box": [
     423.72,
     122.998,
     145.559,
     11.282
    ],
    "font-family": "Helvetica-Bold",
    "font-size": 9,
    "font-color": [
     0,
     0,
     0.502,
     1
    ],
    "max-length": 13,
    "origin": [
     551.279,
     132.28
    ],
    "character-spacing": 16.173222222222222,
    "align": "decimal",
    "align-v": "center",
    "aliases": {
     "stable": 30400
    },
    "format": ".2f"
   },
   "/form1[0]/Page4[0]/Line30400[0]/Line30400_chart[0]/Line30400_Address_inpt[0]": {
    "description": "Line 30400. Amount for an eligible dependant. Information about your dependant. Address.",
    "class": "text",
    "bounding-box": [
     30.722,
     146.999,
     331.56,
     11.282
    ],
    "font-family": "Helvetica-Bold",
    "font-size": 9,
    "font-color": [
     0,
     0,
     0.502,
     1
    ],
    "align": "decimal",
    "align-v": "center",
    "aliases": {
     "stable": 30400
    },
    "origin": [
     344.282,
     156.281
    ],
    "format": ".2f",
    "max-length": 13
   },
   "/form1[0]/Page4[0]/Line30400[0]/Line30400_chart[0]/Yearofbirth_sf[0]/Line30400_Yr_Birth_Comb[0]": {
    "description": "Line 30400. Amount for an eligible dependant. Information about your dependant. Year of birth. Year 4 digits.",
    "class": "text",
    "bounding-box": [
     363.722,
     146.999,
     58.561,
     11.282
    ],
    "font-family": "Helvetica-Bold",
    "font-size": 9,
    "font-color": [
     0,
     0,
     0.502,
     1
    ],
    "max-length": 13,
    "origin": [
     404.283,
     156.281
    ],
    "character-spacing": 14.64025,
    "align": "decimal",
    "align-v": "center",
    "aliases": {
     "stable": 30400
    },
    "format": ".2f"
   },
   "/form1[0]/Page4[0]/Line30400[0]/Line30400_chart[0]/Line30400_Relationship_inpt[0]": {
    "description": "Line 30400. Amount for an eligible dependant. Information about your dependant. Relationship to you.",
    "class": "text",
    "bounding-box": [
     423.72,
     146.999,
     145.559,
     11.282
    ],
    "font-family": "Helvetica-Bold",
    "font-size": 9,
    "font-color": [
     0,
     0,
     0.502,
     1
    ],
    "align": "decimal",
    "align-v": "center",
    "aliases": {
     "stable": 30400
    },
    "origin": [
     551.279,
     156.281
    ],
    "format": ".2f",
    "max-length": 13
   },
   "/form1[0]/Page4[0]/Line30400[0]/Line30400_chart[0]/Impair_YesNo_sf[0]/Rd_sf[0]/RadioButtonGroup[0]/?": {
    "description": "",
    "bounding-box": [
     534.001,
     171.501,
     12,
     12
    ],
    "font-family": "ZapfDingbats",
    "font-size": 8.4,
    "font-color": [
     0,
     0,
     0.502,
     1
    ],
    "align": "center",
    "align-v": "center"
   },
   "/form1[0]/Page4[0]/Line30400[0]/Line30400_chart[0]/Line1[0]/Line30400_L1_inpt[0]": {
    "description": "Line 30400. Amount for an eligible dependant. Line 1. Basic personal amount from line 30000 of your return.",
    "class": "text",
    "bounding-box": [
     489.002,
     191.999,
     81,
     11.279
    ],
    "font-family": "Helvetica-Bold",
    "font-size": 9,
    "font-color": [
     0,
     0,
     0.502,
     1
    ],
    "align": "decimal",
    "align-v": "center",
    "aliases": {
     "stable": 30400
    },
    "origin": [
     552.002,
     201.278
    ],
    "format": ".2f",
    "max-length": 13
   },
   "/form1[0]/Page4[0]/Line30400[0]/Line30400_chart[0]/Line2[0]/Note2[0]": {
    "description": "Note2",
    "class": "checkbox",
    "bounding-box": [
     209.999,
     216,
     36,
     11.999
    ],
    "font-family": "Helvetica",
    "font-size": 10,
    "font-color": [
     0,
     0,
     0,
     1
    ],
    "align": "center",
    "align-v": "center"
   },
   "/form1[0]/Page4[0]/Line30400[0]/Line30400_chart[0]/Line2[0]/Line30400_L2_inpt[0]": {
    "description": "Line 30400. Amount for an eligible dependant. Line 51100. Line 2. If you are eligible for the Canada caregiver amount for your dependant, other than your infirm child under 18 years of age, enter $2,350. See line 30425 below.",
    "class": "text",
    "bounding-box": [
     501.001,
     207,
     69.001,
     23.281
    ],
    "font-family": "Helvetica-Bold",
    "font-size": 9,
    "font-color": [
     0,
     0,
     0.502,
     1
    ],
    "align": "decimal",
    "align-v": "center",
    "aliases": {
     "stable": 30400
    },
    "origin": [
     552.002,
     228.281
    ],
    "format": ".2f",
    "max-length": 13
   },
   "/form1[0]/Page4[0]/Line30400[0]/Line30400_chart[0]/Line3[0]/Line30400_L3_inpt[0]": {
    "description": "Line 30400. Amount for an eligible dependant. Line 3. Line 1 plus line 2.",
    "class": "text",
    "bounding-box": [
     501.001,
     234,
     69.001,
     11.279
    ],
    "font-family": "Helvetica-Bold",
    "font-size": 9,
    "font-color": [
     0,
     0,
     0.502,
     1
    ],
    "align": "decimal",
    "align-v": "center",
    "aliases": {
     "stable": 30400
    },
    "origin": [
     552.002,
     243.279
    ],
    "format": ".2f",
    "max-length": 13
   },
   "/form1[0]/Page4[0]/Line30400[0]/Line30400_chart[0]/Line4[0]/Line30400_L4_inpt[0]": {
    "description": "Line 30400. Amount for an eligible dependant. Line 51106. Line 4. Dependant's net income from line 23600 of their return.",
    "class": "text",
    "bounding-box": [
     501.001,
     248.998,
     69.001,
     11.279
    ],
    "font-family": "Helvetica-Bold",
    "font-size": 9,
    "font-color": [
     0,
     0,
     0.502,
     1
    ],
    "align": "decimal",
    "align-v": "center",
    "aliases": {
     "stable": 30400
    },
    "origin": [
     552.002,
     258.277
    ],
    "format": ".2f",
    "max-length": 13
   },
   "/form1[0]/Page4[0]/Line30400[0]/Line30400_chart[0]/Line5[0]/Line30400_L5_inpt[0]": {
    "description": "Line 30400. Amount for an eligible dependant. Line 5. Line 3 minus line 4. If negative, enter 0. Enter this amount on line 30400 of your return.",
    "class": "text",
    "bounding-box": [
     501.001,
     264.719,
     69.001,
     22.561
    ],
    "font-family": "Helvetica-Bold",
    "font-size": 9,
    "font-color": [
     0,
     0,
     0.502,
     1
    ],
    "align": "decimal",
    "align-v": "center",
    "aliases": {
     "stable": 30400
    },
    "origin": [
     552.002,
     285.28
    ],
    "format": ".2f",
    "max-length": 13
   },
   "/form1[0]/Page4[0]/Line30425[0]/Line30425_Chart[0]/Line1[0]/Line30425_L1_inpt[0]": {
    "description": "Line 30425. Canada caregiver amount for spouse or common-law partner, or eligible dependant age 18 or older. Line 1. Base amount.",
    "class": "text",
    "bounding-box": [
     489.002,
     453.002,
     81,
     11.279
    ],
    "font-family": "Helvetica",
    "font-size": 9,
    "font-color": [
     0,
     0,
     0,
     1
    ],
    "align": "decimal",
    "align-v": "center",
    "aliases": {
     "stable": 30425
    },
    "origin": [
     552.002,
     462.281
    ],
    "format": ".2f",
    "max-length": 13
   },
   "/form1[0]/Page4[0]/Line30425[0]/Line30425_Chart[0]/Line2[0]/Line30425_L2_inpt[0]": {
    "description": "Line 30425. Canada caregiver amount for spouse or common-law partner, or eligible dependant age 18 or older. Line 2. Net income for this person from line 23600 of their return.",
    "class": "text",
    "bounding-box": [
     501.001,
     468,
     69.001,
     11.279
    ],
    "font-family": "Helvetica-Bold",
    "font-size": 9,
    "font-color": [
     0,
     0,
     0.502,
     1
    ],
    "align": "decimal",
    "align-v": "center",
    "aliases": {
     "stable": 30425
    },
    "origin": [
     552.002,
     477.279
    ],
    "format": ".2f",
    "max-length": 13
   },
   "/form1[0]/Page4[0]/Line30425[0]/Line30425_Chart[0]/Line3[0]/Line30425_L3_inpt[0]": {
    "description": "Line 30425. Canada caregiver amount for spouse or common-law partner, or eligible dependant age 18 or older. Line 3. Line 1 minus line 2. If negative, enter 0. Maximum $7,525.",
    "class": "text",
    "bounding-box": [
     501.001,
     483.001,
     69.001,
     11.279
    ],
    "font-family": "Helvetica-Bold",
    "font-size": 9,
    "font-color": [
     0,
     0,
     0.502,
     1
    ],
    "align": "decimal",
    "align-v": "center",
    "aliases": {
     "stable": 30425
    },
    "origin": [
     552.002,
     492.28
    ],
    "format": ".2f",
    "max-length": 13
   },
   "/form1[0]/Page4[0]/Line30425[0]/Line30425_Chart[0]/Line4[0]/Line30425_L4_inpt[0]": {
    "description": "Line 30425. Canada caregiver amount for spouse or common-law partner, or eligible dependant age 18 or older. Line 4. Amount claimed on line 30300 or line 30400 of your return, if applicable.",
    "class": "text",
    "bounding-box": [
     501.001,
     498.002,
     69.001,
     11.279
    ],
    "font-family": "Helvetica-Bold",
    "font-size": 9,
    "font-color": [
     0,
     0,
     0.502,
     1
    ],
    "align": "decimal",
    "align-v": "center",
    "aliases": {
     "stable": 30425
    },
    "origin": [
     552.002,
     507.281
    ],
    "format": ".2f",
    "max-length": 13
   },
   "/form1[0]/Page4[0]/Line30425[0]/Line30425_Chart[0]/Line5[0]/Line30425_L5_inpt[0]": {
    "description": "Line 30425. Canada caregiver amount for spouse or common-law partner, or eligible dependant age 18 or older. Line 5. Allowable amount for this person. Line 3 minus line 4. If negative, enter 0. Enter this amount on line 30425 of your return.",
    "class": "text",
    "bounding-box": [
     501.001,
     513.72,
     69.001,
     22.561
    ],
    "font-family": "Helvetica-Bold",
    "font-size": 9,
    "font-color": [
     0,
     0,
     0.502,
     1
    ],
    "align": "decimal",
    "align-v": "center",
    "aliases": {
     "stable": 30425
    },
    "origin": [
     552.002,
     534.281
    ],
    "format": ".2f",
    "max-length": 13
   }
  }
 },
 "5": {
  "size": [
   612,
   792
  ],
  "fields": {
   "/form1[0]/#pageSet[0]/Page1[4]/ClearData_EN[0]": {
    "description": "Clear Data",
    "class": "checkbox",
    "bounding-box": [
     492.001,
     2.999,
     96.001,
     15.001
    ],
    "font-family": "Helvetica",
    "font-size": 10,
    "font-color": [
     0,
     0,
     0,
     1
    ],
    "align": "center",
    "align-v": "center"
   },
   "/form1[0]/Page5[0]/Line30450[0]/Line30450_Chart[0]/Line30450_Name_inpt[0]": {
    "description": "Line 30450. Canada caregiver amount for other infirm dependants age 18 or older. Information about your dependant. First and last name.",
    "class": "text",
    "bounding-box": [
     30.722,
     407.999,
     331.56,
     11.282
    ],
    "font-family": "Helvetica-Bold",
    "font-size": 9,
    "font-color": [
     0,
     0,
     0.502,
     1
    ],
    "align": "decimal",
    "align-v": "center",
    "aliases": {
     "stable": 30450
    },
    "origin": [
     344.282,
     417.281
    ],
    "format": ".2f",
    "max-length": 13
   },
   "/form1[0]/Page5[0]/Line30450[0]/Line30450_Chart[0]/Line30450_Address_inpt[0]": {
    "description": "Line 30450. Canada caregiver amount for other infirm dependants age 18 or older. Information about your dependant. Address.",
    "class": "text",
    "bounding-box": [
     30.722,
     431.997,
     331.56,
     11.282
    ],
    "font-family": "Helvetica-Bold",
    "font-size": 9,
    "font-color": [
     0,
     0,
     0.502,
     1
    ],
    "align": "decimal",
    "align-v": "center",
    "aliases": {
     "stable": 30450
    },
    "origin": [
     344.282,
     441.279
    ],
    "format": ".2f",
    "max-length": 13
   },
   "/form1[0]/Page5[0]/Line30450[0]/Line30450_Chart[0]/YearOfbirth_sf[0]/Line30400_Yr_Birth_Comb[0]": {
    "description": "Line 30450. Canada caregiver amount for other infirm dependants age 18 or older. Information about your dependant. Year of birth. Year 4 digits.",
    "class": "text",
    "bounding-box": [
     363.722,
     431.997,
     58.561,
     11.282
    ],
    "font-family": "Helvetica-Bold",
    "font-size": 9,
    "font-color": [
     0,
     0,
     0.502,
     1
    ],
    "max-length": 13,
    "origin": [
     404.283,
     441.279
    ],
    "character-spacing": 14.64025,
    "align": "decimal",
    "align-v": "center",
    "aliases": {
     "stable": 30450
    },
    "format": ".2f"
   },
   "/form1[0]/Page5[0]/Line30450[0]/Line30450_Chart[0]/Line30450_Relationship_inpt[0]": {
    "description": "Line 30450. Canada caregiver amount for other infirm dependants age 18 or older. Information about your dependant. Relationship to you.",
    "class": "text",
    "bounding-box": [
     423.72,
     431.997,
     145.559,
     11.282
    ],
    "font-family": "Helvetica-Bold",
    "font-size": 9,
    "font-color": [
     0,
     0,
     0.502,
     1
    ],
    "align": "decimal",
    "align-v": "center",
    "aliases": {
     "stable": 30450
    },
    "origin": [
     551.279,
     441.279
    ],
    "format": ".2f",
    "max-length": 13
   },
   "/form1[0]/Page5[0]/Line30450[0]/Line30450_Chart[0]/Line1[0]/Line30450_L1_inpt[0]": {
    "description": "Line 30450. Canada caregiver amount for other infirm dependants age 18 or older. Line 1. Base amount.",
    "class": "text",
    "bounding-box": [
     489.002,
     452.999,
     81,
     11.279
    ],
    "font-family": "Helvetica",
    "font-size": 9,
    "font-color": [
     0,
     0,
     0,
     1
    ],
    "align": "decimal",
    "align-v": "center",
    "aliases": {
     "stable": 30450
    },
    "origin": [
     552.002,
     462.278
    ],
    "format": ".2f",
    "max-length": 13
   },
   "/form1[0]/Page5[0]/Line30450[0]/Line30450_Chart[0]/Line2[0]/Line30450_L2_inpt[0]": {
    "description": "Line 30450. Canada caregiver amount for other infirm dependants age 18 or older. Line 2. Infirm dependant's net income from line 23600 of their return.",
    "class": "text",
    "bounding-box": [
     501.001,
     468,
     69.001,
     11.279
    ],
    "font-family": "Helvetica-Bold",
    "font-size": 9,
    "font-color": [
     0,
     0,
     0.502,
     1
    ],
    "align": "decimal",
    "align-v": "center",
    "aliases": {
     "stable": 30450
    },
    "origin": [
     552.002,
     477.279
    ],
    "format": ".2f",
    "max-length": 13
   },
   "/form1[0]/Page5[0]/Line30450[0]/Line30450_Chart[0]/Line3[0]/Line30450_L2_inpt[0]": {
    "description": "Line 30450. Canada caregiver amount for other infirm dependants age 18 or older. Line 3. Allowable amount for this dependant. Line 1 minus line 2. If negative, enter 0. Maximum $7,525.",
    "class": "text",
    "bounding-box": [
     501.001,
     483.718,
     69.001,
     22.561
    ],
    "font-family": "Helvetica-Bold",
    "font-size": 9,
    "font-color": [
     0,
     0,
     0.502,
     1
    ],
    "align": "decimal",
    "align-v": "center",
    "aliases": {
     "stable": 30450
    },
    "origin": [
     552.002,
     504.279
    ],
    "format": ".2f",
    "max-length": 13
   },
   "/form1[0]/Page5[0]/Line30450[0]/Line30450_Chart[0]/Line51120[0]/Line30450_L51120_inpt[0]": {
    "description": "Line 30450. Canada caregiver amount for other infirm dependants age 18 or older. Line 51120. Enter the number of dependants you are claiming this amount for.",
    "class": "text",
    "bounding-box": [
     489.722,
     531.72,
     19.559,
     10.559
    ],
    "font-family": "Helvetica-Bold",
    "font-size": 9,
    "font-color": [
     0,
     0,
     0.502,
     1
    ],
    "align": "decimal",
    "align-v": "center",
    "aliases": {
     "stable": 30450
    },
    "origin": [
     491.281,
     540.279
    ],
    "format": ".2f",
    "max-length": 13
   }
  }
 },
 "6": {
  "size": [
   612,
   792
  ],
  "fields": {
   "/form1[0]/#pageSet[0]/Page1[5]/ClearData_EN[0]": {
    "description": "Clear Data",
    "class": "checkbox",
    "bounding-box": [
     492.001,
     2.999,
     96.001,
     15.001
    ],
    "font-family": "Helvetica",
    "font-size": 10,
    "font-color": [
     0,
     0,
     0,
     1
    ],
    "align": "center",
    "align-v": "center"
   }
  }
 }
}