{
 "1": {
  "size": [
   612,
   792
  ],
  "fields": {
   "/form1[0]/#pageSet[0]/Page1[0]/ClearData_EN[0]": {
    "description": "Clear Data",
    "class": "checkbox",
    "bounding-box": [
     506.999,
     2.999,
     81,
     13.5
    ],
    "font-family": "Helvetica",
    "font-size": 10,
    "font-color": [
     0,
     0,
     0,
     1
    ],
    "align": "center",
    "align-v": "center"
   },
   "/form1[0]/Page1[0]/Line1[0]/Amount1[0]": {
    "description": "Line 1. Unused federal tuition, education, and textbook amounts from your 2021 notice of assessment or reassessment.",
    "class": "text",
    "bounding-box": [
     488.999,
     231.001,
     81,
     23.281
    ],
    "font-family": "Helvetica-Bold",
    "font-size": 9,
    "font-color": [
     0,
     0,
     0.502,
     1
    ],
    "align": "decimal",
    "align-v": "center",
    "aliases": {
     "line": 1
    },
    "origin": [
     551.999,
     252.282
    ],
    "format": ".2f",
    "max-length": 13
   },
   "/form1[0]/Page1[0]/Line2[0]/Note1[0]": {
    "description": "Note1",
    "class": "checkbox",
    "bounding-box": [
     321.001,
     258.001,
     36,
     11.999
    ],
    "font-family": "Helvetica",
    "font-size": 10,
    "font-color": [
     0,
     0,
     0,
     1
    ],
    "align": "center",
    "align-v": "center"
   },
   "/form1[0]/Page1[0]/Line2[0]/Amount2[0]": {
    "description": "Line 32000. Line 2. Eligible tuition fees paid to Canadian educational institutions for 2022. ",
    "class": "text",
    "bounding-box": [
     380.999,
     258.001,
     81,
     11.279
    ],
    "font-family": "Helvetica-Bold",
    "font-size": 9,
    "font-color": [
     0,
     0,
     0.502,
     1
    ],
    "align": "decimal",
    "align-v": "center",
    "aliases": {
     "line": 2,
     "stable": 32000
    },
    "origin": [
     443.999,
     267.28
    ],
    "format": ".2f",
    "max-length": 13
   },
   "/form1[0]/Page1[0]/Line3[0]/Amount1[0]": {
    "description": "Amount from line 2.",
    "class": "text",
    "bounding-box": [
     114.001,
     308.999,
     81,
     11.279
    ],
    "font-family": "Helvetica-Bold",
    "font-size": 9,
    "font-color": [
     0,
     0,
     0.502,
     1
    ],
    "align": "decimal",
    "align-v": "center",
    "aliases": {
     "line": 2
    },
    "origin": [
     177.001,
     318.278
    ],
    "format": ".2f",
    "max-length": 13
   },
   "/form1[0]/Page1[0]/Line3[0]/Amount2[0]": {
    "description": "Line 3. Amount from line 2 multiplied by 50 percent.",
    "class": "text",
    "bounding-box": [
     272.999,
     308.999,
     81,
     11.279
    ],
    "font-family": "Helvetica-Bold",
    "font-size": 9,
    "font-color": [
     0,
     0,
     0.502,
     1
    ],
    "align": "decimal",
    "align-v": "center",
    "aliases": {
     "line": 3
    },
    "origin": [
     335.999,
     318.278
    ],
    "format": ".2f",
    "max-length": 13
   },
   "/form1[0]/Page1[0]/Line4[0]/Amount4[0]": {
    "description": "Line 4. Your Canada training credit limit from your latest notice of assessment or reassessment.",
    "class": "text",
    "bounding-box": [
     272.999,
     324,
     81,
     23.281
    ],
    "font-family": "Helvetica-Bold",
    "font-size": 9,
    "font-color": [
     0,
     0,
     0.502,
     1
    ],
    "align": "decimal",
    "align-v": "center",
    "aliases": {
     "line": 4
    },
    "origin": [
     335.999,
     345.281
    ],
    "format": ".2f",
    "max-length": 13
   },
   "/form1[0]/Page1[0]/Line5[0]/Amount5[0]": {
    "description": "Line 5. Enter whichever is less. Amount from line 3 or line 4.",
    "class": "text",
    "bounding-box": [
     272.999,
     351,
     81,
     23.281
    ],
    "font-family": "Helvetica-Bold",
    "font-size": 9,
    "font-color": [
     0,
     0,
     0.502,
     1
    ],
    "align": "decimal",
    "align-v": "center",
    "aliases": {
     "line": 5
    },
    "origin": [
     335.999,
     372.281
    ],
    "format": ".2f",
    "max-length": 13
   },
   "/form1[0]/Page1[0]/Line6[0]/Amount6[0]": {
    "description": "Line 6. Canada training credit for 2022. Enter the Canada training credit you are claiming. Cannot be more than line 5.\rEnter this amount on line 45350 of your return.",
    "class": "text",
    "bounding-box": [
     393.001,
     389.999,
     69.001,
     23.281
    ],
    "font-family": "Helvetica-Bold",
    "font-size": 9,
    "font-color": [
     0,
     0,
     0.502,
     1
    ],
    "align": "decimal",
    "align-v": "center",
    "aliases": {
     "line": 6
    },
    "origin": [
     444.002,
     411.28
    ],
    "format": ".2f",
    "max-length": 13
   },
   "/form1[0]/Page1[0]/Line7[0]/Amount7[0]": {
    "description": "Line 7. Available Canadian tuition amount for 2022. Line 2 minus line 6.",
    "class": "text",
    "bounding-box": [
     393.001,
     416.999,
     69.001,
     23.281
    ],
    "font-family": "Helvetica-Bold",
    "font-size": 9,
    "font-color": [
     0,
     0,
     0.502,
     1
    ],
    "align": "decimal",
    "align-v": "center",
    "aliases": {
     "line": 7
    },
    "origin": [
     444.002,
     438.28
    ],
    "format": ".2f",
    "max-length": 13
   },
   "/form1[0]/Page1[0]/Line8[0]/Amount8[0]": {
    "description": "Line 32001. Line 8. Eligible tuition fees paid to foreign educational institutions for 2022.",
    "class": "text",
    "bounding-box": [
     393.001,
     443.999,
     69.001,
     11.279
    ],
    "font-family": "Helvetica-Bold",
    "font-size": 9,
    "font-color": [
     0,
     0,
     0.502,
     1
    ],
    "align": "decimal",
    "align-v": "center",
    "aliases": {
     "line": 8,
     "stable": 32001
    },
    "origin": [
     444.002,
     453.278
    ],
    "format": ".2f",
    "max-length": 13
   },
   "/form1[0]/Page1[0]/Line9[0]/Amount1[0]": {
    "description": "Line 9. Line 7 plus line 8. Instance 1.",
    "class": "text",
    "bounding-box": [
     393.001,
     459,
     69.001,
     11.279
    ],
    "font-family": "Helvetica-Bold",
    "font-size": 9,
    "font-color": [
     0,
     0,
     0.502,
     1
    ],
    "align": "decimal",
    "align-v": "center",
    "aliases": {
     "line": 9
    },
    "origin": [
     444.002,
     468.279
    ],
    "format": ".2f",
    "max-length": 13
   },
   "/form1[0]/Page1[0]/Line9[0]/Amount9[0]": {
    "description": "Line 9. Instance 2.",
    "class": "text",
    "bounding-box": [
     501.001,
     459,
     69.001,
     11.279
    ],
    "font-family": "Helvetica-Bold",
    "font-size": 9,
    "font-color": [
     0,
     0,
     0.502,
     1
    ],
    "align": "decimal",
    "align-v": "center",
    "aliases": {
     "line": 9
    },
    "origin": [
     552.002,
     468.279
    ],
    "format": ".2f",
    "max-length": 13
   },
   "/form1[0]/Page1[0]/Line10[0]/Amount10[0]": {
    "description": "Line 10. Total available tuition, education, and textbook amounts for 2022. Line 1 plus line 9.",
    "class": "text",
    "bounding-box": [
     501.001,
     474.001,
     69.001,
     23.281
    ],
    "font-family": "Helvetica-Bold",
    "font-size": 9,
    "font-color": [
     0,
     0,
     0.502,
     1
    ],
    "align": "decimal",
    "align-v": "center",
    "aliases": {
     "line": 10
    },
    "origin": [
     552.002,
     495.282
    ],
    "format": ".2f",
    "max-length": 13
   },
   "/form1[0]/Page1[0]/Line11[0]/Line11[0]/Amount11[0]": {
    "description": "Amount from line 73 of your return.",
    "class": "text",
    "bounding-box": [
     213.001,
     533.999,
     81,
     11.279
    ],
    "font-family": "Helvetica-Bold",
    "font-size": 8,
    "font-color": [
     0,
     0,
     0.502,
     1
    ],
    "align": "center",
    "align-v": "center"
   },
   "/form1[0]/Page1[0]/Line11[0]/Amount11[0]": {
    "description": "Line 11. Enter the amount from line 26000 of your return if it is $50,197 or less. If it is more than $50,197, enter the amount from line 73 of your return divided by 15%. ",
    "class": "text",
    "bounding-box": [
     380.999,
     522,
     81,
     23.281
    ],
    "font-family": "Helvetica-Bold",
    "font-size": 9,
    "font-color": [
     0,
     0,
     0.502,
     1
    ],
    "align": "decimal",
    "align-v": "center",
    "aliases": {
     "line": 11
    },
    "origin": [
     443.999,
     543.281
    ],
    "format": ".2f",
    "max-length": 13
   },
   "/form1[0]/Page1[0]/Line12[0]/Amount12[0]": {
    "description": "Line 12. Enter the amount from line 99 of your return.",
    "class": "text",
    "bounding-box": [
     393.001,
     549,
     69.001,
     11.279
    ],
    "font-family": "Helvetica-Bold",
    "font-size": 9,
    "font-color": [
     0,
     0,
     0.502,
     1
    ],
    "align": "decimal",
    "align-v": "center",
    "aliases": {
     "line": 12
    },
    "origin": [
     444.002,
     558.279
    ],
    "format": ".2f",
    "max-length": 13
   },
   "/form1[0]/Page1[0]/Line13[0]/Amount13[0]": {
    "description": "Line 13. Line 11 minus line 12. If negative, enter 0.",
    "class": "text",
    "bounding-box": [
     393.001,
     564.001,
     69.001,
     11.279
    ],
    "font-family": "Helvetica-Bold",
    "font-size": 9,
    "font-color": [
     0,
     0,
     0.502,
     1
    ],
    "align": "decimal",
    "align-v": "center",
    "aliases": {
     "line": 13
    },
    "origin": [
     444.002,
     573.28
    ],
    "format": ".2f",
    "max-length": 13
   },
   "/form1[0]/Page1[0]/Line14[0]/Amount1[0]": {
    "description": "Line 14. Unused tuition, education, and textbook amounts claimed for 2022. Enter whichever is less. Amount from line 1 or line 13. Instance 1.",
    "class": "text",
    "bounding-box": [
     393.001,
     578.999,
     69.001,
     23.281
    ],
    "font-family": "Helvetica-Bold",
    "font-size": 9,
    "font-color": [
     0,
     0,
     0.502,
     1
    ],
    "align": "decimal",
    "align-v": "center",
    "aliases": {
     "line": 14
    },
    "origin": [
     444.002,
     600.28
    ],
    "format": ".2f",
    "max-length": 13
   },
   "/form1[0]/Page1[0]/Line14[0]/Amount14[0]": {
    "description": "Line 14. Instance 2.",
    "class": "text",
    "bounding-box": [
     488.999,
     590.998,
     81,
     11.279
    ],
    "font-family": "Helvetica-Bold",
    "font-size": 9,
    "font-color": [
     0,
     0,
     0.502,
     1
    ],
    "align": "decimal",
    "align-v": "center",
    "aliases": {
     "line": 14
    },
    "origin": [
     551.999,
     600.277
    ],
    "format": ".2f",
    "max-length": 13
   },
   "/form1[0]/Page1[0]/Line15[0]/Amount15[0]": {
    "description": "Line 15. Line 13 minus line 14.",
    "class": "text",
    "bounding-box": [
     393.001,
     605.999,
     69.001,
     11.279
    ],
    "font-family": "Helvetica-Bold",
    "font-size": 9,
    "font-color": [
     0,
     0,
     0.502,
     1
    ],
    "align": "decimal",
    "align-v": "center",
    "aliases": {
     "line": 15
    },
    "origin": [
     444.002,
     615.278
    ],
    "format": ".2f",
    "max-length": 13
   },
   "/form1[0]/Page1[0]/Line16[0]/Amount16[0]": {
    "description": "Line 16. 2022 tuition amount. Enter whichever is less. Amount from line 9 or line 15.",
    "class": "text",
    "bounding-box": [
     501.001,
     621,
     69.001,
     23.281
    ],
    "font-family": "Helvetica-Bold",
    "font-size": 9,
    "font-color": [
     0,
     0,
     0.502,
     1
    ],
    "align": "decimal",
    "align-v": "center",
    "aliases": {
     "line": 16
    },
    "origin": [
     552.002,
     642.281
    ],
    "format": ".2f",
    "max-length": 13
   },
   "/form1[0]/Page1[0]/Line17[0]/Amount17[0]": {
    "description": "Line 17. Your tuition, education, and textbook amounts claimed for 2022. Line 14 plus line 16. Enter this amount on line 32300 of your return.\r",
    "class": "text",
    "bounding-box": [
     501.001,
     648.72,
     69.001,
     22.561
    ],
    "font-family": "Helvetica-Bold",
    "font-size": 9,
    "font-color": [
     0,
     0,
     0.502,
     1
    ],
    "align": "decimal",
    "align-v": "center",
    "aliases": {
     "line": 17
    },
    "origin": [
     552.002,
     669.281
    ],
    "format": ".2f",
    "max-length": 13
   }
  }
 },
 "2": {
  "size": [
   612,
   792
  ],
  "fields": {
   "/form1[0]/#pageSet[0]/Page1[1]/ClearData_EN[0]": {
    "description": "Clear Data",
    "class": "checkbox",
    "bounding-box": [
     506.999,
     2.999,
     81,
     13.5
    ],
    "font-family": "Helvetica",
    "font-size": 10,
    "font-color": [
     0,
     0,
     0,
     1
    ],
    "align": "center",
    "align-v": "center"
   },
   "/form1[0]/Page2[0]/Enrolment[0]/Line32005[0]/CheckBox[0]": {
    "description": "Box 32005. Tick this box if you were eligible for the disability tax credit in 2022, or you had a mental or physical impairment in 2022 and a medical practitioner has certified that you cannot reasonably be expected to be enrolled as a full-time student because of the effects of your impairment. ",
    "class": "checkbox",
    "bounding-box": [
     488.998,
     107.642,
     12,
     12
    ],
    "font-family": "ZapfDingbats",
    "font-size": 8.4,
    "font-color": [
     0,
     0,
     0.502,
     1
    ],
    "align": "center",
    "align-v": "center"
   },
   "/form1[0]/Page2[0]/Enrolment[0]/Line32010[0]/parttime_Months[0]": {
    "description": "Line 32010. Enter the number of months you were enrolled as a part-time student from box 24 of your Form T2202, and column B of your forms TL11A and TL11C. Maximum 12.",
    "class": "text",
    "bounding-box": [
     488.999,
     135,
     27,
     11.279
    ],
    "font-family": "Helvetica-Bold",
    "font-size": 9,
    "font-color": [
     0,
     0,
     0.502,
     1
    ],
    "align": "decimal",
    "align-v": "center",
    "aliases": {
     "stable": 32010
    },
    "origin": [
     497.999,
     144.279
    ],
    "format": ".2f",
    "max-length": 13
   },
   "/form1[0]/Page2[0]/Enrolment[0]/Line32020[0]/Fulltime_Months[0]": {
    "description": "Line 32020. Enter the number of months you were enrolled as a full-time student from box 25 of your Form T2202, and column C of your forms TL11A and TL11C. Maximum 12.",
    "class": "text",
    "bounding-box": [
     488.999,
     162,
     27,
     11.279
    ],
    "font-family": "Helvetica-Bold",
    "font-size": 9,
    "font-color": [
     0,
     0,
     0.502,
     1
    ],
    "align": "decimal",
    "align-v": "center",
    "aliases": {
     "stable": 32020
    },
    "origin": [
     497.999,
     171.279
    ],
    "format": ".2f",
    "max-length": 13
   },
   "/form1[0]/Page2[0]/Line18[0]/Amount18[0]": {
    "description": "Line 18. Amount from line 10 of the previous page.",
    "class": "text",
    "bounding-box": [
     488.999,
     309.002,
     81,
     11.279
    ],
    "font-family": "Helvetica-Bold",
    "font-size": 9,
    "font-color": [
     0,
     0,
     0.502,
     1
    ],
    "align": "decimal",
    "align-v": "center",
    "aliases": {
     "line": 18
    },
    "origin": [
     551.999,
     318.281
    ],
    "format": ".2f",
    "max-length": 13
   },
   "/form1[0]/Page2[0]/Line19[0]/Amount19[0]": {
    "description": "Line 19. Amount from line 17 of the previous page.",
    "class": "text",
    "bounding-box": [
     501.001,
     324.003,
     69.001,
     11.279
    ],
    "font-family": "Helvetica-Bold",
    "font-size": 9,
    "font-color": [
     0,
     0,
     0.502,
     1
    ],
    "align": "decimal",
    "align-v": "center",
    "aliases": {
     "line": 19
    },
    "origin": [
     552.002,
     333.282
    ],
    "format": ".2f",
    "max-length": 13
   },
   "/form1[0]/Page2[0]/Line20[0]/Amount20[0]": {
    "description": "Line 20. Total unused amount. Line 18 minus line 19.",
    "class": "text",
    "bounding-box": [
     501.001,
     339.001,
     69.001,
     11.279
    ],
    "font-family": "Helvetica-Bold",
    "font-size": 9,
    "font-color": [
     0,
     0,
     0.502,
     1
    ],
    "align": "decimal",
    "align-v": "center",
    "aliases": {
     "line": 20
    },
    "origin": [
     552.002,
     348.28
    ],
    "format": ".2f",
    "max-length": 13
   },
   "/form1[0]/Page2[0]/Line21[0]/Amount21[0]": {
    "description": "Line 21. Amount from line 9 of the previous page. Maximum $5,000. ",
    "class": "text",
    "bounding-box": [
     380.999,
     384.001,
     81,
     11.279
    ],
    "font-family": "Helvetica-Bold",
    "font-size": 9,
    "font-color": [
     0,
     0,
     0.502,
     1
    ],
    "align": "decimal",
    "align-v": "center",
    "aliases": {
     "line": 21
    },
    "origin": [
     443.999,
     393.28
    ],
    "format": ".2f",
    "max-length": 13
   },
   "/form1[0]/Page2[0]/Line22[0]/Amount22[0]": {
    "description": "Line 22. Amount from line 16 of the previous page.",
    "class": "text",
    "bounding-box": [
     393.001,
     399.002,
     69.001,
     11.279
    ],
    "font-family": "Helvetica-Bold",
    "font-size": 9,
    "font-color": [
     0,
     0,
     0.502,
     1
    ],
    "align": "decimal",
    "align-v": "center",
    "aliases": {
     "line": 22
    },
    "origin": [
     444.002,
     408.281
    ],
    "format": ".2f",
    "max-length": 13
   },
   "/form1[0]/Page2[0]/Line23[0]/Amount22[0]": {
    "description": "Line 23. Unused tuition amount available to transfer. Line 21 minus line 22. If negative, enter 0.",
    "class": "text",
    "bounding-box": [
     393.001,
     414.003,
     69.001,
     23.281
    ],
    "font-family": "Helvetica-Bold",
    "font-size": 9,
    "font-color": [
     0,
     0,
     0.502,
     1
    ],
    "align": "decimal",
    "align-v": "center",
    "aliases": {
     "line": 23
    },
    "origin": [
     444.002,
     435.284
    ],
    "format": ".2f",
    "max-length": 13
   },
   "/form1[0]/Page2[0]/Line24[0]/Amount24[0]": {
    "description": "Line 32700. Line 24. Federal tuition amount transferred. Enter the federal amount you are transferring as specified on your tuition forms. Cannot be more than line 23.",
    "class": "text",
    "bounding-box": [
     501.001,
     441.003,
     69.001,
     23.281
    ],
    "font-family": "Helvetica-Bold",
    "font-size": 9,
    "font-color": [
     0,
     0,
     0.502,
     1
    ],
    "align": "decimal",
    "align-v": "center",
    "aliases": {
     "line": 24,
     "stable": 32700
    },
    "origin": [
     552.002,
     462.284
    ],
    "format": ".2f",
    "max-length": 13
   },
   "/form1[0]/Page2[0]/Line25[0]/Amount25[0]": {
    "description": "Line 25. Unused federal amount available to carry forward to a future year. Line 20 minus line 24.",
    "class": "text",
    "bounding-box": [
     501.001,
     468.003,
     69.001,
     23.281
    ],
    "font-family": "Helvetica-Bold",
    "font-size": 9,
    "font-color": [
     0,
     0,
     0.502,
     1
    ],
    "align": "decimal",
    "align-v": "center",
    "aliases": {
     "line": 25
    },
    "origin": [
     552.002,
     489.284
    ],
    "format": ".2f",
    "max-length": 13
   }
  }
 }
}