{
 "1": {
  "size": [
   612,
   792
  ],
  "fields": {
   "/form1[0]/#pageSet[0]/Page1[0]/ClearData_FR[0]": {
    "description": "Effacer les données",
    "class": "checkbox",
    "bounding-box": [
     492.001,
     2.999,
     96.001,
     15.001
    ],
    "font-family": "Helvetica",
    "font-size": 10,
    "font-color": [
     0,
     0,
     0,
     1
    ],
    "align": "center",
    "align-v": "center"
   },
   "/form1[0]/Page1[0]/Line1[0]/Remarque1[0]": {
    "description": "Remarque1",
    "class": "checkbox",
    "bounding-box": [
     279,
     189,
     36,
     11.999
    ],
    "font-family": "Helvetica",
    "font-size": 10,
    "font-color": [
     0,
     0,
     0,
     1
    ],
    "align": "center",
    "align-v": "center"
   },
   "/form1[0]/Page1[0]/Line1[0]/Line_1_Amount[0]": {
    "description": "Ligne 1. Inscrivez le montant total de la ligne 11 plus la ligne 25 de votre déclaration. Si vous avez reçu un feuillet T4 pour un revenu d'un travail indépendant dans lequel figurent des cotisations à l'assurance-emploi à la case 18, n'incluez pas le revenu net, ou la perte nette, déclaré aux lignes 13500, 13700, 13900, 14100 et 14300 de votre déclaration pour ce feuillet. Si négatif, inscrivez 0.",
    "class": "text",
    "bounding-box": [
     488.999,
     176.998,
     81,
     23.281
    ],
    "font-family": "Helvetica-Bold",
    "font-size": 9,
    "font-color": [
     0,
     0,
     0.502,
     1
    ],
    "align": "decimal",
    "align-v": "center",
    "aliases": {
     "line": 1
    },
    "origin": [
     551.999,
     198.279
    ],
    "format": ".2f",
    "max-length": 13
   },
   "/form1[0]/Page1[0]/Line2[0]/Remarque2[0]": {
    "description": "Remarque2",
    "class": "checkbox",
    "bounding-box": [
     258.001,
     225,
     36,
     15.001
    ],
    "font-family": "Helvetica",
    "font-size": 10,
    "font-color": [
     0,
     0,
     0,
     1
    ],
    "align": "center",
    "align-v": "center"
   },
   "/form1[0]/Page1[0]/Line2[0]/Line_2_Amount[0]": {
    "description": "Ligne 54493. Ligne 2. Si vous n'êtes pas admissible au programme de l'assurance-emploi en tant qu'employé d'une société parce que vous contrôlez plus de 40 % des actions avec droit de vote de cette société, inscrivez le montant de la case 14 de tous vos feuillets T4 de cette société.",
    "class": "text",
    "bounding-box": [
     501.001,
     203.998,
     69.001,
     35.28
    ],
    "font-family": "Helvetica-Bold",
    "font-size": 9,
    "font-color": [
     0,
     0,
     0.502,
     1
    ],
    "align": "decimal",
    "align-v": "center",
    "aliases": {
     "line": 2,
     "stable": 54493
    },
    "origin": [
     552.002,
     237.278
    ],
    "format": ".2f",
    "max-length": 13
   },
   "/form1[0]/Page1[0]/Line_3[0]/Line_3_Amount[0]": {
    "description": "Ligne 54494. Ligne 3. Si vous êtes inscrit ou avez le droit d'être inscrit selon la Loi sur les Indiens et que vous avez gagné un revenu d'un travail indépendant exonéré d'impôt dans une réserve au Canada, inscrivez le total de votre revenu d'un travail indépendant exonéré d'impôt.",
    "class": "text",
    "bounding-box": [
     501.001,
     242.997,
     69.001,
     35.28
    ],
    "font-family": "Helvetica-Bold",
    "font-size": 9,
    "font-color": [
     0,
     0,
     0.502,
     1
    ],
    "align": "decimal",
    "align-v": "center",
    "aliases": {
     "line": 3,
     "stable": 54494
    },
    "origin": [
     552.002,
     276.277
    ],
    "format": ".2f",
    "max-length": 13
   },
   "/form1[0]/Page1[0]/Line_4[0]/Line_4_Amount[0]": {
    "description": "Ligne 4.  Revenu net d'un travail indépendant. Additionnez les lignes 1 à 3.",
    "class": "text",
    "bounding-box": [
     501.001,
     281.999,
     69.001,
     11.279
    ],
    "font-family": "Helvetica-Bold",
    "font-size": 9,
    "font-color": [
     0,
     0,
     0.502,
     1
    ],
    "align": "decimal",
    "align-v": "center",
    "aliases": {
     "line": 4
    },
    "origin": [
     552.002,
     291.278
    ],
    "format": ".2f",
    "max-length": 13
   }
  }
 },
 "2": {
  "size": [
   612,
   792
  ],
  "fields": {
   "/form1[0]/#pageSet[0]/Page1[1]/ClearData_FR[0]": {
    "description": "Effacer les données",
    "class": "checkbox",
    "bounding-box": [
     492.001,
     2.999,
     96.001,
     15.001
    ],
    "font-family": "Helvetica",
    "font-size": 10,
    "font-color": [
     0,
     0,
     0,
     1
    ],
    "align": "center",
    "align-v": "center"
   },
   "/form1[0]/Page2[0]/Total_des_gains_assurables[0]/Line5[0]/Amount[0]": {
    "description": "Total des gains assurables de l'assurance-emploi. Ligne 5. Maximum des gains assurables.",
    "class": "text",
    "bounding-box": [
     488.999,
     168.001,
     81,
     11.279
    ],
    "font-family": "Helvetica",
    "font-size": 9,
    "font-color": [
     0,
     0,
     0,
     1
    ],
    "align": "decimal",
    "align-v": "center",
    "aliases": {
     "line": 5
    },
    "origin": [
     551.999,
     177.28
    ],
    "format": ".2f",
    "max-length": 13
   },
   "/form1[0]/Page2[0]/Total_des_gains_assurables[0]/Line6[0]/Remarque3[0]": {
    "description": "Remarque3",
    "class": "checkbox",
    "bounding-box": [
     83.999,
     204.001,
     36,
     11.999
    ],
    "font-family": "Helvetica",
    "font-size": 10,
    "font-color": [
     0,
     0,
     0,
     1
    ],
    "align": "center",
    "align-v": "center"
   },
   "/form1[0]/Page2[0]/Total_des_gains_assurables[0]/Line6[0]/Amount[0]": {
    "description": "Total des gains assurables de l'assurance-emploi. Ligne 54780. Ligne 6. Total des gains assurables de l'assurance-emploi. Montant de la case 24 de tous vos feuillets T4, si la case 24 est vide, inscrivez le montant de la case 14 sauf si la case 28 indique que les revenus T4 sont exonérés d'assurance-emploi.",
    "class": "text",
    "bounding-box": [
     501.001,
     183.002,
     69.001,
     35.28
    ],
    "font-family": "Helvetica-Bold",
    "font-size": 9,
    "font-color": [
     0,
     0,
     0.502,
     1
    ],
    "align": "decimal",
    "align-v": "center",
    "aliases": {
     "line": 6
    },
    "origin": [
     552.002,
     216.282
    ],
    "format": ".2f",
    "max-length": 13
   },
   "/form1[0]/Page2[0]/Total_des_gains_assurables[0]/Line7[0]/Amount[0]": {
    "description": "Total des gains assurables de l'assurance-emploi. Ligne 7. Ligne 5 moins ligne 6. Si négatif, inscrivez 0.",
    "class": "text",
    "bounding-box": [
     501.001,
     222.001,
     69.001,
     11.279
    ],
    "font-family": "Helvetica-Bold",
    "font-size": 9,
    "font-color": [
     0,
     0,
     0.502,
     1
    ],
    "align": "decimal",
    "align-v": "center",
    "aliases": {
     "line": 7
    },
    "origin": [
     552.002,
     231.28
    ],
    "format": ".2f",
    "max-length": 13
   },
   "/form1[0]/Page2[0]/Total_des_gains_assurables[0]/Line8[0]/Amount[0]": {
    "description": "Total des gains assurables de l'assurance-emploi. Ligne 8. Inscrivez le montant le moins élevé. Ligne 4 ou ligne 7.",
    "class": "text",
    "bounding-box": [
     488.999,
     243,
     81,
     11.279
    ],
    "font-family": "Helvetica-Bold",
    "font-size": 9,
    "font-color": [
     0,
     0,
     0.502,
     1
    ],
    "align": "decimal",
    "align-v": "center",
    "aliases": {
     "line": 8
    },
    "origin": [
     551.999,
     252.279
    ],
    "format": ".2f",
    "max-length": 13
   },
   "/form1[0]/Page2[0]/Total_des_gains_assurables[0]/Line9[0]/Amount1[0]": {
    "description": "Cotisations à l'assurance-emploi à payer pour vos gains d'un travail indépendant et pour d'autres gains admissibles. Résidents d'une province ou d'un territoire autre que le Québec. Montant de la ligne 8.",
    "class": "text",
    "bounding-box": [
     191.999,
     299.999,
     81,
     11.279
    ],
    "font-family": "Helvetica-Bold",
    "font-size": 8,
    "font-color": [
     0,
     0,
     0.502,
     1
    ],
    "align": "center",
    "align-v": "center"
   },
   "/form1[0]/Page2[0]/Total_des_gains_assurables[0]/Line9[0]/Line_10_Amount[0]": {
    "description": "Cotisations à l'assurance-emploi à payer pour vos gains d'un travail indépendant et pour d'autres gains admissibles. Ligne 9. Résidents d'une province ou d'un territoire autre que le Québec. Montant de la ligne 8 multipliée par 1,58 %. Maximum 952,74 $.",
    "class": "text",
    "bounding-box": [
     488.999,
     288.72,
     81,
     22.561
    ],
    "font-family": "Helvetica-Bold",
    "font-size": 9,
    "font-color": [
     0,
     0,
     0.502,
     1
    ],
    "align": "decimal",
    "align-v": "center",
    "aliases": {
     "line": 9
    },
    "origin": [
     551.999,
     309.281
    ],
    "format": ".2f",
    "max-length": 13
   },
   "/form1[0]/Page2[0]/Total_des_gains_assurables[0]/Line10[0]/Amount1[0]": {
    "description": "Cotisations à l'assurance-emploi à payer pour vos gains d'un travail indépendant et pour d'autres gains admissibles. Résidents du Québec. Montant de la ligne 8.",
    "class": "text",
    "bounding-box": [
     191.999,
     333,
     81,
     11.279
    ],
    "font-family": "Helvetica-Bold",
    "font-size": 8,
    "font-color": [
     0,
     0,
     0.502,
     1
    ],
    "align": "center",
    "align-v": "center"
   },
   "/form1[0]/Page2[0]/Total_des_gains_assurables[0]/Line10[0]/Line_11_Amount[0]": {
    "description": "Cotisations à l'assurance-emploi à payer pour vos gains d'un travail indépendant et pour d'autres gains admissibles. Ligne 10. Résidents du Québec. Montant de la ligne 8 multipliée par 1,20 %. Maximum 723,60 $.",
    "class": "text",
    "bounding-box": [
     488.999,
     321.721,
     81,
     22.561
    ],
    "font-family": "Helvetica-Bold",
    "font-size": 9,
    "font-color": [
     0,
     0,
     0.502,
     1
    ],
    "align": "decimal",
    "align-v": "center",
    "aliases": {
     "line": 10
    },
    "origin": [
     551.999,
     342.282
    ],
    "format": ".2f",
    "max-length": 13
   }
  }
 }
}