{
 "1": {
  "size": [
   612,
   792
  ],
  "fields": {
   "/form1[0]/#pageSet[0]/Page1[0]/ClearData_FR[0]": {
    "description": "Effacer les données",
    "class": "checkbox",
    "bounding-box": [
     492.001,
     2.999,
     96.001,
     15.001
    ],
    "font-family": "Helvetica",
    "font-size": 10,
    "font-color": [
     0,
     0,
     0,
     1
    ],
    "align": "center",
    "align-v": "center"
   },
   "/form1[0]/Page1[0]/Table1[0]/Row2[0]/Cellule1_sf[0]/Remarque[0]": {
    "description": "Remarque",
    "class": "checkbox",
    "bounding-box": [
     276.001,
     351,
     51.001,
     11.999
    ],
    "font-family": "Helvetica",
    "font-size": 10,
    "font-color": [
     0,
     0,
     0,
     1
    ],
    "align": "center",
    "align-v": "center"
   },
   "/form1[0]/Page1[0]/Table1[0]/Row3[0]/Row_Cellule1_sf[0]/Remarque[0]": {
    "description": "Remarque",
    "class": "checkbox",
    "bounding-box": [
     63,
     396.003,
     51.001,
     11.999
    ],
    "font-family": "Helvetica",
    "font-size": 10,
    "font-color": [
     0,
     0,
     0,
     1
    ],
    "align": "center",
    "align-v": "center"
   },
   "/form1[0]/Page1[0]/Table1[0]/Row4[0]/Row4_Cellule1_sf[0]/Remarque[0]": {
    "description": "Remarque",
    "class": "checkbox",
    "bounding-box": [
     258.001,
     429.004,
     51.001,
     11.999
    ],
    "font-family": "Helvetica",
    "font-size": 10,
    "font-color": [
     0,
     0,
     0,
     1
    ],
    "align": "center",
    "align-v": "center"
   }
  }
 },
 "2": {
  "size": [
   612,
   792
  ],
  "fields": {
   "/form1[0]/#pageSet[0]/Page1[1]/ClearData_FR[0]": {
    "description": "Effacer les données",
    "class": "checkbox",
    "bounding-box": [
     492.001,
     2.999,
     96.001,
     15.001
    ],
    "font-family": "Helvetica",
    "font-size": 10,
    "font-color": [
     0,
     0,
     0,
     1
    ],
    "align": "center",
    "align-v": "center"
   },
   "/form1[0]/Page2[0]/Line30300[0]/Line30300_chart[0]/Line55220[0]/Line30300CheckBox[0]": {
    "description": "Ligne 30300. Montant pour époux ou conjoint de fait. Case 55220. Votre état civil a-t-il changé à un état autre que marié(e) ou conjoint(e) de fait en 2022? Si oui, cochez cette case et inscrivez la date du changement.",
    "class": "checkbox",
    "bounding-box": [
     489.001,
     251.999,
     12,
     12
    ],
    "font-family": "ZapfDingbats",
    "font-size": 9,
    "font-color": [
     0,
     0,
     0.502,
     1
    ],
    "align": "decimal",
    "align-v": "center",
    "aliases": {
     "stable": 30300
    },
    "origin": [
     483.001,
     261.999
    ],
    "format": ".2f",
    "max-length": 13
   },
   "/form1[0]/Page2[0]/Line30300[0]/Line30300_chart[0]/Line55220[0]/DateMMDD_Comb_Top_Std[0]/Line30300DateMMDD_Comb[0]": {
    "description": "Ligne 30300. Montant pour époux ou conjoint de fait. Votre état civil a-t-il changé à un état autre que marié(e) ou conjoint(e) de fait en 2022? Si oui, inscrivez la date du changement. Date. Mois 2 chiffres. Jour 2 chiffres.",
    "class": "text",
    "bounding-box": [
     510.001,
     252,
     60.001,
     11.282
    ],
    "font-family": "Helvetica-Bold",
    "font-size": 9,
    "font-color": [
     0,
     0,
     0.502,
     1
    ],
    "max-length": 13,
    "origin": [
     552.002,
     261.282
    ],
    "character-spacing": 15.00025,
    "align": "decimal",
    "align-v": "center",
    "aliases": {
     "stable": 30300
    },
    "format": ".2f"
   },
   "/form1[0]/Page2[0]/Line30300[0]/Line30300_chart[0]/Line1[0]/Line30300_L1_inpt[0]": {
    "description": "Ligne 30300. Montant pour époux ou conjoint de fait. Ligne 1. Montant personnel de base de la ligne 30000 de votre déclaration.",
    "class": "text",
    "bounding-box": [
     489.002,
     273.002,
     81,
     11.279
    ],
    "font-family": "Helvetica-Bold",
    "font-size": 9,
    "font-color": [
     0,
     0,
     0.502,
     1
    ],
    "align": "decimal",
    "align-v": "center",
    "aliases": {
     "stable": 30300
    },
    "origin": [
     552.002,
     282.281
    ],
    "format": ".2f",
    "max-length": 13
   },
   "/form1[0]/Page2[0]/Line30300[0]/Line30300_chart[0]/Line2[0]/Line30300_L2_inpt[0]": {
    "description": "Ligne 30300. Montant pour époux ou conjoint de fait. Ligne 51090. Ligne 2. Si vous êtes admissible au montant canadien pour aidant naturel pour votre époux ou conjoint de fait, inscrivez 2 350 $. Lisez la ligne 30425 à la page 4.",
    "class": "text",
    "bounding-box": [
     501.001,
     288.72,
     69.001,
     22.201
    ],
    "font-family": "Helvetica-Bold",
    "font-size": 9,
    "font-color": [
     0,
     0,
     0.502,
     1
    ],
    "align": "decimal",
    "align-v": "center",
    "aliases": {
     "stable": 30300
    },
    "origin": [
     552.002,
     308.921
    ],
    "format": ".2f",
    "max-length": 13
   },
   "/form1[0]/Page2[0]/Line30300[0]/Line30300_chart[0]/Line3[0]/Line30300_L3_inpt[0]": {
    "description": "Ligne 30300. Montant pour époux ou conjoint de fait. Ligne 3. Ligne 1 plus ligne 2.",
    "class": "text",
    "bounding-box": [
     501.001,
     315,
     69.001,
     11.279
    ],
    "font-family": "Helvetica-Bold",
    "font-size": 9,
    "font-color": [
     0,
     0,
     0.502,
     1
    ],
    "align": "decimal",
    "align-v": "center",
    "aliases": {
     "stable": 30300
    },
    "origin": [
     552.002,
     324.279
    ],
    "format": ".2f",
    "max-length": 13
   },
   "/form1[0]/Page2[0]/Line30300[0]/Line30300_chart[0]/Line4[0]/Remarque1[0]": {
    "description": "Remarque1",
    "class": "checkbox",
    "bounding-box": [
     381.002,
     330.001,
     36,
     11.999
    ],
    "font-family": "Helvetica",
    "font-size": 10,
    "font-color": [
     0,
     0,
     0,
     1
    ],
    "align": "center",
    "align-v": "center"
   },
   "/form1[0]/Page2[0]/Line30300[0]/Line30300_chart[0]/Line4[0]/Line30300_L4_inpt[0]": {
    "description": "Ligne 30300. Montant pour époux ou conjoint de fait. Ligne 4. Revenu net de votre époux ou conjoint de fait de la ligne 23600 de sa déclaration.",
    "class": "text",
    "bounding-box": [
     501.001,
     330.001,
     69.001,
     11.279
    ],
    "font-family": "Helvetica-Bold",
    "font-size": 9,
    "font-color": [
     0,
     0,
     0.502,
     1
    ],
    "align": "decimal",
    "align-v": "center",
    "aliases": {
     "stable": 30300
    },
    "origin": [
     552.002,
     339.28
    ],
    "format": ".2f",
    "max-length": 13
   },
   "/form1[0]/Page2[0]/Line30300[0]/Line30300_chart[0]/Line5[0]/Line30300_L5_inpt[0]": {
    "description": "Ligne 30300. Montant pour époux ou conjoint de fait. Ligne 5. Ligne 3 moins ligne 4. Si négatif, inscrivez 0. Inscrivez ce montant à la ligne 30300 de votre déclaration.",
    "class": "text",
    "bounding-box": [
     501.001,
     345.722,
     69.001,
     22.561
    ],
    "font-family": "Helvetica-Bold",
    "font-size": 9,
    "font-color": [
     0,
     0,
     0.502,
     1
    ],
    "align": "decimal",
    "align-v": "center",
    "aliases": {
     "stable": 30300
    },
    "origin": [
     552.002,
     366.283
    ],
    "format": ".2f",
    "max-length": 13
   }
  }
 },
 "3": {
  "size": [
   612,
   792
  ],
  "fields": {
   "/form1[0]/#pageSet[0]/Page1[2]/ClearData_FR[0]": {
    "description": "Effacer les données",
    "class": "checkbox",
    "bounding-box": [
     492.001,
     2.999,
     96.001,
     15.001
    ],
    "font-family": "Helvetica",
    "font-size": 10,
    "font-color": [
     0,
     0,
     0,
     1
    ],
    "align": "center",
    "align-v": "center"
   }
  }
 },
 "4": {
  "size": [
   612,
   792
  ],
  "fields": {
   "/form1[0]/#pageSet[0]/Page1[3]/ClearData_FR[0]": {
    "description": "Effacer les données",
    "class": "checkbox",
    "bounding-box": [
     492.001,
     2.999,
     96.001,
     15.001
    ],
    "font-family": "Helvetica",
    "font-size": 10,
    "font-color": [
     0,
     0,
     0,
     1
    ],
    "align": "center",
    "align-v": "center"
   },
   "/form1[0]/Page4[0]/Line30400[0]/Line30400_Chart[0]/Line55290[0]/Line30400CheckBox[0]": {
    "description": "Ligne 30400. Montant pour une personne à charge admissible. Case 55290. Votre état civil a-t-il changé à marié(e) ou à conjoint(e) de fait en 2022? Si oui, cochez cette case et inscrivez la date du changement.",
    "class": "checkbox",
    "bounding-box": [
     488.281,
     74.998,
     12,
     12
    ],
    "font-family": "ZapfDingbats",
    "font-size": 9,
    "font-color": [
     0,
     0,
     0.502,
     1
    ],
    "align": "decimal",
    "align-v": "center",
    "aliases": {
     "stable": 30400
    },
    "origin": [
     482.281,
     84.998
    ],
    "format": ".2f",
    "max-length": 13
   },
   "/form1[0]/Page4[0]/Line30400[0]/Line30400_Chart[0]/Line55290[0]/DateMMDD_Comb_Top_Std[0]/Line30400DateMMDD_Comb[0]": {
    "description": "Ligne 30400. Montant pour une personne à charge admissible. Case 55290. Votre état civil a-t-il changé à marié(e) ou à conjoint(e) de fait en 2022? Si oui, inscrivez la date du changement. Date. Mois 2 chiffres. Jour 2 chiffres.",
    "class": "text",
    "bounding-box": [
     510.001,
     74.999,
     60.001,
     11.282
    ],
    "font-family": "Helvetica-Bold",
    "font-size": 9,
    "font-color": [
     0,
     0,
     0.502,
     1
    ],
    "max-length": 13,
    "origin": [
     552.002,
     84.281
    ],
    "character-spacing": 15.00025,
    "align": "decimal",
    "align-v": "center",
    "aliases": {
     "stable": 30400
    },
    "format": ".2f"
   },
   "/form1[0]/Page4[0]/Line30400[0]/Line30400_Chart[0]/Line30400_Name-inpt[0]": {
    "description": "Ligne 30400. Montant pour une personne à charge admissible. Renseignements sur votre personne à charge. Prénom et nom de famille.",
    "class": "text",
    "bounding-box": [
     30.722,
     122.998,
     364.561,
     11.282
    ],
    "font-family": "Helvetica-Bold",
    "font-size": 9,
    "font-color": [
     0,
     0,
     0.502,
     1
    ],
    "align": "decimal",
    "align-v": "center",
    "aliases": {
     "stable": 30400
    },
    "origin": [
     377.283,
     132.28
    ],
    "format": ".2f",
    "max-length": 13
   },
   "/form1[0]/Page4[0]/Line30400[0]/Line30400_Chart[0]/Line55295_sf[0]/SIN_Comb_Top[0]/SIN_Comb[0]": {
    "description": "Ligne 30400. Montant pour une personne à charge admissible. Renseignements sur votre personne à charge. Ligne 55295. Numéro d'assurance sociale. 9 chiffres.",
    "class": "text",
    "bounding-box": [
     423.72,
     122.998,
     145.559,
     11.282
    ],
    "font-family": "Helvetica-Bold",
    "font-size": 9,
    "font-color": [
     0,
     0,
     0.502,
     1
    ],
    "max-length": 13,
    "origin": [
     551.279,
     132.28
    ],
    "character-spacing": 16.173222222222222,
    "align": "decimal",
    "align-v": "center",
    "aliases": {
     "stable": 30400
    },
    "format": ".2f"
   },
   "/form1[0]/Page4[0]/Line30400[0]/Line30400_Chart[0]/Line30400_Address_inpt[0]": {
    "description": "Ligne 30400. Montant pour une personne à charge admissible. Renseignements sur votre personne à charge. Adresse.",
    "class": "text",
    "bounding-box": [
     30.722,
     156.719,
     331.56,
     10.562
    ],
    "font-family": "Helvetica-Bold",
    "font-size": 9,
    "font-color": [
     0,
     0,
     0.502,
     1
    ],
    "align": "decimal",
    "align-v": "center",
    "aliases": {
     "stable": 30400
    },
    "origin": [
     344.282,
     165.281
    ],
    "format": ".2f",
    "max-length": 13
   },
   "/form1[0]/Page4[0]/Line30400[0]/Line30400_Chart[0]/YearOfbirth_sf[0]/Line307YrBirth_Comb[0]": {
    "description": "Ligne 30400. Montant pour une personne à charge admissible. Renseignements sur votre personne à charge. Année de naissance.",
    "class": "text",
    "bounding-box": [
     363.722,
     156.719,
     58.561,
     10.562
    ],
    "font-family": "Helvetica-Bold",
    "font-size": 9,
    "font-color": [
     0,
     0,
     0.502,
     1
    ],
    "max-length": 13,
    "origin": [
     404.283,
     165.281
    ],
    "character-spacing": 14.64025,
    "align": "decimal",
    "align-v": "center",
    "aliases": {
     "stable": 30400
    },
    "format": ".2f"
   },
   "/form1[0]/Page4[0]/Line30400[0]/Line30400_Chart[0]/Line30400_Relationship_inpt[0]": {
    "description": "Ligne 30400. Montant pour une personne à charge admissible. Renseignements sur votre personne à charge. Lien de parenté.",
    "class": "text",
    "bounding-box": [
     423.72,
     156.719,
     145.559,
     10.562
    ],
    "font-family": "Helvetica-Bold",
    "font-size": 9,
    "font-color": [
     0,
     0,
     0.502,
     1
    ],
    "align": "decimal",
    "align-v": "center",
    "aliases": {
     "stable": 30400
    },
    "origin": [
     551.279,
     165.281
    ],
    "format": ".2f",
    "max-length": 13
   },
   "/form1[0]/Page4[0]/Line30400[0]/Line30400_Chart[0]/Impair_YesNo_sf[0]/RadioButtonGroup[0]/?": {
    "description": "",
    "bounding-box": [
     531.002,
     180.498,
     12,
     12
    ],
    "font-family": "ZapfDingbats",
    "font-size": 8.4,
    "font-color": [
     0,
     0,
     0.502,
     1
    ],
    "align": "center",
    "align-v": "center"
   },
   "/form1[0]/Page4[0]/Line30400[0]/Line30400_Chart[0]/Line1[0]/Line30400_L1_inpt[0]": {
    "description": "Ligne 30400. Montant pour une personne à charge admissible. Ligne 1. Montant personnel de base de la ligne 30000 de votre déclaration.",
    "class": "text",
    "bounding-box": [
     489.002,
     203.998,
     81,
     11.279
    ],
    "font-family": "Helvetica-Bold",
    "font-size": 9,
    "font-color": [
     0,
     0,
     0.502,
     1
    ],
    "align": "decimal",
    "align-v": "center",
    "aliases": {
     "stable": 30400
    },
    "origin": [
     552.002,
     213.277
    ],
    "format": ".2f",
    "max-length": 13
   },
   "/form1[0]/Page4[0]/Line30400[0]/Line30400_Chart[0]/Line2[0]/Remarque2[0]": {
    "description": "Remarque2",
    "class": "checkbox",
    "bounding-box": [
     409.476,
     231.001,
     36,
     11.999
    ],
    "font-family": "Helvetica",
    "font-size": 10,
    "font-color": [
     0,
     0,
     0,
     1
    ],
    "align": "center",
    "align-v": "center"
   },
   "/form1[0]/Page4[0]/Line30400[0]/Line30400_Chart[0]/Line2[0]/Line30400_L2_inpt[0]": {
    "description": "Ligne 30400. Montant pour une personne à charge admissible. Ligne 51100. Ligne 2. Si vous avez droit au montant canadien pour aidant naturel pour votre personne à charge, autre que votre enfant âgé de moins de 18 ans ayant une déficience, inscrivez 2 350 $. Lisez la ligne 30425 ci-dessous.",
    "class": "text",
    "bounding-box": [
     501.001,
     218.999,
     69.001,
     35.28
    ],
    "font-family": "Helvetica-Bold",
    "font-size": 9,
    "font-color": [
     0,
     0,
     0.502,
     1
    ],
    "align": "decimal",
    "align-v": "center",
    "aliases": {
     "stable": 30400
    },
    "origin": [
     552.002,
     252.279
    ],
    "format": ".2f",
    "max-length": 13
   },
   "/form1[0]/Page4[0]/Line30400[0]/Line30400_Chart[0]/Line3[0]/Line30400_L3_inpt[0]": {
    "description": "Ligne 30400. Montant pour une personne à charge admissible. Ligne 3. Ligne 1 plus ligne 2.",
    "class": "text",
    "bounding-box": [
     501.001,
     257.998,
     69.001,
     11.279
    ],
    "font-family": "Helvetica-Bold",
    "font-size": 9,
    "font-color": [
     0,
     0,
     0.502,
     1
    ],
    "align": "decimal",
    "align-v": "center",
    "aliases": {
     "stable": 30400
    },
    "origin": [
     552.002,
     267.277
    ],
    "format": ".2f",
    "max-length": 13
   },
   "/form1[0]/Page4[0]/Line30400[0]/Line30400_Chart[0]/Line4[0]/Line30400_L4_inpt[0]": {
    "description": "Ligne 30400. Montant pour une personne à charge admissible. Ligne 51106. Ligne 4. Revenu net de la personne à charge de la ligne 23600 de sa déclaration.",
    "class": "text",
    "bounding-box": [
     501.001,
     272.999,
     69.001,
     11.279
    ],
    "font-family": "Helvetica-Bold",
    "font-size": 9,
    "font-color": [
     0,
     0,
     0.502,
     1
    ],
    "align": "decimal",
    "align-v": "center",
    "aliases": {
     "stable": 30400
    },
    "origin": [
     552.002,
     282.278
    ],
    "format": ".2f",
    "max-length": 13
   },
   "/form1[0]/Page4[0]/Line30400[0]/Line30400_Chart[0]/Line5[0]/Line30400_L5_inpt[0]": {
    "description": "Ligne 30400. Montant pour une personne à charge admissible. Ligne 5. Ligne 3 moins ligne 4. Si négatif, inscrivez 0. Inscrivez ce montant à la ligne 30400 de votre déclaration.",
    "class": "text",
    "bounding-box": [
     501.001,
     288,
     69.001,
     23.281
    ],
    "font-family": "Helvetica-Bold",
    "font-size": 9,
    "font-color": [
     0,
     0,
     0.502,
     1
    ],
    "align": "decimal",
    "align-v": "center",
    "aliases": {
     "stable": 30400
    },
    "origin": [
     552.002,
     309.281
    ],
    "format": ".2f",
    "max-length": 13
   },
   "/form1[0]/Page4[0]/Line30425[0]/Line30425_Chart[0]/Line1[0]/Line30425_L1_inpt[0]": {
    "description": "Ligne 30425. Montant canadien pour aidant naturel pour époux ou conjoint de fait, ou pour une personne à charge admissible âgée de 18 ans ou plus. Ligne 1. Montant de base.",
    "class": "text",
    "bounding-box": [
     489.002,
     510.001,
     81,
     11.279
    ],
    "font-family": "Helvetica",
    "font-size": 9,
    "font-color": [
     0,
     0,
     0,
     1
    ],
    "align": "decimal",
    "align-v": "center",
    "aliases": {
     "stable": 30425
    },
    "origin": [
     552.002,
     519.28
    ],
    "format": ".2f",
    "max-length": 13
   },
   "/form1[0]/Page4[0]/Line30425[0]/Line30425_Chart[0]/Line2[0]/Line30425_L2_inpt[0]": {
    "description": "Ligne 30425. Montant canadien pour aidant naturel pour époux ou conjoint de fait, ou pour une personne à charge admissible âgée de 18 ans ou plus. Ligne 2. Revenu net de cette personne de la ligne 23600 de sa déclaration.",
    "class": "text",
    "bounding-box": [
     501.001,
     524.999,
     69.001,
     11.279
    ],
    "font-family": "Helvetica-Bold",
    "font-size": 9,
    "font-color": [
     0,
     0,
     0.502,
     1
    ],
    "align": "decimal",
    "align-v": "center",
    "aliases": {
     "stable": 30425
    },
    "origin": [
     552.002,
     534.278
    ],
    "format": ".2f",
    "max-length": 13
   },
   "/form1[0]/Page4[0]/Line30425[0]/Line30425_Chart[0]/Line3[0]/Amount[0]": {
    "description": "Ligne 30425. Montant canadien pour aidant naturel pour époux ou conjoint de fait, ou pour une personne à charge admissible âgée de 18 ans ou plus. Ligne 3. Ligne 1 moins ligne 2. Si négatif, inscrivez 0. Maximum 7 525 $.",
    "class": "text",
    "bounding-box": [
     501.001,
     540,
     69.001,
     11.279
    ],
    "font-family": "Helvetica-Bold",
    "font-size": 9,
    "font-color": [
     0,
     0,
     0.502,
     1
    ],
    "align": "decimal",
    "align-v": "center",
    "aliases": {
     "stable": 30425
    },
    "origin": [
     552.002,
     549.279
    ],
    "format": ".2f",
    "max-length": 13
   },
   "/form1[0]/Page4[0]/Line30425[0]/Line30425_Chart[0]/Line4[0]/Line30425_L4_inpt[0]": {
    "description": "Ligne 30425. Montant canadien pour aidant naturel pour époux ou conjoint de fait, ou pour une personne à charge admissible âgée de 18 ans ou plus. Ligne 4. Montant demandé à la ligne 30300 ou à la ligne 30400 de votre déclaration, s’il y a lieu.",
    "class": "text",
    "bounding-box": [
     501.001,
     555.001,
     69.001,
     11.279
    ],
    "font-family": "Helvetica-Bold",
    "font-size": 9,
    "font-color": [
     0,
     0,
     0.502,
     1
    ],
    "align": "decimal",
    "align-v": "center",
    "aliases": {
     "stable": 30425
    },
    "origin": [
     552.002,
     564.28
    ],
    "format": ".2f",
    "max-length": 13
   },
   "/form1[0]/Page4[0]/Line30425[0]/Line30425_Chart[0]/Line5[0]/Line30425_L5_inpt[0]": {
    "description": "Ligne 30425. Montant canadien pour aidant naturel pour époux ou conjoint de fait, ou pour une personne à charge admissible âgée de 18 ans ou plus. Ligne 5. Montant admissible pour cette personne. Ligne 3 moins ligne 4. Si négatif, inscrivez 0. Inscrivez ce montant à la ligne 30425 de votre déclaration.",
    "class": "text",
    "bounding-box": [
     501.001,
     569.999,
     69.001,
     23.281
    ],
    "font-family": "Helvetica-Bold",
    "font-size": 9,
    "font-color": [
     0,
     0,
     0.502,
     1
    ],
    "align": "decimal",
    "align-v": "center",
    "aliases": {
     "stable": 30425
    },
    "origin": [
     552.002,
     591.28
    ],
    "format": ".2f",
    "max-length": 13
   }
  }
 },
 "5": {
  "size": [
   612,
   792
  ],
  "fields": {
   "/form1[0]/#pageSet[0]/Page1[4]/ClearData_FR[0]": {
    "description": "Effacer les données",
    "class": "checkbox",
    "bounding-box": [
     492.001,
     2.999,
     96.001,
     15.001
    ],
    "font-family": "Helvetica",
    "font-size": 10,
    "font-color": [
     0,
     0,
     0,
     1
    ],
    "align": "center",
    "align-v": "center"
   },
   "/form1[0]/Page5[0]/Line30450[0]/Line30450_Chart[0]/Line30450_Name_inpt[0]": {
    "description": "Ligne 30450. Montant canadien pour aidant naturel pour autres personnes à charge âgées de 18 ans ou plus ayant une déficience. Renseignements sur votre personne à charge. Prénom et nom de famille.",
    "class": "text",
    "bounding-box": [
     30.722,
     459,
     331.56,
     11.282
    ],
    "font-family": "Helvetica-Bold",
    "font-size": 9,
    "font-color": [
     0,
     0,
     0.502,
     1
    ],
    "align": "decimal",
    "align-v": "center",
    "aliases": {
     "stable": 30450
    },
    "origin": [
     344.282,
     468.282
    ],
    "format": ".2f",
    "max-length": 13
   },
   "/form1[0]/Page5[0]/Line30450[0]/Line30450_Chart[0]/Line30450_Address_inpt[0]": {
    "description": "Ligne 30450. Montant canadien pour aidant naturel pour autres personnes à charge âgées de 18 ans ou plus ayant une déficience. Renseignements sur votre personne à charge. Adresse.",
    "class": "text",
    "bounding-box": [
     30.722,
     491.998,
     331.56,
     11.282
    ],
    "font-family": "Helvetica-Bold",
    "font-size": 9,
    "font-color": [
     0,
     0,
     0.502,
     1
    ],
    "align": "decimal",
    "align-v": "center",
    "aliases": {
     "stable": 30450
    },
    "origin": [
     344.282,
     501.28
    ],
    "format": ".2f",
    "max-length": 13
   },
   "/form1[0]/Page5[0]/Line30450[0]/Line30450_Chart[0]/YearOfbirth_sf[0]/Line30450_YrBirth_Comb_inpt[0]": {
    "description": "Ligne 30450. Montant canadien pour aidant naturel pour autres personnes à charge âgées de 18 ans ou plus ayant une déficience. Renseignements sur votre personne à charge. Année de naissance. Année 4 chiffres.",
    "class": "text",
    "bounding-box": [
     363.722,
     491.998,
     58.561,
     11.282
    ],
    "font-family": "Helvetica-Bold",
    "font-size": 9,
    "font-color": [
     0,
     0,
     0.502,
     1
    ],
    "max-length": 13,
    "origin": [
     404.283,
     501.28
    ],
    "character-spacing": 14.64025,
    "align": "decimal",
    "align-v": "center",
    "aliases": {
     "stable": 30450
    },
    "format": ".2f"
   },
   "/form1[0]/Page5[0]/Line30450[0]/Line30450_Chart[0]/Line30450_Relationship_inpt[0]": {
    "description": "Ligne 30450. Montant canadien pour aidant naturel pour autres personnes à charge âgées de 18 ans ou plus ayant une déficience. Renseignements sur votre personne à charge. Lien de parenté.",
    "class": "text",
    "bounding-box": [
     423.72,
     491.998,
     145.559,
     11.282
    ],
    "font-family": "Helvetica-Bold",
    "font-size": 9,
    "font-color": [
     0,
     0,
     0.502,
     1
    ],
    "align": "decimal",
    "align-v": "center",
    "aliases": {
     "stable": 30450
    },
    "origin": [
     551.279,
     501.28
    ],
    "format": ".2f",
    "max-length": 13
   },
   "/form1[0]/Page5[0]/Line30450[0]/Line30450_Chart[0]/Line1[0]/Line30450_L1_inpt[0]": {
    "description": "Ligne 30450. Montant canadien pour aidant naturel pour autres personnes à charge âgées de 18 ans ou plus ayant une déficience. Ligne 1. Montant de base.",
    "class": "text",
    "bounding-box": [
     489.002,
     513,
     81,
     11.279
    ],
    "font-family": "Helvetica",
    "font-size": 9,
    "font-color": [
     0,
     0,
     0,
     1
    ],
    "align": "decimal",
    "align-v": "center",
    "aliases": {
     "stable": 30450
    },
    "origin": [
     552.002,
     522.279
    ],
    "format": ".2f",
    "max-length": 13
   },
   "/form1[0]/Page5[0]/Line30450[0]/Line30450_Chart[0]/Line2[0]/Line30450_L2_inpt[0]": {
    "description": "Ligne 30450. Montant canadien pour aidant naturel pour autres personnes à charge âgées de 18 ans ou plus ayant une déficience. Ligne 2. Revenu net de la personne à charge ayant une déficience de la ligne 23600 de sa déclaration.",
    "class": "text",
    "bounding-box": [
     501.001,
     528.001,
     69.001,
     11.279
    ],
    "font-family": "Helvetica-Bold",
    "font-size": 9,
    "font-color": [
     0,
     0,
     0.502,
     1
    ],
    "align": "decimal",
    "align-v": "center",
    "aliases": {
     "stable": 30450
    },
    "origin": [
     552.002,
     537.28
    ],
    "format": ".2f",
    "max-length": 13
   },
   "/form1[0]/Page5[0]/Line30450[0]/Line30450_Chart[0]/Line3[0]/Line30450_L3_inpt[0]": {
    "description": "Ligne 30450. Montant canadien pour aidant naturel pour autres personnes à charge âgées de 18 ans ou plus ayant une déficience. Ligne 3. Montant admissible pour cette personne à charge. Ligne 1 moins ligne 2. Si négatif, inscrivez 0. Maximum 7 525 $.",
    "class": "text",
    "bounding-box": [
     501.001,
     543.719,
     69.001,
     22.561
    ],
    "font-family": "Helvetica-Bold",
    "font-size": 9,
    "font-color": [
     0,
     0,
     0.502,
     1
    ],
    "align": "decimal",
    "align-v": "center",
    "aliases": {
     "stable": 30450
    },
    "origin": [
     552.002,
     564.28
    ],
    "format": ".2f",
    "max-length": 13
   },
   "/form1[0]/Page5[0]/Line30450[0]/Line30450_Chart[0]/Line51120[0]/Line30450-NumberDep_inpt[0]": {
    "description": "Ligne 30450. Montant canadien pour aidant naturel pour autres personnes à charge âgées de 18 ans ou plus ayant une déficience. Ligne 51120. Inscrivez le nombre de personnes à charge pour qui vous demandez ce montant.",
    "class": "text",
    "bounding-box": [
     489.722,
     603.72,
     19.559,
     10.559
    ],
    "font-family": "Helvetica-Bold",
    "font-size": 9,
    "font-color": [
     0,
     0,
     0.502,
     1
    ],
    "align": "decimal",
    "align-v": "center",
    "aliases": {
     "stable": 30450
    },
    "origin": [
     491.281,
     612.279
    ],
    "format": ".2f",
    "max-length": 13
   }
  }
 },
 "6": {
  "size": [
   612,
   792
  ],
  "fields": {
   "/form1[0]/#pageSet[0]/Page1[5]/ClearData_FR[0]": {
    "description": "Effacer les données",
    "class": "checkbox",
    "bounding-box": [
     492.001,
     2.999,
     96.001,
     15.001
    ],
    "font-family": "Helvetica",
    "font-size": 10,
    "font-color": [
     0,
     0,
     0,
     1
    ],
    "align": "center",
    "align-v": "center"
   }
  }
 }
}