{
 "1": {
  "size": [
   612,
   792
  ],
  "fields": {
   "/form1[0]/#pageSet[0]/Page1[0]/ClearData_EN[0]": {
    "description": "Clear Data",
    "class": "checkbox",
    "bounding-box": [
     492.001,
     2.999,
     96.001,
     15.001
    ],
    "font-family": "Helvetica",
    "font-size": 10,
    "font-color": [
     0,
     0,
     0,
     1
    ],
    "align": "center",
    "align-v": "center"
   }
  }
 },
 "2": {
  "size": [
   612,
   792
  ],
  "fields": {
   "/form1[0]/#pageSet[0]/Page1[1]/ClearData_EN[0]": {
    "description": "Clear Data",
    "class": "checkbox",
    "bounding-box": [
     492.001,
     2.999,
     96.001,
     15.001
    ],
    "font-family": "Helvetica",
    "font-size": 10,
    "font-color": [
     0,
     0,
     0,
     1
    ],
    "align": "center",
    "align-v": "center"
   },
   "/form1[0]/Page2[0]/PartA[0]/Line1[0]/Amount[0]": {
    "description": "Line 1. Enter your unused registered retirement savings plan contributions previously reported and available to deduct for 2022 as shown on your latest notice of assessment or reassessment, or Form T1028 for 2022. Unused registered retirement savings plan contributions also include your unused pooled registered pension plan and specified pension plan contributions. ",
    "class": "text",
    "bounding-box": [
     486.003,
     387,
     81,
     23.281
    ],
    "font-family": "Helvetica-Bold",
    "font-size": 9,
    "font-color": [
     0,
     0,
     0.502,
     1
    ],
    "align": "decimal",
    "align-v": "center",
    "aliases": {
     "line": 1
    },
    "origin": [
     549.003,
     408.281
    ],
    "format": ".2f",
    "max-length": 13
   },
   "/form1[0]/Page2[0]/PartA[0]/Line2[0]/Amount[0]": {
    "description": "Line 2. Enter contributions made to your registered retirement savings plan, specified pension plan, and pooled registered pension plan or to your spouse's or common-law partner's registered retirement savings plan or specified pension plan from March 2, 2022, to December 31, 2022. Attach all receipts.",
    "class": "text",
    "bounding-box": [
     378.003,
     426.002,
     81,
     23.281
    ],
    "font-family": "Helvetica-Bold",
    "font-size": 9,
    "font-color": [
     0,
     0,
     0.502,
     1
    ],
    "align": "decimal",
    "align-v": "center",
    "aliases": {
     "line": 2
    },
    "origin": [
     441.003,
     447.283
    ],
    "format": ".2f",
    "max-length": 13
   },
   "/form1[0]/Page2[0]/PartA[0]/Line3[0]/Amount[0]": {
    "description": "Line 3. Enter contributions made to your registered retirement savings plan, specified pension plan, and pooled registered pension plan or to your spouse's or common-law partner's registered retirement savings plan or specified pension plan from January 1, 2023, to March 1, 2023. Attach all receipts.",
    "class": "text",
    "bounding-box": [
     390.002,
     453.002,
     69.001,
     35.28
    ],
    "font-family": "Helvetica-Bold",
    "font-size": 9,
    "font-color": [
     0,
     0,
     0.502,
     1
    ],
    "align": "decimal",
    "align-v": "center",
    "aliases": {
     "line": 3
    },
    "origin": [
     441.003,
     486.282
    ],
    "format": ".2f",
    "max-length": 13
   },
   "/form1[0]/Page2[0]/PartA[0]/Line4[0]/Amount1[0]": {
    "description": "Line 24500. Line 2 plus line 3.",
    "class": "text",
    "bounding-box": [
     390.002,
     492.001,
     69.001,
     11.279
    ],
    "font-family": "Helvetica-Bold",
    "font-size": 9,
    "font-color": [
     0,
     0,
     0.502,
     1
    ],
    "align": "decimal",
    "align-v": "center",
    "aliases": {
     "stable": 24500
    },
    "origin": [
     441.003,
     501.28
    ],
    "format": ".2f",
    "max-length": 13
   },
   "/form1[0]/Page2[0]/PartA[0]/Line4[0]/Amount2[0]": {
    "description": "Line 4. Amount from line 24500.",
    "class": "text",
    "bounding-box": [
     498.002,
     492.001,
     69.001,
     11.279
    ],
    "font-family": "Helvetica-Bold",
    "font-size": 9,
    "font-color": [
     0,
     0,
     0.502,
     1
    ],
    "align": "decimal",
    "align-v": "center",
    "aliases": {
     "line": 4,
     "stable": 24500
    },
    "origin": [
     549.003,
     501.28
    ],
    "format": ".2f",
    "max-length": 13
   },
   "/form1[0]/Page2[0]/PartA[0]/Line5[0]/Amount[0]": {
    "description": "Line 5. Total contributions. Line 1 plus line 4. Enter this amount on line 6 of the next page.",
    "class": "text",
    "bounding-box": [
     498.002,
     507.002,
     69.001,
     23.281
    ],
    "font-family": "Helvetica-Bold",
    "font-size": 9,
    "font-color": [
     0,
     0,
     0.502,
     1
    ],
    "align": "decimal",
    "align-v": "center",
    "aliases": {
     "line": 5
    },
    "origin": [
     549.003,
     528.283
    ],
    "format": ".2f",
    "max-length": 13
   }
  }
 },
 "3": {
  "size": [
   612,
   792
  ],
  "fields": {
   "/form1[0]/#pageSet[0]/Page1[2]/ClearData_EN[0]": {
    "description": "Clear Data",
    "class": "checkbox",
    "bounding-box": [
     492.001,
     2.999,
     96.001,
     15.001
    ],
    "font-family": "Helvetica",
    "font-size": 10,
    "font-color": [
     0,
     0,
     0,
     1
    ],
    "align": "center",
    "align-v": "center"
   },
   "/form1[0]/Page3[0]/PartB[0]/Line6[0]/Amount[0]": {
    "description": "Line 6. Amount from line 5 of the previous page.",
    "class": "text",
    "bounding-box": [
     486.003,
     240.001,
     81,
     11.279
    ],
    "font-family": "Helvetica-Bold",
    "font-size": 9,
    "font-color": [
     0,
     0,
     0.502,
     1
    ],
    "align": "decimal",
    "align-v": "center",
    "aliases": {
     "line": 6
    },
    "origin": [
     549.003,
     249.28
    ],
    "format": ".2f",
    "max-length": 13
   },
   "/form1[0]/Page3[0]/PartB[0]/Line7[0]/Amount[0]": {
    "description": "Line 24600. Line 7. Contribution designated as a repayment under the Home Buyers' Plan.",
    "class": "text",
    "bounding-box": [
     378.003,
     254.999,
     81,
     11.279
    ],
    "font-family": "Helvetica-Bold",
    "font-size": 9,
    "font-color": [
     0,
     0,
     0.502,
     1
    ],
    "align": "decimal",
    "align-v": "center",
    "aliases": {
     "line": 7,
     "stable": 24600
    },
    "origin": [
     441.003,
     264.278
    ],
    "format": ".2f",
    "max-length": 13
   },
   "/form1[0]/Page3[0]/PartB[0]/Line8[0]/Amount[0]": {
    "description": "Line 24620. Line 8. Contribution designated as a repayment under the Lifelong Learning Plan.",
    "class": "text",
    "bounding-box": [
     390.002,
     270,
     69.001,
     11.279
    ],
    "font-family": "Helvetica-Bold",
    "font-size": 9,
    "font-color": [
     0,
     0,
     0.502,
     1
    ],
    "align": "decimal",
    "align-v": "center",
    "aliases": {
     "line": 8,
     "stable": 24620
    },
    "origin": [
     441.003,
     279.279
    ],
    "format": ".2f",
    "max-length": 13
   },
   "/form1[0]/Page3[0]/PartB[0]/Line9[0]/Amount1[0]": {
    "description": "Line 9. Total repayments under the Home Buyers' Plan and Lifelong Learning Plan. Line 7 plus line 8. Instance 1.",
    "class": "text",
    "bounding-box": [
     390.002,
     285.001,
     69.001,
     11.279
    ],
    "font-family": "Helvetica-Bold",
    "font-size": 9,
    "font-color": [
     0,
     0,
     0.502,
     1
    ],
    "align": "decimal",
    "align-v": "center",
    "aliases": {
     "line": 9
    },
    "origin": [
     441.003,
     294.28
    ],
    "format": ".2f",
    "max-length": 13
   },
   "/form1[0]/Page3[0]/PartB[0]/Line9[0]/Amount2[0]": {
    "description": "Line 9. Instance 2.",
    "class": "text",
    "bounding-box": [
     498.002,
     285.001,
     69.001,
     11.279
    ],
    "font-family": "Helvetica-Bold",
    "font-size": 9,
    "font-color": [
     0,
     0,
     0.502,
     1
    ],
    "align": "decimal",
    "align-v": "center",
    "aliases": {
     "line": 9
    },
    "origin": [
     549.003,
     294.28
    ],
    "format": ".2f",
    "max-length": 13
   },
   "/form1[0]/Page3[0]/PartB[0]/Line10[0]/Amount[0]": {
    "description": "Line 10. Contributions available to deduct. Line 6 minus line 9.",
    "class": "text",
    "bounding-box": [
     498.002,
     299.999,
     69.001,
     11.279
    ],
    "font-family": "Helvetica-Bold",
    "font-size": 9,
    "font-color": [
     0,
     0,
     0.502,
     1
    ],
    "align": "decimal",
    "align-v": "center",
    "aliases": {
     "line": 10
    },
    "origin": [
     549.003,
     309.278
    ],
    "format": ".2f",
    "max-length": 13
   },
   "/form1[0]/Page3[0]/PartC[0]/Line11[0]/Amount[0]": {
    "description": "Line 11. Enter your registered retirement savings plan deduction limit for 2022 as shown on your latest notice of assessment or reassessment, or Form T1028 for 2022.",
    "class": "text",
    "bounding-box": [
     486.003,
     423,
     81,
     23.281
    ],
    "font-family": "Helvetica-Bold",
    "font-size": 9,
    "font-color": [
     0,
     0,
     0.502,
     1
    ],
    "align": "decimal",
    "align-v": "center",
    "aliases": {
     "line": 11
    },
    "origin": [
     549.003,
     444.281
    ],
    "format": ".2f",
    "max-length": 13
   },
   "/form1[0]/Page3[0]/PartC[0]/Line12[0]/Amount[0]": {
    "description": "Line 12. Enter your 2022 employer pooled registered pension plan contributions from line 20810 of your return. ",
    "class": "text",
    "bounding-box": [
     498.002,
     450,
     69.001,
     11.279
    ],
    "font-family": "Helvetica-Bold",
    "font-size": 9,
    "font-color": [
     0,
     0,
     0.502,
     1
    ],
    "align": "decimal",
    "align-v": "center",
    "aliases": {
     "line": 12
    },
    "origin": [
     549.003,
     459.279
    ],
    "format": ".2f",
    "max-length": 13
   },
   "/form1[0]/Page3[0]/PartC[0]/Line13[0]/Amount[0]": {
    "description": "Line 13. Line 11 minus line 12.",
    "class": "text",
    "bounding-box": [
     498.002,
     464.998,
     69.001,
     11.279
    ],
    "font-family": "Helvetica-Bold",
    "font-size": 9,
    "font-color": [
     0,
     0,
     0.502,
     1
    ],
    "align": "decimal",
    "align-v": "center",
    "aliases": {
     "line": 13
    },
    "origin": [
     549.003,
     474.277
    ],
    "format": ".2f",
    "max-length": 13
   },
   "/form1[0]/Page3[0]/PartC[0]/Line14[0]/Amount[0]": {
    "description": "Line 14. Contributions available to deduct from line 10.",
    "class": "text",
    "bounding-box": [
     378.003,
     479.999,
     81,
     11.279
    ],
    "font-family": "Helvetica-Bold",
    "font-size": 9,
    "font-color": [
     0,
     0,
     0.502,
     1
    ],
    "align": "decimal",
    "align-v": "center",
    "aliases": {
     "line": 14
    },
    "origin": [
     441.003,
     489.278
    ],
    "format": ".2f",
    "max-length": 13
   },
   "/form1[0]/Page3[0]/PartC[0]/Line15[0]/Note1[0]": {
    "description": "Note1",
    "class": "checkbox",
    "bounding-box": [
     65.999,
     495,
     36,
     11.999
    ],
    "font-family": "Helvetica",
    "font-size": 10,
    "font-color": [
     0,
     0,
     0,
     1
    ],
    "align": "center",
    "align-v": "center"
   },
   "/form1[0]/Page3[0]/PartC[0]/Line15[0]/Amount1[0]": {
    "description": "Line 24640. Transfers.",
    "class": "text",
    "bounding-box": [
     390.002,
     495,
     69.001,
     11.279
    ],
    "font-family": "Helvetica-Bold",
    "font-size": 9,
    "font-color": [
     0,
     0,
     0.502,
     1
    ],
    "align": "decimal",
    "align-v": "center",
    "aliases": {
     "stable": 24640
    },
    "origin": [
     441.003,
     504.279
    ],
    "format": ".2f",
    "max-length": 13
   },
   "/form1[0]/Page3[0]/PartC[0]/Line15[0]/Amount2[0]": {
    "description": "Line 15. Amount from line 24640.",
    "class": "text",
    "bounding-box": [
     486.003,
     495,
     81,
     11.279
    ],
    "font-family": "Helvetica-Bold",
    "font-size": 9,
    "font-color": [
     0,
     0,
     0.502,
     1
    ],
    "align": "decimal",
    "align-v": "center",
    "aliases": {
     "line": 15,
     "stable": 24640
    },
    "origin": [
     549.003,
     504.279
    ],
    "format": ".2f",
    "max-length": 13
   },
   "/form1[0]/Page3[0]/PartC[0]/Line16[0]/Amount[0]": {
    "description": "Line 16. Line 14 minus line 15.",
    "class": "text",
    "bounding-box": [
     390.002,
     509.998,
     69.001,
     11.279
    ],
    "font-family": "Helvetica-Bold",
    "font-size": 9,
    "font-color": [
     0,
     0,
     0.502,
     1
    ],
    "align": "decimal",
    "align-v": "center",
    "aliases": {
     "line": 16
    },
    "origin": [
     441.003,
     519.277
    ],
    "format": ".2f",
    "max-length": 13
   },
   "/form1[0]/Page3[0]/PartC[0]/Line17[0]/Amount[0]": {
    "description": "Line 17. Enter whichever is less: amount from line 13 or line 16.",
    "class": "text",
    "bounding-box": [
     378.003,
     524.999,
     81,
     11.279
    ],
    "font-family": "Helvetica-Bold",
    "font-size": 9,
    "font-color": [
     0,
     0,
     0.502,
     1
    ],
    "align": "decimal",
    "align-v": "center",
    "aliases": {
     "line": 17
    },
    "origin": [
     441.003,
     534.278
    ],
    "format": ".2f",
    "max-length": 13
   },
   "/form1[0]/Page3[0]/PartC[0]/Line18[0]/Amount[0]": {
    "description": "Line 18. Enter your registered retirement savings plan, pooled registered pension plan, and specified pension plan contributions you are deducting for 2022. Cannot be more than line 17.",
    "class": "text",
    "bounding-box": [
     498.002,
     540,
     69.001,
     23.281
    ],
    "font-family": "Helvetica-Bold",
    "font-size": 9,
    "font-color": [
     0,
     0,
     0.502,
     1
    ],
    "align": "decimal",
    "align-v": "center",
    "aliases": {
     "line": 18
    },
    "origin": [
     549.003,
     561.281
    ],
    "format": ".2f",
    "max-length": 13
   },
   "/form1[0]/Page3[0]/PartC[0]/Line19[0]/Amount[0]": {
    "description": "Line 19. Line 15 plus line 18.",
    "class": "text",
    "bounding-box": [
     498.002,
     567,
     69.001,
     11.279
    ],
    "font-family": "Helvetica-Bold",
    "font-size": 9,
    "font-color": [
     0,
     0,
     0.502,
     1
    ],
    "align": "decimal",
    "align-v": "center",
    "aliases": {
     "line": 19
    },
    "origin": [
     549.003,
     576.279
    ],
    "format": ".2f",
    "max-length": 13
   },
   "/form1[0]/Page3[0]/PartC[0]/Line20[0]/Amount[0]": {
    "description": "Line 20. Registered retirement savings plan deduction. Enter whichever is less: amount from line 10 or line 19. Enter this amount on line 20800 of your return. ",
    "class": "text",
    "bounding-box": [
     486.003,
     582.718,
     81,
     22.561
    ],
    "font-family": "Helvetica-Bold",
    "font-size": 9,
    "font-color": [
     0,
     0,
     0.502,
     1
    ],
    "align": "decimal",
    "align-v": "center",
    "aliases": {
     "line": 20
    },
    "origin": [
     549.003,
     603.279
    ],
    "format": ".2f",
    "max-length": 13
   }
  }
 },
 "4": {
  "size": [
   612,
   792
  ],
  "fields": {
   "/form1[0]/#pageSet[0]/Page1[3]/ClearData_EN[0]": {
    "description": "Clear Data",
    "class": "checkbox",
    "bounding-box": [
     492.001,
     2.999,
     96.001,
     15.001
    ],
    "font-family": "Helvetica",
    "font-size": 10,
    "font-color": [
     0,
     0,
     0,
     1
    ],
    "align": "center",
    "align-v": "center"
   },
   "/form1[0]/Page4[0]/PartD[0]/Line22[0]/Amount[0]": {
    "description": "Line 21. Enter your contributions available to deduct from line 10 of the previous page.",
    "class": "text",
    "bounding-box": [
     486.003,
     65.999,
     81,
     11.279
    ],
    "font-family": "Helvetica-Bold",
    "font-size": 9,
    "font-color": [
     0,
     0,
     0.502,
     1
    ],
    "align": "decimal",
    "align-v": "center",
    "aliases": {
     "line": 21
    },
    "origin": [
     549.003,
     75.278
    ],
    "format": ".2f",
    "max-length": 13
   },
   "/form1[0]/Page4[0]/PartD[0]/Line23[0]/Amount[0]": {
    "description": "Line 22. Enter your registered retirement savings plan deduction from line 20 of the previous page.",
    "class": "text",
    "bounding-box": [
     498.002,
     81,
     69.001,
     11.279
    ],
    "font-family": "Helvetica-Bold",
    "font-size": 9,
    "font-color": [
     0,
     0,
     0.502,
     1
    ],
    "align": "decimal",
    "align-v": "center",
    "aliases": {
     "line": 22
    },
    "origin": [
     549.003,
     90.279
    ],
    "format": ".2f",
    "max-length": 13
   },
   "/form1[0]/Page4[0]/PartD[0]/Line24[0]/Amount[0]": {
    "description": "Line 23. Your unused contributions available to carry forward to a future year. Line 21 minus line 22.",
    "class": "text",
    "bounding-box": [
     498.002,
     96.001,
     69.001,
     23.281
    ],
    "font-family": "Helvetica-Bold",
    "font-size": 9,
    "font-color": [
     0,
     0,
     0.502,
     1
    ],
    "align": "decimal",
    "align-v": "center",
    "aliases": {
     "line": 23
    },
    "origin": [
     549.003,
     117.282
    ],
    "format": ".2f",
    "max-length": 13
   },
   "/form1[0]/Page4[0]/PartE[0]/Line25[0]/Amount[0]": {
    "description": "Line 24700. Line 24. Home Buyers' Plan. Amount from box 27 from all of your 2022 T4RSP slips.",
    "class": "text",
    "bounding-box": [
     486.003,
     249.001,
     81,
     11.279
    ],
    "font-family": "Helvetica-Bold",
    "font-size": 9,
    "font-color": [
     0,
     0,
     0.502,
     1
    ],
    "align": "decimal",
    "align-v": "center",
    "aliases": {
     "line": 24,
     "stable": 24700
    },
    "origin": [
     549.003,
     258.28
    ],
    "format": ".2f",
    "max-length": 13
   },
   "/form1[0]/Page4[0]/PartE[0]/Line26[0]/Box_Line25[0]": {
    "description": "Line 25900. Line 25. Tick this box if the address on page 1 of your return is the same as the address of the home you purchased under the Home Buyers' Plan. ",
    "class": "checkbox",
    "bounding-box": [
     486.002,
     281.998,
     12,
     12
    ],
    "font-family": "ZapfDingbats",
    "font-size": 9,
    "font-color": [
     0,
     0,
     0.502,
     1
    ],
    "align": "decimal",
    "align-v": "center",
    "aliases": {
     "line": 25,
     "stable": 25900
    },
    "origin": [
     480.002,
     291.998
    ],
    "format": ".2f",
    "max-length": 13
   },
   "/form1[0]/Page4[0]/PartE[0]/Line27[0]/Amount[0]": {
    "description": "Line 26300. Line 26. Lifelong Learning Plan. Amount from box 25 of all of your 2022 T4RSP slips.",
    "class": "text",
    "bounding-box": [
     486.003,
     303.001,
     81,
     11.279
    ],
    "font-family": "Helvetica-Bold",
    "font-size": 9,
    "font-color": [
     0,
     0,
     0.502,
     1
    ],
    "align": "decimal",
    "align-v": "center",
    "aliases": {
     "line": 26,
     "stable": 26300
    },
    "origin": [
     549.003,
     312.28
    ],
    "format": ".2f",
    "max-length": 13
   },
   "/form1[0]/Page4[0]/PartE[0]/Line28[0]/Box_Line27[0]": {
    "description": "Line 26400. Line 27. Tick this box to designate your spouse or common-law partner as the student you withdrew the funds for under the Lifelong Learning Plan. You can only make this designation on the return for the year you make your first withdrawal under the Lifelong Learning Plan. If you do not tick this box, you will be considered the student for Lifelong Learning Plan purposes.",
    "class": "checkbox",
    "bounding-box": [
     486.002,
     357,
     12,
     12
    ],
    "font-family": "ZapfDingbats",
    "font-size": 9,
    "font-color": [
     0,
     0,
     0.502,
     1
    ],
    "align": "decimal",
    "align-v": "center",
    "aliases": {
     "line": 27,
     "stable": 26400
    },
    "origin": [
     480.002,
     367
    ],
    "format": ".2f",
    "max-length": 13
   },
   "/form1[0]/Page4[0]/PartF[0]/Line29[0]/Amount[0]": {
    "description": "Line 26700. Line 28. Enter the amount of income that was contributed to an amateur athlete trust in 2022.",
    "class": "text",
    "bounding-box": [
     486.003,
     465.001,
     81,
     11.279
    ],
    "font-family": "Helvetica-Bold",
    "font-size": 9,
    "font-color": [
     0,
     0,
     0.502,
     1
    ],
    "align": "decimal",
    "align-v": "center",
    "aliases": {
     "line": 28,
     "stable": 26700
    },
    "origin": [
     549.003,
     474.28
    ],
    "format": ".2f",
    "max-length": 13
   }
  }
 }
}