{
 "1": {
  "size": [
   612,
   792
  ],
  "fields": {
   "/form1[0]/#pageSet[0]/Page1[0]/ClearData_FR[0]": {
    "description": "Effacer les données",
    "class": "checkbox",
    "bounding-box": [
     492.001,
     2.999,
     96.001,
     15.001
    ],
    "font-family": "Helvetica",
    "font-size": 10,
    "font-color": [
     0,
     0,
     0,
     1
    ],
    "align": "center",
    "align-v": "center"
   },
   "/form1[0]/Page1[0]/PartA[0]/Line1[0]/Amount[0]": {
    "description": "Ligne 54375. Ligne 1. Revenus nets d'entreprise. Inscrivez le montant de la ligne 27 de l'annexe L de votre déclaration de revenus de Revenu Québec.",
    "class": "text",
    "bounding-box": [
     486.003,
     224.997,
     81,
     23.281
    ],
    "font-family": "Helvetica-Bold",
    "font-size": 9,
    "font-color": [
     0,
     0,
     0.502,
     1
    ],
    "align": "decimal",
    "align-v": "center",
    "aliases": {
     "line": 1,
     "stable": 54375
    },
    "origin": [
     549.003,
     246.278
    ],
    "format": ".2f",
    "max-length": 13
   },
   "/form1[0]/Page1[0]/PartA[0]/Line2[0]/Amount[0]": {
    "description": "Ligne 2. Revenu maximal assurable au régime provincial d'assurance parentale.  ",
    "class": "text",
    "bounding-box": [
     378.003,
     252,
     81,
     11.999
    ],
    "font-family": "Helvetica",
    "font-size": 9,
    "font-color": [
     0,
     0,
     0,
     1
    ],
    "align": "decimal",
    "align-v": "center",
    "aliases": {
     "line": 2
    },
    "origin": [
     441.003,
     261.999
    ],
    "format": ".2f",
    "max-length": 13
   },
   "/form1[0]/Page1[0]/PartA[0]/Line3[0]/Amount[0]": {
    "description": "Ligne 3. Revenus d'emploi. Inscrivez le montant de la case 14 de tous vos feuillets T4, y compris le revenu d'emploi gagné à l'extérieur du Canada et tout revenu d'emploi pour lequel vous n'avez pas reçu de feuillet T4, ou le montant de la case 56, s'il y a lieu.",
    "class": "text",
    "bounding-box": [
     390.002,
     269.997,
     69.001,
     41.281
    ],
    "font-family": "Helvetica-Bold",
    "font-size": 9,
    "font-color": [
     0,
     0,
     0.502,
     1
    ],
    "align": "decimal",
    "align-v": "center",
    "aliases": {
     "line": 3
    },
    "origin": [
     441.003,
     309.278
    ],
    "format": ".2f",
    "max-length": 13
   },
   "/form1[0]/Page1[0]/PartA[0]/Line4[0]/Amount[0]": {
    "description": "Ligne 4. Ligne 2 moins ligne 3. Si négatif, inscrivez 0.",
    "class": "text",
    "bounding-box": [
     390.002,
     315,
     69.001,
     11.279
    ],
    "font-family": "Helvetica-Bold",
    "font-size": 9,
    "font-color": [
     0,
     0,
     0.502,
     1
    ],
    "align": "decimal",
    "align-v": "center",
    "aliases": {
     "line": 4
    },
    "origin": [
     441.003,
     324.279
    ],
    "format": ".2f",
    "max-length": 13
   },
   "/form1[0]/Page1[0]/PartA[0]/Line5[0]/Amount[0]": {
    "description": "Ligne 5. Inscrivez le montant le moins élevé: ligne 1 ou ligne 4. ",
    "class": "text",
    "bounding-box": [
     378.003,
     329.998,
     81,
     11.279
    ],
    "font-family": "Helvetica-Bold",
    "font-size": 9,
    "font-color": [
     0,
     0,
     0.502,
     1
    ],
    "align": "decimal",
    "align-v": "center",
    "aliases": {
     "line": 5
    },
    "origin": [
     441.003,
     339.277
    ],
    "format": ".2f",
    "max-length": 13
   },
   "/form1[0]/Page1[0]/PartA[0]/Line6[0]/Amount[0]": {
    "description": "Ligne 6. Taux de cotisation au régime provincial d'assurance parentale pour le revenu d'un travail indépendant.",
    "class": "text",
    "bounding-box": [
     390.002,
     344.999,
     69.001,
     11.279
    ],
    "font-family": "Helvetica",
    "font-size": 9,
    "font-color": [
     0,
     0,
     0,
     1
    ],
    "align": "decimal",
    "align-v": "center",
    "aliases": {
     "line": 6
    },
    "origin": [
     441.003,
     354.278
    ],
    "format": ".2f",
    "max-length": 13
   },
   "/form1[0]/Page1[0]/PartA[0]/Line7[0]/Amount7[0]": {
    "description": "Ligne 7. Ligne 5 multipliée par le pourcentage de la ligne 6. Maximum 772,64 $. Cas 1.",
    "class": "text",
    "bounding-box": [
     390.002,
     360,
     69.001,
     11.279
    ],
    "font-family": "Helvetica-Bold",
    "font-size": 9,
    "font-color": [
     0,
     0,
     0.502,
     1
    ],
    "align": "decimal",
    "align-v": "center",
    "aliases": {
     "line": 7
    },
    "origin": [
     441.003,
     369.279
    ],
    "format": ".2f",
    "max-length": 13
   },
   "/form1[0]/Page1[0]/PartA[0]/Line7[0]/Amount7[1]": {
    "description": "Ligne 7. Cas 2.",
    "class": "text",
    "bounding-box": [
     486.003,
     360,
     81,
     11.279
    ],
    "font-family": "Helvetica-Bold",
    "font-size": 9,
    "font-color": [
     0,
     0,
     0.502,
     1
    ],
    "align": "decimal",
    "align-v": "center",
    "aliases": {
     "line": 7
    },
    "origin": [
     549.003,
     369.279
    ],
    "format": ".2f",
    "max-length": 13
   },
   "/form1[0]/Page1[0]/PartA[0]/Line9[0]/Amount9[0]": {
    "description": "Ligne 9. Déduction pour cotisations au Régime provincial d'assurance parentale sur le revenu d'un travail indépendant. Ligne 7 multipliée par le pourcentage de la ligne 8. Inscrivez ce montant à la ligne 22300 de votre déclaration fédérale. Maximum 337,92 $. Cas 1.",
    "class": "text",
    "bounding-box": [
     390.002,
     390.719,
     69.001,
     43.56
    ],
    "font-family": "Helvetica-Bold",
    "font-size": 9,
    "font-color": [
     0,
     0,
     0.502,
     1
    ],
    "align": "decimal",
    "align-v": "center",
    "aliases": {
     "line": 9
    },
    "origin": [
     441.003,
     432.279
    ],
    "format": ".2f",
    "max-length": 13
   },
   "/form1[0]/Page1[0]/PartA[0]/Line9[0]/Amount9[1]": {
    "description": "Ligne 9. Cas 2.",
    "class": "text",
    "bounding-box": [
     498.002,
     423,
     69.001,
     11.279
    ],
    "font-family": "Helvetica-Bold",
    "font-size": 9,
    "font-color": [
     0,
     0,
     0.502,
     1
    ],
    "align": "decimal",
    "align-v": "center",
    "aliases": {
     "line": 9
    },
    "origin": [
     549.003,
     432.279
    ],
    "format": ".2f",
    "max-length": 13
   },
   "/form1[0]/Page1[0]/PartA[0]/Line10[0]/Amount[0]": {
    "description": "Ligne 10. Crédit d'impôt non remboursable pour les cotisations au régime provincial d'assurance parentale à payer sur le revenu d'un travail indépendant. Ligne 7 moins ligne 9. Inscrivez ce montant à la ligne 31215 de votre déclaration fédérale. Maximum 434,72 $.",
    "class": "text",
    "bounding-box": [
     498.002,
     441.72,
     69.001,
     34.56
    ],
    "font-family": "Helvetica-Bold",
    "font-size": 9,
    "font-color": [
     0,
     0,
     0.502,
     1
    ],
    "align": "decimal",
    "align-v": "center",
    "aliases": {
     "line": 10
    },
    "origin": [
     549.003,
     474.28
    ],
    "format": ".2f",
    "max-length": 13
   },
   "/form1[0]/Page1[0]/PartB[0]/Line11[0]/Amount[0]": {
    "description": "Ligne 54377. Ligne 11. Revenus d'emploi. Inscrivez le montant de la case 14 de tous vos feuillets T4 dont la province ou territoire d'emploi est autre que le Québec, y compris le revenu d'emploi gagné à l'extérieur du Canada, tout revenu exonéré gagné à l'extérieur du Québec et tout revenu d'emploi pour lequel vous n'avez pas reçu de feuillet T4.",
    "class": "text",
    "bounding-box": [
     486.003,
     569.999,
     81,
     23.281
    ],
    "font-family": "Helvetica-Bold",
    "font-size": 9,
    "font-color": [
     0,
     0,
     0.502,
     1
    ],
    "align": "decimal",
    "align-v": "center",
    "aliases": {
     "line": 11,
     "stable": 54377
    },
    "origin": [
     549.003,
     591.28
    ],
    "format": ".2f",
    "max-length": 13
   },
   "/form1[0]/Page1[0]/PartB[0]/Line12[0]/Amount[0]": {
    "description": "Ligne 12. Revenu maximal assurable au régime provincial d'assurance parentale.",
    "class": "text",
    "bounding-box": [
     378.003,
     596.999,
     81,
     11.279
    ],
    "font-family": "Helvetica",
    "font-size": 9,
    "font-color": [
     0,
     0,
     0,
     1
    ],
    "align": "decimal",
    "align-v": "center",
    "aliases": {
     "line": 12
    },
    "origin": [
     441.003,
     606.278
    ],
    "format": ".2f",
    "max-length": 13
   },
   "/form1[0]/Page1[0]/PartB[0]/Line13[0]/Amount[0]": {
    "description": "Ligne 54388. Ligne 13. Total des gains assurables du régime provincial d'assurance parentale. Inscrivez le montant de la case 56 de tous vos feuillets T4 dont le Québec est la province d'emploi. Si la case 56 est vide, inscrivez le montant de la case 14 du feuillet T4. Incluez un revenu d'emploi pour lesquel vous n'avez pas reçu de feuillet T4.",
    "class": "text",
    "bounding-box": [
     390.002,
     623.999,
     69.001,
     44.28
    ],
    "font-family": "Helvetica-Bold",
    "font-size": 9,
    "font-color": [
     0,
     0,
     0.502,
     1
    ],
    "align": "decimal",
    "align-v": "center",
    "aliases": {
     "line": 13,
     "stable": 54388
    },
    "origin": [
     441.003,
     666.279
    ],
    "format": ".2f",
    "max-length": 13
   },
   "/form1[0]/Page1[0]/PartB[0]/Line14[0]/Amount[0]": {
    "description": "Ligne 14. Ligne 12 moins ligne 13. Si négatif, inscrivez 0.",
    "class": "text",
    "bounding-box": [
     390.002,
     671.998,
     69.001,
     11.279
    ],
    "font-family": "Helvetica-Bold",
    "font-size": 9,
    "font-color": [
     0,
     0,
     0.502,
     1
    ],
    "align": "decimal",
    "align-v": "center",
    "aliases": {
     "line": 14
    },
    "origin": [
     441.003,
     681.277
    ],
    "format": ".2f",
    "max-length": 13
   },
   "/form1[0]/Page1[0]/PartB[0]/Line15[0]/Amount[0]": {
    "description": "Ligne 15. Inscrivez le montant le moins élevé: ligne 11 ou ligne 14.",
    "class": "text",
    "bounding-box": [
     486.003,
     686.999,
     81,
     11.279
    ],
    "font-family": "Helvetica-Bold",
    "font-size": 9,
    "font-color": [
     0,
     0,
     0.502,
     1
    ],
    "align": "decimal",
    "align-v": "center",
    "aliases": {
     "line": 15
    },
    "origin": [
     549.003,
     696.278
    ],
    "format": ".2f",
    "max-length": 13
   },
   "/form1[0]/Page1[0]/PartB[0]/Line16[0]/Amount[0]": {
    "description": "Ligne 16. Taux de cotisation au régime provincial d'assurance parentale pour le revenu d'emploi.",
    "class": "text",
    "bounding-box": [
     498.002,
     702,
     69.001,
     11.279
    ],
    "font-family": "Helvetica",
    "font-size": 9,
    "font-color": [
     0,
     0,
     0,
     1
    ],
    "align": "decimal",
    "align-v": "center",
    "aliases": {
     "line": 16
    },
    "origin": [
     549.003,
     711.279
    ],
    "format": ".2f",
    "max-length": 13
   },
   "/form1[0]/Page1[0]/PartB[0]/Line17[0]/Amount[0]": {
    "description": "Ligne 17. Crédit d'impôt non remboursable pour les cotisations au régime provincial d'assurance parentale à payer sur le revenu d'emploi. Ligne 15 multipliée par le pourcentage de la ligne 16. Inscrivez ce montant à la ligne 31210 de votre déclaration fédérale. Maximum 434,72 $.",
    "class": "text",
    "bounding-box": [
     498.002,
     717.718,
     69.001,
     34.56
    ],
    "font-family": "Helvetica-Bold",
    "font-size": 9,
    "font-color": [
     0,
     0,
     0.502,
     1
    ],
    "align": "decimal",
    "align-v": "center",
    "aliases": {
     "line": 17
    },
    "origin": [
     549.003,
     750.278
    ],
    "format": ".2f",
    "max-length": 13
   }
  }
 },
 "2": {
  "size": [
   612,
   792
  ],
  "fields": {
   "/form1[0]/#pageSet[0]/Page1[1]/ClearData_FR[0]": {
    "description": "Effacer les données",
    "class": "checkbox",
    "bounding-box": [
     492.001,
     2.999,
     96.001,
     15.001
    ],
    "font-family": "Helvetica",
    "font-size": 10,
    "font-color": [
     0,
     0,
     0,
     1
    ],
    "align": "center",
    "align-v": "center"
   },
   "/form1[0]/Page2[0]/PartC[0]/Line18[0]/Amount[0]": {
    "description": "Ligne 18. Total des gains assurables d'assurance emploi. Inscrivez le montant de la case 24 de tous vos feuillets T4. Si la case 24 est vide, inscrivez le montant de la case 14 sauf si la case 28 indique que les revenus T4 sont exonérés d'assurance emploi. Incluez un revenu d'emploi pour lesquel vous n'avez pas reçu de feuillet T4. Si le montant total est de 2 000 $ ou moins, inscrivez 0. Maximum 60 300 $.",
    "class": "text",
    "bounding-box": [
     486.003,
     96.001,
     81,
     23.281
    ],
    "font-family": "Helvetica-Bold",
    "font-size": 9,
    "font-color": [
     0,
     0,
     0.502,
     1
    ],
    "align": "decimal",
    "align-v": "center",
    "aliases": {
     "line": 18
    },
    "origin": [
     549.003,
     117.282
    ],
    "format": ".2f",
    "max-length": 13
   },
   "/form1[0]/Page2[0]/PartC[0]/Line19[0]/Amount[0]": {
    "description": "Ligne 19. Taux de cotisations à l'assurance emploi pour le revenu d'un travail indépendant et pour d'autres revenus.",
    "class": "text",
    "bounding-box": [
     498.002,
     123.001,
     69.001,
     11.279
    ],
    "font-family": "Helvetica",
    "font-size": 9,
    "font-color": [
     0,
     0,
     0,
     1
    ],
    "align": "decimal",
    "align-v": "center",
    "aliases": {
     "line": 19
    },
    "origin": [
     549.003,
     132.28
    ],
    "format": ".2f",
    "max-length": 13
   },
   "/form1[0]/Page2[0]/PartC[0]/Line20[0]/Amount[0]": {
    "description": "Ligne 20. Ligne 18 multipliée par le pourcentage de la ligne 19. Maximum 723,60 $.",
    "class": "text",
    "bounding-box": [
     498.002,
     137.999,
     69.001,
     11.279
    ],
    "font-family": "Helvetica-Bold",
    "font-size": 9,
    "font-color": [
     0,
     0,
     0.502,
     1
    ],
    "align": "decimal",
    "align-v": "center",
    "aliases": {
     "line": 20
    },
    "origin": [
     549.003,
     147.278
    ],
    "format": ".2f",
    "max-length": 13
   },
   "/form1[0]/Page2[0]/PartC[0]/Line21[0]/Remarque1[0]": {
    "description": "Remarque 1.",
    "class": "checkbox",
    "bounding-box": [
     291.002,
     153,
     36,
     11.999
    ],
    "font-family": "Helvetica",
    "font-size": 10,
    "font-color": [
     0,
     0,
     0,
     1
    ],
    "align": "center",
    "align-v": "center"
   },
   "/form1[0]/Page2[0]/PartC[0]/Line21[0]/Amount[0]": {
    "description": "Ligne 21. Total des cotisations à l'assurance-emploi. Case 18 de tous vos feuillets T4.",
    "class": "text",
    "bounding-box": [
     486.003,
     153,
     81,
     11.279
    ],
    "font-family": "Helvetica-Bold",
    "font-size": 9,
    "font-color": [
     0,
     0,
     0.502,
     1
    ],
    "align": "decimal",
    "align-v": "center",
    "aliases": {
     "line": 21
    },
    "origin": [
     549.003,
     162.279
    ],
    "format": ".2f",
    "max-length": 13
   },
   "/form1[0]/Page2[0]/PartC[0]/Line22[0]/Amount[0]": {
    "description": "Ligne 22. Montant de la ligne 20.",
    "class": "text",
    "bounding-box": [
     498.002,
     168.001,
     69.001,
     11.279
    ],
    "font-family": "Helvetica-Bold",
    "font-size": 9,
    "font-color": [
     0,
     0,
     0.502,
     1
    ],
    "align": "decimal",
    "align-v": "center",
    "aliases": {
     "line": 22,
     "ref": 20
    },
    "origin": [
     549.003,
     177.28
    ],
    "format": ".2f",
    "max-length": 13
   },
   "/form1[0]/Page2[0]/PartC[0]/Line23[0]/Amount[0]": {
    "description": "Ligne 23. Paiement en trop d'assurance-emploi. Ligne 21 moins ligne 22. Si négatif, inscrivez 0. Inscrivez ce montant à la ligne 45000 de votre déclaration fédérale.",
    "class": "text",
    "bounding-box": [
     498.002,
     183.719,
     69.001,
     34.56
    ],
    "font-family": "Helvetica-Bold",
    "font-size": 9,
    "font-color": [
     0,
     0,
     0.502,
     1
    ],
    "align": "decimal",
    "align-v": "center",
    "aliases": {
     "line": 23
    },
    "origin": [
     549.003,
     216.279
    ],
    "format": ".2f",
    "max-length": 13
   },
   "/form1[0]/Page2[0]/PartC[0]/Line24[0]/Amount[0]": {
    "description": "Ligne 24. Crédit d'impôt non remboursable pour les cotisation d'employé à l'assurance-emploi. Inscrivez le montant le moins élevé : ligne 20 ou ligne 21. Inscrivez ce montant à la ligne 31200 de votre déclaration fédérale.",
    "class": "text",
    "bounding-box": [
     486.003,
     234.72,
     81,
     22.561
    ],
    "font-family": "Helvetica-Bold",
    "font-size": 9,
    "font-color": [
     0,
     0,
     0.502,
     1
    ],
    "align": "decimal",
    "align-v": "center",
    "aliases": {
     "line": 24
    },
    "origin": [
     549.003,
     255.281
    ],
    "format": ".2f",
    "max-length": 13
   }
  }
 }
}