{
 "1": {
  "size": [
   612,
   792
  ],
  "fields": {
   "/form1[0]/#pageSet[0]/Page1[0]/ClearData_FR[0]": {
    "description": "Effacer les données",
    "class": "checkbox",
    "bounding-box": [
     492.001,
     2.999,
     96.001,
     15.001
    ],
    "font-family": "Helvetica",
    "font-size": 10,
    "font-color": [
     0,
     0,
     0,
     1
    ],
    "align": "center",
    "align-v": "center"
   },
   "/form1[0]/Page1[0]/Line1[0]/Amount1[0]": {
    "description": "Ligne 1. Montant fédéral inutilisé des frais de scolarité, du montant relatif aux études et du montant pour manuels selon votre avis de cotisation ou de nouvelle cotisation de 2021.",
    "class": "text",
    "bounding-box": [
     489.002,
     218.999,
     81,
     23.281
    ],
    "font-family": "Helvetica-Bold",
    "font-size": 9,
    "font-color": [
     0,
     0,
     0.502,
     1
    ],
    "align": "decimal",
    "align-v": "center",
    "aliases": {
     "line": 1
    },
    "origin": [
     552.002,
     240.28
    ],
    "format": ".2f",
    "max-length": 13
   },
   "/form1[0]/Page1[0]/Line2[0]/Remarque1[0]": {
    "description": "Remarque1",
    "class": "checkbox",
    "bounding-box": [
     180,
     254.999,
     36,
     11.999
    ],
    "font-family": "Helvetica",
    "font-size": 10,
    "font-color": [
     0,
     0,
     0,
     1
    ],
    "align": "center",
    "align-v": "center"
   },
   "/form1[0]/Page1[0]/Line2[0]/Amount2[0]": {
    "description": "Ligne 32000. Ligne 2. Frais de scolarité admissibles payés à des établissements d'enseignement canadiens pour 2022. ",
    "class": "text",
    "bounding-box": [
     381.002,
     245.999,
     81,
     23.281
    ],
    "font-family": "Helvetica-Bold",
    "font-size": 9,
    "font-color": [
     0,
     0,
     0.502,
     1
    ],
    "align": "decimal",
    "align-v": "center",
    "aliases": {
     "line": 2,
     "stable": 32000
    },
    "origin": [
     444.002,
     267.28
    ],
    "format": ".2f",
    "max-length": 13
   },
   "/form1[0]/Page1[0]/Line3[0]/Amount1[0]": {
    "description": "Montant de la ligne 2.",
    "class": "text",
    "bounding-box": [
     117,
     308.999,
     81,
     11.279
    ],
    "font-family": "Helvetica-Bold",
    "font-size": 9,
    "font-color": [
     0,
     0,
     0.502,
     1
    ],
    "align": "decimal",
    "align-v": "center",
    "aliases": {
     "line": 2
    },
    "origin": [
     180,
     318.278
    ],
    "format": ".2f",
    "max-length": 13
   },
   "/form1[0]/Page1[0]/Line3[0]/Amount3[0]": {
    "description": "Ligne 3. Montant de la ligne 2 multiplié par 50 pour cent.",
    "class": "text",
    "bounding-box": [
     273.002,
     308.999,
     81,
     11.279
    ],
    "font-family": "Helvetica-Bold",
    "font-size": 9,
    "font-color": [
     0,
     0,
     0.502,
     1
    ],
    "align": "decimal",
    "align-v": "center",
    "aliases": {
     "line": 3
    },
    "origin": [
     336.002,
     318.278
    ],
    "format": ".2f",
    "max-length": 13
   },
   "/form1[0]/Page1[0]/Line4[0]/Amount6[0]": {
    "description": "Ligne 4. Votre plafond du crédit canadien pour la formation selon votre plus récent avis de cotisation ou de nouvelle cotisation.",
    "class": "text",
    "bounding-box": [
     273.002,
     335.999,
     81,
     23.281
    ],
    "font-family": "Helvetica-Bold",
    "font-size": 9,
    "font-color": [
     0,
     0,
     0.502,
     1
    ],
    "align": "decimal",
    "align-v": "center",
    "aliases": {
     "line": 4
    },
    "origin": [
     336.002,
     357.28
    ],
    "format": ".2f",
    "max-length": 13
   },
   "/form1[0]/Page1[0]/Line5[0]/Amount5[0]": {
    "description": "Ligne 5. Inscrivez le montant le moins élevé. Ligne 3 ou ligne  4.",
    "class": "text",
    "bounding-box": [
     273.002,
     362.999,
     81,
     23.281
    ],
    "font-family": "Helvetica-Bold",
    "font-size": 9,
    "font-color": [
     0,
     0,
     0.502,
     1
    ],
    "align": "decimal",
    "align-v": "center",
    "aliases": {
     "line": 5
    },
    "origin": [
     336.002,
     384.28
    ],
    "format": ".2f",
    "max-length": 13
   },
   "/form1[0]/Page1[0]/Line6[0]/Amount6[0]": {
    "description": "Ligne 6. Crédit canadien pour la formation pour 2022. Inscrivez le crédit canadien pour la formation que vous demandez. Ne peut pas dépasser la ligne 5. Inscrivez ce montant à la ligne 45350 de votre déclaration.",
    "class": "text",
    "bounding-box": [
     393.001,
     410.998,
     69.001,
     23.281
    ],
    "font-family": "Helvetica-Bold",
    "font-size": 9,
    "font-color": [
     0,
     0,
     0.502,
     1
    ],
    "align": "decimal",
    "align-v": "center",
    "aliases": {
     "line": 6
    },
    "origin": [
     444.002,
     432.279
    ],
    "format": ".2f",
    "max-length": 13
   },
   "/form1[0]/Page1[0]/Line7[0]/Amount8[0]": {
    "description": "Ligne 7. Montant disponible pour les frais de scolarité au Canada pour 2022. Ligne 2 moins ligne 6.",
    "class": "text",
    "bounding-box": [
     393.001,
     438.001,
     69.001,
     23.281
    ],
    "font-family": "Helvetica-Bold",
    "font-size": 9,
    "font-color": [
     0,
     0,
     0.502,
     1
    ],
    "align": "decimal",
    "align-v": "center",
    "aliases": {
     "line": 7
    },
    "origin": [
     444.002,
     459.282
    ],
    "format": ".2f",
    "max-length": 13
   },
   "/form1[0]/Page1[0]/Line8[0]/Amount9[0]": {
    "description": "Ligne 32001. Ligne 8. Frais de scolarité admissibles payés à des établissements d'enseignement étrangers pour 2022.",
    "class": "text",
    "bounding-box": [
     393.001,
     465.001,
     69.001,
     23.281
    ],
    "font-family": "Helvetica-Bold",
    "font-size": 9,
    "font-color": [
     0,
     0,
     0.502,
     1
    ],
    "align": "decimal",
    "align-v": "center",
    "aliases": {
     "line": 8,
     "stable": 32001
    },
    "origin": [
     444.002,
     486.282
    ],
    "format": ".2f",
    "max-length": 13
   },
   "/form1[0]/Page1[0]/Line9[0]/Amount1[0]": {
    "description": "Ligne 9. Ligne 7 plus ligne 8. Cas 1.",
    "class": "text",
    "bounding-box": [
     393.001,
     492.001,
     69.001,
     11.279
    ],
    "font-family": "Helvetica-Bold",
    "font-size": 9,
    "font-color": [
     0,
     0,
     0.502,
     1
    ],
    "align": "decimal",
    "align-v": "center",
    "aliases": {
     "line": 9
    },
    "origin": [
     444.002,
     501.28
    ],
    "format": ".2f",
    "max-length": 13
   },
   "/form1[0]/Page1[0]/Line9[0]/Amount10[0]": {
    "description": "Ligne 9. Cas 2.",
    "class": "text",
    "bounding-box": [
     501.001,
     492.001,
     69.001,
     11.279
    ],
    "font-family": "Helvetica-Bold",
    "font-size": 9,
    "font-color": [
     0,
     0,
     0.502,
     1
    ],
    "align": "decimal",
    "align-v": "center",
    "aliases": {
     "line": 9
    },
    "origin": [
     552.002,
     501.28
    ],
    "format": ".2f",
    "max-length": 13
   },
   "/form1[0]/Page1[0]/Line10[0]/Amount11[0]": {
    "description": "Ligne 10. Total disponible des frais de scolarité, du montant relatif aux études et du montant pour manuels pour 2022. Ligne 1 plus ligne 9.",
    "class": "text",
    "bounding-box": [
     501.001,
     506.999,
     69.001,
     23.281
    ],
    "font-family": "Helvetica-Bold",
    "font-size": 9,
    "font-color": [
     0,
     0,
     0.502,
     1
    ],
    "align": "decimal",
    "align-v": "center",
    "aliases": {
     "line": 10
    },
    "origin": [
     552.002,
     528.28
    ],
    "format": ".2f",
    "max-length": 13
   },
   "/form1[0]/Page1[0]/Line11[0]/Amount12[0]": {
    "description": "Montant de la ligne 74 de votre déclaration.",
    "class": "text",
    "bounding-box": [
     219.002,
     567,
     81,
     11.279
    ],
    "font-family": "Helvetica-Bold",
    "font-size": 8,
    "font-color": [
     0,
     0,
     0.502,
     1
    ],
    "align": "center",
    "align-v": "center"
   },
   "/form1[0]/Page1[0]/Line11[0]/Amoutn12[0]": {
    "description": "Ligne 11. Inscrivez le montant de la ligne 26000 de votre déclaration s'il est de 50 197 $ ou moins. S'il est plus de 50 197 $, inscrivez le montant de la ligne 74 de votre déclaration divisé par 15 %.",
    "class": "text",
    "bounding-box": [
     381.002,
     555.001,
     81,
     23.281
    ],
    "font-family": "Helvetica-Bold",
    "font-size": 9,
    "font-color": [
     0,
     0,
     0.502,
     1
    ],
    "align": "decimal",
    "align-v": "center",
    "aliases": {
     "line": 11
    },
    "origin": [
     444.002,
     576.282
    ],
    "format": ".2f",
    "max-length": 13
   },
   "/form1[0]/Page1[0]/Line12[0]/Amount5[0]": {
    "description": "Ligne 12. Inscrivez le montant de la ligne 103 de votre déclaration.",
    "class": "text",
    "bounding-box": [
     393.001,
     582.001,
     69.001,
     11.279
    ],
    "font-family": "Helvetica-Bold",
    "font-size": 9,
    "font-color": [
     0,
     0,
     0.502,
     1
    ],
    "align": "decimal",
    "align-v": "center",
    "aliases": {
     "line": 12
    },
    "origin": [
     444.002,
     591.28
    ],
    "format": ".2f",
    "max-length": 13
   },
   "/form1[0]/Page1[0]/Line13[0]/Amount14[0]": {
    "description": "Ligne 13. Ligne 11 moins ligne 12. Si négatif, inscrivez 0.",
    "class": "text",
    "bounding-box": [
     393.001,
     596.999,
     69.001,
     11.279
    ],
    "font-family": "Helvetica-Bold",
    "font-size": 9,
    "font-color": [
     0,
     0,
     0.502,
     1
    ],
    "align": "decimal",
    "align-v": "center",
    "aliases": {
     "line": 13
    },
    "origin": [
     444.002,
     606.278
    ],
    "format": ".2f",
    "max-length": 13
   },
   "/form1[0]/Page1[0]/Line14[0]/Line_13_Amount[0]": {
    "description": "Ligne 14. Montant inutilisé des frais de scolarité, du montant relatif aux études et du montant pour manuels demandés pour 2022. Inscrivez le montant le moins élevé. Ligne 1 ou ligne 13. Cas 1.",
    "class": "text",
    "bounding-box": [
     393.001,
     612,
     69.001,
     35.28
    ],
    "font-family": "Helvetica-Bold",
    "font-size": 9,
    "font-color": [
     0,
     0,
     0.502,
     1
    ],
    "align": "decimal",
    "align-v": "center",
    "aliases": {
     "line": 14
    },
    "origin": [
     444.002,
     645.28
    ],
    "format": ".2f",
    "max-length": 13
   },
   "/form1[0]/Page1[0]/Line14[0]/Amount15[0]": {
    "description": "Ligne 14. Cas 2.",
    "class": "text",
    "bounding-box": [
     489.002,
     612,
     81,
     35.28
    ],
    "font-family": "Helvetica-Bold",
    "font-size": 9,
    "font-color": [
     0,
     0,
     0.502,
     1
    ],
    "align": "decimal",
    "align-v": "center",
    "aliases": {
     "line": 14
    },
    "origin": [
     552.002,
     645.28
    ],
    "format": ".2f",
    "max-length": 13
   },
   "/form1[0]/Page1[0]/Line15[0]/Amount16[0]": {
    "description": "Ligne 15. Ligne 13 moins ligne 14.",
    "class": "text",
    "bounding-box": [
     393.001,
     650.999,
     69.001,
     11.279
    ],
    "font-family": "Helvetica-Bold",
    "font-size": 9,
    "font-color": [
     0,
     0,
     0.502,
     1
    ],
    "align": "decimal",
    "align-v": "center",
    "aliases": {
     "line": 15
    },
    "origin": [
     444.002,
     660.278
    ],
    "format": ".2f",
    "max-length": 13
   },
   "/form1[0]/Page1[0]/Line16[0]/Amount17[0]": {
    "description": "Ligne 16. Frais de scolarité de 2022. Inscrivez le montant le moins élevé. Ligne 9 ou ligne 15.",
    "class": "text",
    "bounding-box": [
     501.001,
     666,
     69.001,
     23.281
    ],
    "font-family": "Helvetica-Bold",
    "font-size": 9,
    "font-color": [
     0,
     0,
     0.502,
     1
    ],
    "align": "decimal",
    "align-v": "center",
    "aliases": {
     "line": 16
    },
    "origin": [
     552.002,
     687.281
    ],
    "format": ".2f",
    "max-length": 13
   },
   "/form1[0]/Page1[0]/Line17[0]/Amount18[0]": {
    "description": "Ligne 17. Vos frais de scolarité, montant relatif aux études et montant pour manuels demandés pour 2022. Ligne 14 plus ligne 16. Inscrivez ce montant à la ligne 32300 de votre déclaration.",
    "class": "text",
    "bounding-box": [
     501.001,
     693,
     69.001,
     32.281
    ],
    "font-family": "Helvetica-Bold",
    "font-size": 9,
    "font-color": [
     0,
     0,
     0.502,
     1
    ],
    "align": "decimal",
    "align-v": "center",
    "aliases": {
     "line": 17
    },
    "origin": [
     552.002,
     723.281
    ],
    "format": ".2f",
    "max-length": 13
   }
  }
 },
 "2": {
  "size": [
   612,
   792
  ],
  "fields": {
   "/form1[0]/#pageSet[0]/Page1[1]/ClearData_FR[0]": {
    "description": "Effacer les données",
    "class": "checkbox",
    "bounding-box": [
     492.001,
     2.999,
     96.001,
     15.001
    ],
    "font-family": "Helvetica",
    "font-size": 10,
    "font-color": [
     0,
     0,
     0,
     1
    ],
    "align": "center",
    "align-v": "center"
   },
   "/form1[0]/Page2[0]/Inscription[0]/ligne_32005[0]/CheckBox[0]": {
    "description": "Case 32005. Cochez cette case si vous étiez admissible au crédit d'impôt pour personnes handicapées en 2022 ou si vous avez eu une déficience mentale ou physique en 2022 et qu'un professionnel de la santé a certifié que, en raison de votre déficience, on ne peut raisonnablement pas s'attendre à ce que vous soyez inscrit comme étudiant à temps plein.",
    "class": "checkbox",
    "bounding-box": [
     489.001,
     129.001,
     12,
     12
    ],
    "font-family": "ZapfDingbats",
    "font-size": 8.4,
    "font-color": [
     0,
     0,
     0.502,
     1
    ],
    "align": "center",
    "align-v": "center"
   },
   "/form1[0]/Page2[0]/Inscription[0]/Line32010[0]/Part_time_months[0]": {
    "description": "Ligne 32010. Inscrivez le nombre de mois où vous étiez inscrit à temps partiel selon la case 24 de votre formulaire T2202 et la colonne B de vos formulaires TL11A et TL11C. Maximum 12.",
    "class": "text",
    "bounding-box": [
     489.002,
     155.999,
     29.999,
     11.279
    ],
    "font-family": "Helvetica-Bold",
    "font-size": 9,
    "font-color": [
     0,
     0,
     0.502,
     1
    ],
    "align": "decimal",
    "align-v": "center",
    "aliases": {
     "stable": 32010
    },
    "origin": [
     501.001,
     165.278
    ],
    "format": ".2f",
    "max-length": 13
   },
   "/form1[0]/Page2[0]/Inscription[0]/Line32020[0]/Full_time_months[0]": {
    "description": "Ligne 32020. Inscrivez le nombre de mois où vous étiez inscrit à temps plein selon la case 25 de votre formulaire T2202 et la colonne C de vos formulaires TL11A et TL11C. Maximum 12.",
    "class": "text",
    "bounding-box": [
     489.002,
     182.999,
     29.999,
     11.279
    ],
    "font-family": "Helvetica-Bold",
    "font-size": 9,
    "font-color": [
     0,
     0,
     0.502,
     1
    ],
    "align": "decimal",
    "align-v": "center",
    "aliases": {
     "stable": 32020
    },
    "origin": [
     501.001,
     192.278
    ],
    "format": ".2f",
    "max-length": 13
   },
   "/form1[0]/Page2[0]/Transfert[0]/Line18[0]/Amount19[0]": {
    "description": "Ligne 18. Montant de la ligne 10 de la page précédente.",
    "class": "text",
    "bounding-box": [
     489.002,
     326.999,
     81,
     11.279
    ],
    "font-family": "Helvetica-Bold",
    "font-size": 9,
    "font-color": [
     0,
     0,
     0.502,
     1
    ],
    "align": "decimal",
    "align-v": "center",
    "aliases": {
     "line": 18
    },
    "origin": [
     552.002,
     336.278
    ],
    "format": ".2f",
    "max-length": 13
   },
   "/form1[0]/Page2[0]/Transfert[0]/Line19[0]/Amount20[0]": {
    "description": "Ligne 19. Montant de la ligne 17 de la page précédente.",
    "class": "text",
    "bounding-box": [
     501.001,
     342,
     69.001,
     11.279
    ],
    "font-family": "Helvetica-Bold",
    "font-size": 9,
    "font-color": [
     0,
     0,
     0.502,
     1
    ],
    "align": "decimal",
    "align-v": "center",
    "aliases": {
     "line": 19
    },
    "origin": [
     552.002,
     351.279
    ],
    "format": ".2f",
    "max-length": 13
   },
   "/form1[0]/Page2[0]/Transfert[0]/Line20[0]/Amount21[0]": {
    "description": "Ligne 20. Montant total inutilisé. Ligne 18 moins ligne 19.",
    "class": "text",
    "bounding-box": [
     501.001,
     356.998,
     69.001,
     11.279
    ],
    "font-family": "Helvetica-Bold",
    "font-size": 9,
    "font-color": [
     0,
     0,
     0.502,
     1
    ],
    "align": "decimal",
    "align-v": "center",
    "aliases": {
     "line": 20
    },
    "origin": [
     552.002,
     366.277
    ],
    "format": ".2f",
    "max-length": 13
   },
   "/form1[0]/Page2[0]/Transfert[0]/Line21[0]/Amount22[0]": {
    "description": "Ligne 21. Montant de la ligne 9 de la page précédente. Maximum 5 000 $.",
    "class": "text",
    "bounding-box": [
     381.002,
     407.999,
     81,
     11.279
    ],
    "font-family": "Helvetica-Bold",
    "font-size": 9,
    "font-color": [
     0,
     0,
     0.502,
     1
    ],
    "align": "decimal",
    "align-v": "center",
    "aliases": {
     "line": 21
    },
    "origin": [
     444.002,
     417.278
    ],
    "format": ".2f",
    "max-length": 13
   },
   "/form1[0]/Page2[0]/Transfert[0]/Line22[0]/Amount23[0]": {
    "description": "Ligne 22. Montant de la ligne 16 de la page précédente.",
    "class": "text",
    "bounding-box": [
     393.001,
     423,
     69.001,
     11.279
    ],
    "font-family": "Helvetica-Bold",
    "font-size": 9,
    "font-color": [
     0,
     0,
     0.502,
     1
    ],
    "align": "decimal",
    "align-v": "center",
    "aliases": {
     "line": 22
    },
    "origin": [
     444.002,
     432.279
    ],
    "format": ".2f",
    "max-length": 13
   },
   "/form1[0]/Page2[0]/Transfert[0]/Line23[0]/Amount24[0]": {
    "description": "Ligne 23. Montant inutilisé des frais de scolarité disponible à transférer. Ligne 21 moins ligne 22. Si négatif, inscrivez 0.",
    "class": "text",
    "bounding-box": [
     393.001,
     437.998,
     69.001,
     23.281
    ],
    "font-family": "Helvetica-Bold",
    "font-size": 9,
    "font-color": [
     0,
     0,
     0.502,
     1
    ],
    "align": "decimal",
    "align-v": "center",
    "aliases": {
     "line": 23
    },
    "origin": [
     444.002,
     459.279
    ],
    "format": ".2f",
    "max-length": 13
   },
   "/form1[0]/Page2[0]/Transfert[0]/Line24[0]/Amount25[0]": {
    "description": "Ligne 32700. Ligne 24. Montant fédéral des frais de scolarité transféré. Inscrivez le montant fédéral que vous transférez \rcomme précisé sur vos formulaires de frais de scolarité. Ne peut pas dépasser le montant de la ligne 23.",
    "class": "text",
    "bounding-box": [
     501.001,
     476.997,
     69.001,
     23.281
    ],
    "font-family": "Helvetica-Bold",
    "font-size": 9,
    "font-color": [
     0,
     0,
     0.502,
     1
    ],
    "align": "decimal",
    "align-v": "center",
    "aliases": {
     "line": 24,
     "stable": 32700
    },
    "origin": [
     552.002,
     498.278
    ],
    "format": ".2f",
    "max-length": 13
   },
   "/form1[0]/Page2[0]/Transfert[0]/Line25[0]/Amount26[0]": {
    "description": "Ligne 25. Montant fédéral inutilisé disponible à reporter à une année future. Ligne 20 moins ligne 24.",
    "class": "text",
    "bounding-box": [
     501.001,
     504,
     69.001,
     23.281
    ],
    "font-family": "Helvetica-Bold",
    "font-size": 9,
    "font-color": [
     0,
     0,
     0.502,
     1
    ],
    "align": "decimal",
    "align-v": "center",
    "aliases": {
     "line": 25
    },
    "origin": [
     552.002,
     525.281
    ],
    "format": ".2f",
    "max-length": 13
   }
  }
 }
}