{
 "1": {
  "size": [
   603.0,
   774.0
  ],
  "fields": {
   "checkbox": {
    "bounding-box": [
     258.0,
     198.75,
     12.0,
     12.0
    ],
    "font-color": [
     0,
     0,
     1,
     1
    ]
   },
   "checkbox/1": {
    "bounding-box": [
     258.0,
     210.75,
     12.0,
     12.0
    ],
    "font-color": [
     0,
     0,
     1,
     1
    ]
   },
   "checkbox/2": {
    "bounding-box": [
     258.0,
     222.75,
     12.0,
     12.0
    ],
    "font-color": [
     0,
     0,
     1,
     1
    ]
   },
   "numeric-10": {
    "origin": [
     553.5,
     126.1275
    ],
    "align": "decimal",
    "format": ".2f",
    "font-size": 9,
    "max-length": 13,
    "font-color": [
     0,
     0,
     1,
     1
    ],
    "character-spacing": 12
   },
   "numeric-12": {
    "origin": [
     442.5,
     138.1275
    ],
    "align": "decimal",
    "format": ".2f",
    "font-size": 9,
    "max-length": 13,
    "font-color": [
     0,
     0,
     1,
     1
    ],
    "character-spacing": 12
   },
   "numeric-14": {
    "origin": [
     442.5,
     149.5025
    ],
    "align": "decimal",
    "format": ".2f",
    "font-size": 9,
    "max-length": 13,
    "font-color": [
     0,
     0,
     1,
     1
    ],
    "character-spacing": 12
   },
   "numeric-16": {
    "origin": [
     553.5,
     161.5025
    ],
    "align": "decimal",
    "format": ".2f",
    "font-size": 9,
    "max-length": 13,
    "font-color": [
     0,
     0,
     1,
     1
    ],
    "character-spacing": 12
   },
   "numeric-16/1": {
    "origin": [
     442.5,
     162.1275
    ],
    "align": "decimal",
    "format": ".2f",
    "font-size": 9,
    "max-length": 13,
    "font-color": [
     0,
     0,
     1,
     1
    ],
    "character-spacing": 12
   },
   "numeric-18": {
    "origin": [
     553.5,
     174.1275
    ],
    "align": "decimal",
    "format": ".2f",
    "font-size": 9,
    "max-length": 13,
    "font-color": [
     0,
     0,
     1,
     1
    ],
    "character-spacing": 12
   },
   "numeric-20": {
    "origin": [
     442.5,
     186.1275
    ],
    "align": "decimal",
    "format": ".2f",
    "font-size": 9,
    "max-length": 13,
    "font-color": [
     0,
     0,
     1,
     1
    ],
    "character-spacing": 12
   },
   "numeric-22": {
    "origin": [
     442.5,
     198.1275
    ],
    "align": "decimal",
    "format": ".2f",
    "font-size": 9,
    "max-length": 13,
    "font-color": [
     0,
     0,
     1,
     1
    ],
    "character-spacing": 12
   },
   "numeric-23": {
    "origin": [
     331.5,
     210.1275
    ],
    "align": "decimal",
    "format": ".2f",
    "font-size": 9,
    "max-length": 13,
    "font-color": [
     0,
     0,
     1,
     1
    ],
    "character-spacing": 12
   },
   "numeric-24": {
    "origin": [
     331.5,
     221.5025
    ],
    "align": "decimal",
    "format": ".2f",
    "font-size": 9,
    "max-length": 13,
    "font-color": [
     0,
     0,
     1,
     1
    ],
    "character-spacing": 12
   },
   "numeric-25": {
    "origin": [
     331.5,
     234.1275
    ],
    "align": "decimal",
    "format": ".2f",
    "font-size": 9,
    "max-length": 13,
    "font-color": [
     0,
     0,
     1,
     1
    ],
    "character-spacing": 12
   },
   "numeric-25/1": {
    "origin": [
     442.5,
     234.1275
    ],
    "align": "decimal",
    "format": ".2f",
    "font-size": 9,
    "max-length": 13,
    "font-color": [
     0,
     0,
     1,
     1
    ],
    "character-spacing": 12
   },
   "numeric-26": {
    "origin": [
     442.5,
     246.1275
    ],
    "align": "decimal",
    "format": ".2f",
    "font-size": 9,
    "max-length": 13,
    "font-color": [
     0,
     0,
     1,
     1
    ],
    "character-spacing": 12
   },
   "numeric-28": {
    "origin": [
     442.5,
     258.1275
    ],
    "align": "decimal",
    "format": ".2f",
    "font-size": 9,
    "max-length": 13,
    "font-color": [
     0,
     0,
     1,
     1
    ],
    "character-spacing": 12
   },
   "numeric-29": {
    "origin": [
     442.5,
     270.1275
    ],
    "align": "decimal",
    "format": ".2f",
    "font-size": 9,
    "max-length": 13,
    "font-color": [
     0,
     0,
     1,
     1
    ],
    "character-spacing": 12
   },
   "numeric-30": {
    "origin": [
     442.5,
     282.1275
    ],
    "align": "decimal",
    "format": ".2f",
    "font-size": 9,
    "max-length": 13,
    "font-color": [
     0,
     0,
     1,
     1
    ],
    "character-spacing": 12
   },
   "numeric-31": {
    "origin": [
     442.5,
     304.1275
    ],
    "align": "decimal",
    "format": ".2f",
    "font-size": 9,
    "max-length": 13,
    "font-color": [
     0,
     0,
     1,
     1
    ],
    "character-spacing": 12
   },
   "numeric-33": {
    "origin": [
     442.5,
     315.5025
    ],
    "align": "decimal",
    "format": ".2f",
    "font-size": 9,
    "max-length": 13,
    "font-color": [
     0,
     0,
     1,
     1
    ],
    "character-spacing": 12
   },
   "numeric-34": {
    "origin": [
     553.5,
     327.5025
    ],
    "align": "decimal",
    "format": ".2f",
    "font-size": 9,
    "max-length": 13,
    "font-color": [
     0,
     0,
     1,
     1
    ],
    "character-spacing": 12
   },
   "numeric-34/1": {
    "origin": [
     442.5,
     328.1275
    ],
    "align": "decimal",
    "format": ".2f",
    "font-size": 9,
    "max-length": 13,
    "font-color": [
     0,
     0,
     1,
     1
    ],
    "character-spacing": 12
   },
   "numeric-36": {
    "origin": [
     553.5,
     351.1275
    ],
    "align": "decimal",
    "format": ".2f",
    "font-size": 9,
    "max-length": 13,
    "font-color": [
     0,
     0,
     1,
     1
    ],
    "character-spacing": 12
   },
   "numeric-41": {
    "origin": [
     442.8,
     386.7525
    ],
    "align": "decimal",
    "format": ".2f",
    "font-size": 9,
    "max-length": 13,
    "font-color": [
     0,
     0,
     1,
     1
    ],
    "character-spacing": 12
   },
   "numeric-42": {
    "origin": [
     442.8,
     398.7525
    ],
    "align": "decimal",
    "format": ".2f",
    "font-size": 9,
    "max-length": 13,
    "font-color": [
     0,
     0,
     1,
     1
    ],
    "character-spacing": 12
   },
   "numeric-43": {
    "origin": [
     442.8,
     410.7525
    ],
    "align": "decimal",
    "format": ".2f",
    "font-size": 9,
    "max-length": 13,
    "font-color": [
     0,
     0,
     1,
     1
    ],
    "character-spacing": 12
   },
   "numeric-43.1": {
    "origin": [
     442.8,
     432.7525
    ],
    "align": "decimal",
    "format": ".2f",
    "font-size": 9,
    "max-length": 13,
    "font-color": [
     0,
     0,
     1,
     1
    ],
    "character-spacing": 12
   },
   "numeric-44": {
    "origin": [
     442.8,
     454.7525
    ],
    "align": "decimal",
    "format": ".2f",
    "font-size": 9,
    "max-length": 13,
    "font-color": [
     0,
     0,
     1,
     1
    ],
    "character-spacing": 12
   },
   "numeric-45": {
    "origin": [
     442.8,
     466.7525
    ],
    "align": "decimal",
    "format": ".2f",
    "font-size": 9,
    "max-length": 13,
    "font-color": [
     0,
     0,
     1,
     1
    ],
    "character-spacing": 12
   },
   "numeric-46": {
    "origin": [
     442.8,
     478.7525
    ],
    "align": "decimal",
    "format": ".2f",
    "font-size": 9,
    "max-length": 13,
    "font-color": [
     0,
     0,
     1,
     1
    ],
    "character-spacing": 12
   },
   "numeric-54": {
    "origin": [
     442.8,
     490.7525
    ],
    "align": "decimal",
    "format": ".2f",
    "font-size": 9,
    "max-length": 13,
    "font-color": [
     0,
     0,
     1,
     1
    ],
    "character-spacing": 12
   },
   "numeric-56": {
    "origin": [
     442.8,
     502.7525
    ],
    "align": "decimal",
    "format": ".2f",
    "font-size": 9,
    "max-length": 13,
    "font-color": [
     0,
     0,
     1,
     1
    ],
    "character-spacing": 12
   },
   "numeric-58": {
    "origin": [
     442.8,
     514.7525
    ],
    "align": "decimal",
    "format": ".2f",
    "font-size": 9,
    "max-length": 13,
    "font-color": [
     0,
     0,
     1,
     1
    ],
    "character-spacing": 12
   },
   "numeric-60": {
    "origin": [
     442.8,
     536.7525
    ],
    "align": "decimal",
    "format": ".2f",
    "font-size": 9,
    "max-length": 13,
    "font-color": [
     0,
     0,
     1,
     1
    ],
    "character-spacing": 12
   },
   "numeric-62": {
    "origin": [
     442.8,
     558.1275
    ],
    "align": "decimal",
    "format": ".2f",
    "font-size": 9,
    "max-length": 13,
    "font-color": [
     0,
     0,
     1,
     1
    ],
    "character-spacing": 12
   },
   "numeric-68": {
    "origin": [
     553.8,
     570.1275
    ],
    "align": "decimal",
    "format": ".2f",
    "font-size": 9,
    "max-length": 13,
    "font-color": [
     0,
     0,
     1,
     1
    ],
    "character-spacing": 12
   },
   "numeric-68/1": {
    "origin": [
     442.8,
     570.7525
    ],
    "align": "decimal",
    "format": ".2f",
    "font-size": 9,
    "max-length": 13,
    "font-color": [
     0,
     0,
     1,
     1
    ],
    "character-spacing": 12
   },
   "numeric-70": {
    "origin": [
     553.8,
     593.7525
    ],
    "align": "decimal",
    "format": ".2f",
    "font-size": 9,
    "max-length": 13,
    "font-color": [
     0,
     0,
     1,
     1
    ],
    "character-spacing": 12
   }
  }
 }
}