{
 "1": {
  "size": [
   603.0,
   774.0
  ],
  "fields": {
   "numeric-10": {
    "origin": [
     547.3949,
     287.123
    ],
    "align": "decimal",
    "format": ".2f",
    "font-size": 9,
    "max-length": 13,
    "font-color": [
     0,
     0,
     1,
     1
    ],
    "character-spacing": 12
   },
   "numeric-12": {
    "origin": [
     415.3949,
     311.123
    ],
    "align": "decimal",
    "format": ".2f",
    "font-size": 9,
    "max-length": 13,
    "font-color": [
     0,
     0,
     1,
     1
    ],
    "character-spacing": 12
   },
   "numeric-13": {
    "origin": [
     415.3949,
     335.123
    ],
    "align": "decimal",
    "format": ".2f",
    "font-size": 9,
    "max-length": 13,
    "font-color": [
     0,
     0,
     1,
     1
    ],
    "character-spacing": 12
   },
   "numeric-14": {
    "origin": [
     415.3949,
     347.123
    ],
    "align": "decimal",
    "format": ".2f",
    "font-size": 9,
    "max-length": 13,
    "font-color": [
     0,
     0,
     1,
     1
    ],
    "character-spacing": 12
   },
   "numeric-16": {
    "origin": [
     415.3949,
     358.4981
    ],
    "align": "decimal",
    "format": ".2f",
    "font-size": 9,
    "max-length": 13,
    "font-color": [
     0,
     0,
     1,
     1
    ],
    "character-spacing": 12
   },
   "numeric-18": {
    "origin": [
     547.3949,
     370.4981
    ],
    "align": "decimal",
    "format": ".2f",
    "font-size": 9,
    "max-length": 13,
    "font-color": [
     0,
     0,
     1,
     1
    ],
    "character-spacing": 12
   },
   "numeric-18/1": {
    "origin": [
     415.3949,
     371.1231
    ],
    "align": "decimal",
    "format": ".2f",
    "font-size": 9,
    "max-length": 13,
    "font-color": [
     0,
     0,
     1,
     1
    ],
    "character-spacing": 12
   },
   "numeric-20": {
    "origin": [
     547.3949,
     383.1231
    ],
    "align": "decimal",
    "format": ".2f",
    "font-size": 9,
    "max-length": 13,
    "font-color": [
     0,
     0,
     1,
     1
    ],
    "character-spacing": 12
   },
   "numeric-22": {
    "origin": [
     547.3949,
     418.7481
    ],
    "align": "decimal",
    "format": ".2f",
    "font-size": 9,
    "max-length": 13,
    "font-color": [
     0,
     0,
     1,
     1
    ],
    "character-spacing": 12
   },
   "numeric-50": {
    "origin": [
     547.3949,
     496.6231
    ],
    "align": "decimal",
    "format": ".2f",
    "font-size": 9,
    "max-length": 13,
    "font-color": [
     0,
     0,
     1,
     1
    ],
    "character-spacing": 12
   },
   "numeric-52": {
    "origin": [
     547.3949,
     508.6231
    ],
    "align": "decimal",
    "format": ".2f",
    "font-size": 9,
    "max-length": 13,
    "font-color": [
     0,
     0,
     1,
     1
    ],
    "character-spacing": 12
   },
   "numeric-53": {
    "origin": [
     547.3949,
     520.6231
    ],
    "align": "decimal",
    "format": ".2f",
    "font-size": 9,
    "max-length": 13,
    "font-color": [
     0,
     0,
     1,
     1
    ],
    "character-spacing": 12
   },
   "numeric-58": {
    "origin": [
     547.3949,
     556.2481
    ],
    "align": "decimal",
    "format": ".2f",
    "font-size": 9,
    "max-length": 13,
    "font-color": [
     0,
     0,
     1,
     1
    ],
    "character-spacing": 12
   },
   "char-3": {
    "origin": [
     57.3749,
     216.4955
    ],
    "max-length": 32,
    "character-spacing": 12,
    "font-color": [
     0,
     0,
     1,
     1
    ]
   },
   "char-4": {
    "origin": [
     470.9349,
     216.4955
    ],
    "max-length": 9,
    "character-spacing": 12,
    "font-color": [
     0,
     0,
     1,
     1
    ]
   },
   "char-10": {
    "origin": [
     479.8999,
     285.6205
    ],
    "max-length": 9,
    "character-spacing": 12,
    "font-color": [
     0,
     0,
     1,
     1
    ]
   },
   "char-12": {
    "origin": [
     347.8999,
     309.6205
    ],
    "max-length": 9,
    "character-spacing": 12,
    "font-color": [
     0,
     0,
     1,
     1
    ]
   },
   "char-13": {
    "origin": [
     347.8999,
     333.6205
    ],
    "max-length": 9,
    "character-spacing": 12,
    "font-color": [
     0,
     0,
     1,
     1
    ]
   },
   "char-14": {
    "origin": [
     347.8999,
     345.6205
    ],
    "max-length": 9,
    "character-spacing": 12,
    "font-color": [
     0,
     0,
     1,
     1
    ]
   },
   "char-16": {
    "origin": [
     347.8999,
     356.9955
    ],
    "max-length": 9,
    "character-spacing": 12,
    "font-color": [
     0,
     0,
     1,
     1
    ]
   },
   "char-18": {
    "origin": [
     479.8999,
     368.9955
    ],
    "max-length": 9,
    "character-spacing": 12,
    "font-color": [
     0,
     0,
     1,
     1
    ]
   },
   "char-18/1": {
    "origin": [
     347.8999,
     369.6205
    ],
    "max-length": 9,
    "character-spacing": 12,
    "font-color": [
     0,
     0,
     1,
     1
    ]
   },
   "char-20": {
    "origin": [
     479.8999,
     381.6205
    ],
    "max-length": 9,
    "character-spacing": 12,
    "font-color": [
     0,
     0,
     1,
     1
    ]
   },
   "char-22": {
    "origin": [
     479.8999,
     417.2455
    ],
    "max-length": 9,
    "character-spacing": 12,
    "font-color": [
     0,
     0,
     1,
     1
    ]
   },
   "char-50": {
    "origin": [
     479.8999,
     495.1205
    ],
    "max-length": 9,
    "character-spacing": 12,
    "font-color": [
     0,
     0,
     1,
     1
    ]
   },
   "char-52": {
    "origin": [
     479.8999,
     507.1205
    ],
    "max-length": 9,
    "character-spacing": 12,
    "font-color": [
     0,
     0,
     1,
     1
    ]
   },
   "char-53": {
    "origin": [
     479.8999,
     519.1205
    ],
    "max-length": 9,
    "character-spacing": 12,
    "font-color": [
     0,
     0,
     1,
     1
    ]
   },
   "char-58": {
    "origin": [
     479.8999,
     554.7455
    ],
    "max-length": 9,
    "character-spacing": 12,
    "font-color": [
     0,
     0,
     1,
     1
    ]
   }
  }
 }
}