{
 "1": {
  "size": [
   603.0,
   774.0
  ],
  "fields": {
   "checkbox-12": {
    "bounding-box": [
     465.375,
     269.95,
     11.5,
     11.5
    ],
    "align": "center",
    "align-v": "center",
    "font-color": [
     0,
     0,
     1,
     1
    ]
   },
   "checkbox-12/1": {
    "bounding-box": [
     502.742,
     269.95,
     11.5,
     11.5
    ],
    "align": "center",
    "align-v": "center",
    "font-color": [
     0,
     0,
     1,
     1
    ]
   },
   "checkbox-13": {
    "bounding-box": [
     465.375,
     296.95,
     11.5,
     11.5
    ],
    "align": "center",
    "align-v": "center",
    "font-color": [
     0,
     0,
     1,
     1
    ]
   },
   "checkbox-13/1": {
    "bounding-box": [
     502.375,
     296.95,
     11.5,
     11.5
    ],
    "align": "center",
    "align-v": "center",
    "font-color": [
     0,
     0,
     1,
     1
    ]
   },
   "checkbox-40": {
    "bounding-box": [
     501.25,
     554.7,
     11.5,
     11.5
    ],
    "align": "center",
    "align-v": "center",
    "font-color": [
     0,
     0,
     1,
     1
    ]
   },
   "checkbox-40/1": {
    "bounding-box": [
     538.25,
     554.7,
     11.5,
     11.5
    ],
    "align": "center",
    "align-v": "center",
    "font-color": [
     0,
     0,
     1,
     1
    ]
   },
   "char-1": {
    "origin": [
     57.25,
     228.575
    ],
    "max-length": 30,
    "character-spacing": 12,
    "font-color": [
     0,
     0,
     1,
     1
    ]
   },
   "char-6": {
    "origin": [
     471.125,
     228.575
    ],
    "max-length": 8,
    "character-spacing": 12,
    "font-color": [
     0,
     0,
     1,
     1
    ]
   },
   "char-2": {
    "origin": [
     57.25,
     252.575
    ],
    "max-length": 30,
    "character-spacing": 12,
    "font-color": [
     0,
     0,
     1,
     1
    ]
   },
   "char-11": {
    "origin": [
     471.125,
     252.575
    ],
    "max-length": 9,
    "character-spacing": 12,
    "font-color": [
     0,
     0,
     1,
     1
    ]
   },
   "char-14": {
    "origin": [
     57.125,
     345.825
    ],
    "max-length": 5,
    "character-spacing": 12,
    "font-color": [
     0,
     0,
     1,
     1
    ]
   },
   "char-14/1": {
    "origin": [
     126.25,
     345.825
    ],
    "max-length": 9,
    "character-spacing": 12,
    "font-color": [
     0,
     0,
     1,
     1
    ]
   },
   "char-14/2": {
    "origin": [
     243.1875,
     345.825
    ],
    "max-length": 28,
    "character-spacing": 12,
    "font-color": [
     0,
     0,
     1,
     1
    ]
   },
   "char-15": {
    "origin": [
     57.25,
     369.825
    ],
    "max-length": 32,
    "character-spacing": 12,
    "font-color": [
     0,
     0,
     1,
     1
    ]
   },
   "char-15/1": {
    "origin": [
     450.125,
     369.825
    ],
    "max-length": 2,
    "character-spacing": 12,
    "font-color": [
     0,
     0,
     1,
     1
    ]
   },
   "char-16": {
    "origin": [
     507.0625,
     369.825
    ],
    "max-length": 6,
    "character-spacing": 12,
    "font-color": [
     0,
     0,
     1,
     1
    ]
   },
   "char-32": {
    "origin": [
     119.1724,
     451.95
    ],
    "max-length": 5,
    "character-spacing": 12,
    "font-color": [
     0,
     0,
     1,
     1
    ]
   },
   "char-32/1": {
    "origin": [
     191.1724,
     451.95
    ],
    "max-length": 5,
    "character-spacing": 12,
    "font-color": [
     0,
     0,
     1,
     1
    ]
   },
   "char-32/2": {
    "origin": [
     263.1724,
     451.95
    ],
    "max-length": 5,
    "character-spacing": 12,
    "font-color": [
     0,
     0,
     1,
     1
    ]
   },
   "char-33": {
    "origin": [
     506.1724,
     475.95
    ],
    "max-length": 2,
    "character-spacing": 12,
    "font-color": [
     0,
     0,
     1,
     1
    ]
   },
   "char-35": {
    "origin": [
     117.125,
     504.7
    ],
    "max-length": 30,
    "character-spacing": 12,
    "font-color": [
     0,
     0,
     1,
     1
    ]
   },
   "char-36": {
    "origin": [
     506.6724,
     519.95
    ],
    "max-length": 2,
    "character-spacing": 12,
    "font-color": [
     0,
     0,
     1,
     1
    ]
   },
   "char-44": {
    "origin": [
     119.1724,
     645.575
    ],
    "max-length": 5,
    "character-spacing": 12,
    "font-color": [
     0,
     0,
     1,
     1
    ]
   },
   "char-44/1": {
    "origin": [
     191.1724,
     645.575
    ],
    "max-length": 5,
    "character-spacing": 12,
    "font-color": [
     0,
     0,
     1,
     1
    ]
   },
   "char-44/2": {
    "origin": [
     263.1724,
     645.575
    ],
    "max-length": 5,
    "character-spacing": 12,
    "font-color": [
     0,
     0,
     1,
     1
    ]
   },
   "char-46": {
    "origin": [
     506.1724,
     669.575
    ],
    "max-length": 2,
    "character-spacing": 12,
    "font-color": [
     0,
     0,
     1,
     1
    ]
   },
   "char-50": {
    "origin": [
     117.125,
     698.325
    ],
    "max-length": 30,
    "character-spacing": 12,
    "font-color": [
     0,
     0,
     1,
     1
    ]
   },
   "char-52": {
    "origin": [
     506.6724,
     713.575
    ],
    "max-length": 2,
    "character-spacing": 12,
    "font-color": [
     0,
     0,
     1,
     1
    ]
   }
  }
 },
 "2": {
  "size": [
   603.0,
   774.0
  ],
  "fields": {}
 }
}