{
 "1": {
  "size": [
   603.0,
   774.0
  ],
  "fields": {
   "checkbox": {
    "bounding-box": [
     516.261,
     532.179,
     8.5,
     8.5
    ],
    "font-color": [
     0,
     0,
     1,
     1
    ]
   },
   "checkbox-50": {
    "bounding-box": [
     516.261,
     544.179,
     8.5,
     8.5
    ],
    "align": "center",
    "align-v": "center",
    "font-color": [
     0,
     0,
     1,
     1
    ]
   },
   "checkbox-50/1": {
    "bounding-box": [
     483.261,
     555.392,
     8.5,
     8.5
    ],
    "align": "center",
    "align-v": "center",
    "font-color": [
     0,
     0,
     1,
     1
    ]
   },
   "checkbox-50/2": {
    "bounding-box": [
     516.261,
     556.179,
     8.5,
     8.5
    ],
    "align": "center",
    "align-v": "center",
    "font-color": [
     0,
     0,
     1,
     1
    ]
   },
   "checkbox-51": {
    "bounding-box": [
     483.261,
     567.392,
     8.5,
     8.5
    ],
    "align": "center",
    "align-v": "center",
    "font-color": [
     0,
     0,
     1,
     1
    ]
   },
   "checkbox-51/1": {
    "bounding-box": [
     516.261,
     568.179,
     8.5,
     8.5
    ],
    "align": "center",
    "align-v": "center",
    "font-color": [
     0,
     0,
     1,
     1
    ]
   },
   "checkbox-52": {
    "bounding-box": [
     483.261,
     579.392,
     8.5,
     8.5
    ],
    "align": "center",
    "align-v": "center",
    "font-color": [
     0,
     0,
     1,
     1
    ]
   },
   "checkbox-52/1": {
    "bounding-box": [
     516.261,
     580.179,
     8.5,
     8.5
    ],
    "align": "center",
    "align-v": "center",
    "font-color": [
     0,
     0,
     1,
     1
    ]
   },
   "checkbox-53": {
    "bounding-box": [
     483.261,
     591.392,
     8.5,
     8.5
    ],
    "align": "center",
    "align-v": "center",
    "font-color": [
     0,
     0,
     1,
     1
    ]
   },
   "checkbox-53/1": {
    "bounding-box": [
     516.261,
     592.179,
     8.5,
     8.5
    ],
    "align": "center",
    "align-v": "center",
    "font-color": [
     0,
     0,
     1,
     1
    ]
   },
   "checkbox-54": {
    "bounding-box": [
     516.261,
     611.179,
     8.5,
     8.5
    ],
    "align": "center",
    "align-v": "center",
    "font-color": [
     0,
     0,
     1,
     1
    ]
   },
   "checkbox-54/1": {
    "bounding-box": [
     483.261,
     613.142,
     8.5,
     8.5
    ],
    "align": "center",
    "align-v": "center",
    "font-color": [
     0,
     0,
     1,
     1
    ]
   },
   "checkbox-55": {
    "bounding-box": [
     516.261,
     623.179,
     8.5,
     8.5
    ],
    "align": "center",
    "align-v": "center",
    "font-color": [
     0,
     0,
     1,
     1
    ]
   },
   "checkbox-55/1": {
    "bounding-box": [
     483.261,
     624.892,
     8.5,
     8.5
    ],
    "align": "center",
    "align-v": "center",
    "font-color": [
     0,
     0,
     1,
     1
    ]
   },
   "checkbox-56": {
    "bounding-box": [
     516.261,
     635.179,
     8.5,
     8.5
    ],
    "align": "center",
    "align-v": "center",
    "font-color": [
     0,
     0,
     1,
     1
    ]
   },
   "checkbox-56/1": {
    "bounding-box": [
     483.261,
     636.892,
     8.5,
     8.5
    ],
    "align": "center",
    "align-v": "center",
    "font-color": [
     0,
     0,
     1,
     1
    ]
   },
   "checkbox-57": {
    "bounding-box": [
     516.261,
     647.179,
     8.5,
     8.5
    ],
    "align": "center",
    "align-v": "center",
    "font-color": [
     0,
     0,
     1,
     1
    ]
   },
   "checkbox-57/1": {
    "bounding-box": [
     483.261,
     648.892,
     8.5,
     8.5
    ],
    "align": "center",
    "align-v": "center",
    "font-color": [
     0,
     0,
     1,
     1
    ]
   },
   "checkbox-58": {
    "bounding-box": [
     516.261,
     659.179,
     8.5,
     8.5
    ],
    "align": "center",
    "align-v": "center",
    "font-color": [
     0,
     0,
     1,
     1
    ]
   },
   "checkbox-58/1": {
    "bounding-box": [
     483.261,
     660.892,
     8.5,
     8.5
    ],
    "align": "center",
    "align-v": "center",
    "font-color": [
     0,
     0,
     1,
     1
    ]
   },
   "checkbox-59": {
    "bounding-box": [
     516.261,
     671.179,
     8.5,
     8.5
    ],
    "align": "center",
    "align-v": "center",
    "font-color": [
     0,
     0,
     1,
     1
    ]
   },
   "checkbox-59/1": {
    "bounding-box": [
     483.261,
     672.892,
     8.5,
     8.5
    ],
    "align": "center",
    "align-v": "center",
    "font-color": [
     0,
     0,
     1,
     1
    ]
   },
   "numeric-36": {
    "origin": [
     547.5,
     347.2498
    ],
    "align": "decimal",
    "format": ".2f",
    "font-size": 9,
    "max-length": 13,
    "font-color": [
     0,
     0,
     1,
     1
    ],
    "character-spacing": 12
   },
   "numeric-37": {
    "origin": [
     547.5,
     358.6248
    ],
    "align": "decimal",
    "format": ".2f",
    "font-size": 9,
    "max-length": 13,
    "font-color": [
     0,
     0,
     1,
     1
    ],
    "character-spacing": 12
   },
   "numeric-40": {
    "origin": [
     547.5,
     371.2498
    ],
    "align": "decimal",
    "format": ".2f",
    "font-size": 9,
    "max-length": 13,
    "font-color": [
     0,
     0,
     1,
     1
    ],
    "character-spacing": 12
   },
   "numeric-41": {
    "origin": [
     415.495,
     383.2698
    ],
    "align": "decimal",
    "format": ".2f",
    "font-size": 9,
    "max-length": 13,
    "font-color": [
     0,
     0,
     1,
     1
    ],
    "character-spacing": 12
   },
   "numeric-42": {
    "origin": [
     415.5068,
     416.2749
    ],
    "align": "decimal",
    "format": ".2f",
    "font-size": 9,
    "max-length": 13,
    "font-color": [
     0,
     0,
     1,
     1
    ],
    "character-spacing": 12
   },
   "numeric-44": {
    "origin": [
     415.495,
     448.6448
    ],
    "align": "decimal",
    "format": ".2f",
    "font-size": 9,
    "max-length": 13,
    "font-color": [
     0,
     0,
     1,
     1
    ],
    "character-spacing": 12
   },
   "numeric-46": {
    "origin": [
     547.375,
     461.3748
    ],
    "align": "decimal",
    "format": ".2f",
    "font-size": 9,
    "max-length": 13,
    "font-color": [
     0,
     0,
     1,
     1
    ],
    "character-spacing": 12
   },
   "numeric-46/1": {
    "origin": [
     415.495,
     462.0198
    ],
    "align": "decimal",
    "format": ".2f",
    "font-size": 9,
    "max-length": 13,
    "font-color": [
     0,
     0,
     1,
     1
    ],
    "character-spacing": 12
   },
   "numeric-48": {
    "origin": [
     547.5,
     485.6248
    ],
    "align": "decimal",
    "format": ".2f",
    "font-size": 9,
    "max-length": 13,
    "font-color": [
     0,
     0,
     1,
     1
    ],
    "character-spacing": 12
   },
   "char-36": {
    "origin": [
     480.0,
     345.7673
    ],
    "max-length": 9,
    "character-spacing": 12,
    "font-color": [
     0,
     0,
     1,
     1
    ]
   },
   "char-37": {
    "origin": [
     480.0,
     357.1423
    ],
    "max-length": 9,
    "character-spacing": 12,
    "font-color": [
     0,
     0,
     1,
     1
    ]
   },
   "char-40": {
    "origin": [
     480.0,
     369.7673
    ],
    "max-length": 9,
    "character-spacing": 12,
    "font-color": [
     0,
     0,
     1,
     1
    ]
   },
   "char-41": {
    "origin": [
     360.0,
     381.7673
    ],
    "max-length": 8,
    "character-spacing": 12,
    "font-color": [
     0,
     0,
     1,
     1
    ]
   },
   "char-42": {
    "origin": [
     372.0142,
     414.7756
    ],
    "max-length": 7,
    "character-spacing": 12,
    "font-color": [
     0,
     0,
     1,
     1
    ]
   },
   "char-44": {
    "origin": [
     360.0,
     447.1423
    ],
    "max-length": 8,
    "character-spacing": 12,
    "font-color": [
     0,
     0,
     1,
     1
    ]
   },
   "char-46": {
    "origin": [
     491.875,
     459.8923
    ],
    "max-length": 8,
    "character-spacing": 12,
    "font-color": [
     0,
     0,
     1,
     1
    ]
   },
   "char-46/1": {
    "origin": [
     360.0,
     460.5173
    ],
    "max-length": 8,
    "character-spacing": 12,
    "font-color": [
     0,
     0,
     1,
     1
    ]
   },
   "char-48": {
    "origin": [
     480.0,
     484.1423
    ],
    "max-length": 9,
    "character-spacing": 12,
    "font-color": [
     0,
     0,
     1,
     1
    ]
   }
  }
 },
 "2": {
  "size": [
   603.0,
   774.0
  ],
  "fields": {
   "checkbox": {
    "bounding-box": [
     516.25,
     62.023,
     8.5,
     8.5
    ],
    "font-color": [
     0,
     0,
     1,
     1
    ]
   },
   "checkbox-64": {
    "bounding-box": [
     516.25,
     74.023,
     8.5,
     8.5
    ],
    "align": "center",
    "align-v": "center",
    "font-color": [
     0,
     0,
     1,
     1
    ]
   },
   "checkbox-64/1": {
    "bounding-box": [
     483.25,
     84.45,
     8.5,
     8.5
    ],
    "align": "center",
    "align-v": "center",
    "font-color": [
     0,
     0,
     1,
     1
    ]
   },
   "checkbox-64/2": {
    "bounding-box": [
     516.25,
     86.023,
     8.5,
     8.5
    ],
    "align": "center",
    "align-v": "center",
    "font-color": [
     0,
     0,
     1,
     1
    ]
   },
   "checkbox-65": {
    "bounding-box": [
     483.25,
     96.45,
     8.5,
     8.5
    ],
    "align": "center",
    "align-v": "center",
    "font-color": [
     0,
     0,
     1,
     1
    ]
   },
   "checkbox-65/1": {
    "bounding-box": [
     516.25,
     98.023,
     8.5,
     8.5
    ],
    "align": "center",
    "align-v": "center",
    "font-color": [
     0,
     0,
     1,
     1
    ]
   },
   "checkbox-66": {
    "bounding-box": [
     483.25,
     108.45,
     8.5,
     8.5
    ],
    "align": "center",
    "align-v": "center",
    "font-color": [
     0,
     0,
     1,
     1
    ]
   },
   "checkbox-66/1": {
    "bounding-box": [
     516.25,
     110.023,
     8.5,
     8.5
    ],
    "align": "center",
    "align-v": "center",
    "font-color": [
     0,
     0,
     1,
     1
    ]
   },
   "checkbox-67": {
    "bounding-box": [
     483.25,
     120.45,
     8.5,
     8.5
    ],
    "align": "center",
    "align-v": "center",
    "font-color": [
     0,
     0,
     1,
     1
    ]
   },
   "checkbox-67/1": {
    "bounding-box": [
     516.25,
     122.023,
     8.5,
     8.5
    ],
    "align": "center",
    "align-v": "center",
    "font-color": [
     0,
     0,
     1,
     1
    ]
   },
   "checkbox-68": {
    "bounding-box": [
     516.25,
     141.023,
     8.5,
     8.5
    ],
    "align": "center",
    "align-v": "center",
    "font-color": [
     0,
     0,
     1,
     1
    ]
   },
   "checkbox-68/1": {
    "bounding-box": [
     483.25,
     144.45,
     8.5,
     8.5
    ],
    "align": "center",
    "align-v": "center",
    "font-color": [
     0,
     0,
     1,
     1
    ]
   },
   "checkbox-69": {
    "bounding-box": [
     516.25,
     153.023,
     8.5,
     8.5
    ],
    "align": "center",
    "align-v": "center",
    "font-color": [
     0,
     0,
     1,
     1
    ]
   },
   "checkbox-69/1": {
    "bounding-box": [
     483.25,
     156.45,
     8.5,
     8.5
    ],
    "align": "center",
    "align-v": "center",
    "font-color": [
     0,
     0,
     1,
     1
    ]
   },
   "checkbox-70": {
    "bounding-box": [
     516.25,
     165.023,
     8.5,
     8.5
    ],
    "align": "center",
    "align-v": "center",
    "font-color": [
     0,
     0,
     1,
     1
    ]
   },
   "checkbox-70/1": {
    "bounding-box": [
     483.25,
     168.45,
     8.5,
     8.5
    ],
    "align": "center",
    "align-v": "center",
    "font-color": [
     0,
     0,
     1,
     1
    ]
   },
   "checkbox-71": {
    "bounding-box": [
     516.25,
     177.023,
     8.5,
     8.5
    ],
    "align": "center",
    "align-v": "center",
    "font-color": [
     0,
     0,
     1,
     1
    ]
   },
   "checkbox-71/1": {
    "bounding-box": [
     483.25,
     180.45,
     8.5,
     8.5
    ],
    "align": "center",
    "align-v": "center",
    "font-color": [
     0,
     0,
     1,
     1
    ]
   },
   "checkbox-72": {
    "bounding-box": [
     516.25,
     189.023,
     8.5,
     8.5
    ],
    "align": "center",
    "align-v": "center",
    "font-color": [
     0,
     0,
     1,
     1
    ]
   },
   "checkbox-72/1": {
    "bounding-box": [
     483.25,
     192.45,
     8.5,
     8.5
    ],
    "align": "center",
    "align-v": "center",
    "font-color": [
     0,
     0,
     1,
     1
    ]
   },
   "checkbox-73": {
    "bounding-box": [
     516.25,
     201.023,
     8.5,
     8.5
    ],
    "align": "center",
    "align-v": "center",
    "font-color": [
     0,
     0,
     1,
     1
    ]
   },
   "checkbox-73/1": {
    "bounding-box": [
     483.25,
     204.45,
     8.5,
     8.5
    ],
    "align": "center",
    "align-v": "center",
    "font-color": [
     0,
     0,
     1,
     1
    ]
   },
   "numeric-84": {
    "origin": [
     438.6261,
     442.2025
    ],
    "align": "decimal",
    "format": ".2f",
    "font-size": 9,
    "max-length": 13,
    "font-color": [
     0,
     0,
     1,
     1
    ],
    "character-spacing": 12
   },
   "numeric-85": {
    "origin": [
     438.6261,
     453.5775
    ],
    "align": "decimal",
    "format": ".2f",
    "font-size": 9,
    "max-length": 13,
    "font-color": [
     0,
     0,
     1,
     1
    ],
    "character-spacing": 12
   },
   "numeric": {
    "origin": [
     155.4951,
     454.2025
    ],
    "align": "decimal",
    "format": ".2f",
    "font-size": 9,
    "max-length": 13,
    "font-color": [
     0,
     0,
     1,
     1
    ],
    "character-spacing": 12
   },
   "numeric-86": {
    "origin": [
     438.6261,
     466.2025
    ],
    "align": "decimal",
    "format": ".2f",
    "font-size": 9,
    "max-length": 13,
    "font-color": [
     0,
     0,
     1,
     1
    ],
    "character-spacing": 12
   },
   "numeric/1": {
    "origin": [
     342.8085,
     490.4525
    ],
    "align": "decimal",
    "format": ".2f",
    "font-size": 9,
    "max-length": 13,
    "font-color": [
     0,
     0,
     1,
     1
    ],
    "character-spacing": 12
   },
   "numeric-87": {
    "origin": [
     438.7831,
     490.4525
    ],
    "align": "decimal",
    "format": ".2f",
    "font-size": 9,
    "max-length": 13,
    "font-color": [
     0,
     0,
     1,
     1
    ],
    "character-spacing": 12
   },
   "numeric/2": {
    "origin": [
     342.8085,
     501.8275
    ],
    "align": "decimal",
    "format": ".2f",
    "font-size": 9,
    "max-length": 13,
    "font-color": [
     0,
     0,
     1,
     1
    ],
    "character-spacing": 12
   },
   "numeric-88": {
    "origin": [
     438.7831,
     513.8275
    ],
    "align": "decimal",
    "format": ".2f",
    "font-size": 9,
    "max-length": 13,
    "font-color": [
     0,
     0,
     1,
     1
    ],
    "character-spacing": 12
   },
   "numeric/3": {
    "origin": [
     342.8085,
     514.4525
    ],
    "align": "decimal",
    "format": ".2f",
    "font-size": 9,
    "max-length": 13,
    "font-color": [
     0,
     0,
     1,
     1
    ],
    "character-spacing": 12
   },
   "numeric-89": {
    "origin": [
     438.7831,
     526.4525
    ],
    "align": "decimal",
    "format": ".2f",
    "font-size": 9,
    "max-length": 13,
    "font-color": [
     0,
     0,
     1,
     1
    ],
    "character-spacing": 12
   },
   "numeric-90": {
    "origin": [
     547.495,
     538.4525
    ],
    "align": "decimal",
    "format": ".2f",
    "font-size": 9,
    "max-length": 13,
    "font-color": [
     0,
     0,
     1,
     1
    ],
    "character-spacing": 12
   },
   "numeric-91": {
    "origin": [
     438.9951,
     576.8275
    ],
    "align": "decimal",
    "format": ".2f",
    "font-size": 9,
    "max-length": 13,
    "font-color": [
     0,
     0,
     1,
     1
    ],
    "character-spacing": 12
   },
   "numeric-92": {
    "origin": [
     438.9951,
     588.2025
    ],
    "align": "decimal",
    "format": ".2f",
    "font-size": 9,
    "max-length": 13,
    "font-color": [
     0,
     0,
     1,
     1
    ],
    "character-spacing": 12
   },
   "numeric/4": {
    "origin": [
     155.9951,
     588.8275
    ],
    "align": "decimal",
    "format": ".2f",
    "font-size": 9,
    "max-length": 13,
    "font-color": [
     0,
     0,
     1,
     1
    ],
    "character-spacing": 12
   },
   "numeric-93": {
    "origin": [
     438.9951,
     600.8275
    ],
    "align": "decimal",
    "format": ".2f",
    "font-size": 9,
    "max-length": 13,
    "font-color": [
     0,
     0,
     1,
     1
    ],
    "character-spacing": 12
   },
   "numeric/5": {
    "origin": [
     342.812,
     625.0775
    ],
    "align": "decimal",
    "format": ".2f",
    "font-size": 9,
    "max-length": 13,
    "font-color": [
     0,
     0,
     1,
     1
    ],
    "character-spacing": 12
   },
   "numeric-94": {
    "origin": [
     438.7866,
     625.0775
    ],
    "align": "decimal",
    "format": ".2f",
    "font-size": 9,
    "max-length": 13,
    "font-color": [
     0,
     0,
     1,
     1
    ],
    "character-spacing": 12
   },
   "numeric/6": {
    "origin": [
     342.8121,
     636.4525
    ],
    "align": "decimal",
    "format": ".2f",
    "font-size": 9,
    "max-length": 13,
    "font-color": [
     0,
     0,
     1,
     1
    ],
    "character-spacing": 12
   },
   "numeric-95": {
    "origin": [
     438.7866,
     648.4525
    ],
    "align": "decimal",
    "format": ".2f",
    "font-size": 9,
    "max-length": 13,
    "font-color": [
     0,
     0,
     1,
     1
    ],
    "character-spacing": 12
   },
   "numeric/7": {
    "origin": [
     342.8121,
     649.0775
    ],
    "align": "decimal",
    "format": ".2f",
    "font-size": 9,
    "max-length": 13,
    "font-color": [
     0,
     0,
     1,
     1
    ],
    "character-spacing": 12
   },
   "numeric-96": {
    "origin": [
     438.7866,
     661.0775
    ],
    "align": "decimal",
    "format": ".2f",
    "font-size": 9,
    "max-length": 13,
    "font-color": [
     0,
     0,
     1,
     1
    ],
    "character-spacing": 12
   },
   "numeric-97": {
    "origin": [
     547.4952,
     675.8275
    ],
    "align": "decimal",
    "format": ".2f",
    "font-size": 9,
    "max-length": 13,
    "font-color": [
     0,
     0,
     1,
     1
    ],
    "character-spacing": 12
   },
   "numeric-98": {
    "origin": [
     547.4952,
     700.0775
    ],
    "align": "decimal",
    "format": ".2f",
    "font-size": 9,
    "max-length": 13,
    "font-color": [
     0,
     0,
     1,
     1
    ],
    "character-spacing": 12
   },
   "char-84": {
    "origin": [
     407.1311,
     440.7
    ],
    "max-length": 6,
    "character-spacing": 12,
    "font-color": [
     0,
     0,
     1,
     1
    ]
   },
   "char-85": {
    "origin": [
     407.1311,
     452.075
    ],
    "max-length": 6,
    "character-spacing": 12,
    "font-color": [
     0,
     0,
     1,
     1
    ]
   },
   "chr": {
    "origin": [
     124.0001,
     452.7
    ],
    "max-length": 6,
    "character-spacing": 12,
    "font-color": [
     0,
     0,
     1,
     1
    ]
   },
   "char-86": {
    "origin": [
     407.1311,
     464.7
    ],
    "max-length": 6,
    "character-spacing": 12,
    "font-color": [
     0,
     0,
     1,
     1
    ]
   },
   "chr/1": {
    "origin": [
     311.3135,
     488.95
    ],
    "max-length": 6,
    "character-spacing": 12,
    "font-color": [
     0,
     0,
     1,
     1
    ]
   },
   "char-87": {
    "origin": [
     407.2881,
     488.95
    ],
    "max-length": 6,
    "character-spacing": 12,
    "font-color": [
     0,
     0,
     1,
     1
    ]
   },
   "chr/2": {
    "origin": [
     311.3135,
     500.325
    ],
    "max-length": 6,
    "character-spacing": 12,
    "font-color": [
     0,
     0,
     1,
     1
    ]
   },
   "char-88": {
    "origin": [
     407.2881,
     512.325
    ],
    "max-length": 6,
    "character-spacing": 12,
    "font-color": [
     0,
     0,
     1,
     1
    ]
   },
   "chr/3": {
    "origin": [
     311.3135,
     512.95
    ],
    "max-length": 6,
    "character-spacing": 12,
    "font-color": [
     0,
     0,
     1,
     1
    ]
   },
   "char-89": {
    "origin": [
     407.2881,
     524.95
    ],
    "max-length": 6,
    "character-spacing": 12,
    "font-color": [
     0,
     0,
     1,
     1
    ]
   },
   "char-90": {
    "origin": [
     516.0001,
     536.95
    ],
    "max-length": 6,
    "character-spacing": 12,
    "font-color": [
     0,
     0,
     1,
     1
    ]
   },
   "char-91": {
    "origin": [
     407.5001,
     575.325
    ],
    "max-length": 6,
    "character-spacing": 12,
    "font-color": [
     0,
     0,
     1,
     1
    ]
   },
   "char-92": {
    "origin": [
     407.5001,
     586.7
    ],
    "max-length": 6,
    "character-spacing": 12,
    "font-color": [
     0,
     0,
     1,
     1
    ]
   },
   "chr/4": {
    "origin": [
     124.5001,
     587.325
    ],
    "max-length": 6,
    "character-spacing": 12,
    "font-color": [
     0,
     0,
     1,
     1
    ]
   },
   "char-93": {
    "origin": [
     407.5001,
     599.325
    ],
    "max-length": 6,
    "character-spacing": 12,
    "font-color": [
     0,
     0,
     1,
     1
    ]
   },
   "chr/5": {
    "origin": [
     311.317,
     623.575
    ],
    "max-length": 6,
    "character-spacing": 12,
    "font-color": [
     0,
     0,
     1,
     1
    ]
   },
   "char-94": {
    "origin": [
     407.2916,
     623.575
    ],
    "max-length": 6,
    "character-spacing": 12,
    "font-color": [
     0,
     0,
     1,
     1
    ]
   },
   "chr/6": {
    "origin": [
     311.3171,
     634.95
    ],
    "max-length": 6,
    "character-spacing": 12,
    "font-color": [
     0,
     0,
     1,
     1
    ]
   },
   "char-95": {
    "origin": [
     407.2916,
     646.95
    ],
    "max-length": 6,
    "character-spacing": 12,
    "font-color": [
     0,
     0,
     1,
     1
    ]
   },
   "chr/7": {
    "origin": [
     311.3171,
     647.575
    ],
    "max-length": 6,
    "character-spacing": 12,
    "font-color": [
     0,
     0,
     1,
     1
    ]
   },
   "char-96": {
    "origin": [
     407.2916,
     659.575
    ],
    "max-length": 6,
    "character-spacing": 12,
    "font-color": [
     0,
     0,
     1,
     1
    ]
   },
   "char-97": {
    "origin": [
     516.0002,
     674.325
    ],
    "max-length": 6,
    "character-spacing": 12,
    "font-color": [
     0,
     0,
     1,
     1
    ]
   },
   "char-98": {
    "origin": [
     504.0002,
     698.575
    ],
    "max-length": 7,
    "character-spacing": 12,
    "font-color": [
     0,
     0,
     1,
     1
    ]
   }
  }
 }
}