{
 "1": {
  "size": [
   603.0,
   774.0
  ],
  "fields": {
   "checkbox-10": {
    "bounding-box": [
     561.125,
     139.75,
     11.5,
     11.5
    ],
    "align": "center",
    "align-v": "center",
    "font-color": [
     0,
     0,
     1,
     1
    ]
   },
   "checkbox-11": {
    "bounding-box": [
     561.125,
     154.75,
     11.5,
     11.5
    ],
    "align": "center",
    "align-v": "center",
    "font-color": [
     0,
     0,
     1,
     1
    ]
   },
   "checkbox-12": {
    "bounding-box": [
     561.125,
     169.75,
     11.5,
     11.5
    ],
    "align": "center",
    "align-v": "center",
    "font-color": [
     0,
     0,
     1,
     1
    ]
   },
   "checkbox-13": {
    "bounding-box": [
     561.125,
     184.75,
     11.5,
     11.5
    ],
    "align": "center",
    "align-v": "center",
    "font-color": [
     0,
     0,
     1,
     1
    ]
   },
   "checkbox-14": {
    "bounding-box": [
     561.125,
     199.75,
     11.5,
     11.5
    ],
    "align": "center",
    "align-v": "center",
    "font-color": [
     0,
     0,
     1,
     1
    ]
   },
   "checkbox-15": {
    "bounding-box": [
     561.125,
     214.75,
     11.5,
     11.5
    ],
    "align": "center",
    "align-v": "center",
    "font-color": [
     0,
     0,
     1,
     1
    ]
   },
   "checkbox-16": {
    "bounding-box": [
     561.125,
     229.75,
     11.5,
     11.5
    ],
    "align": "center",
    "align-v": "center",
    "font-color": [
     0,
     0,
     1,
     1
    ]
   },
   "checkbox-17": {
    "bounding-box": [
     561.125,
     253.75,
     11.5,
     11.5
    ],
    "align": "center",
    "align-v": "center",
    "font-color": [
     0,
     0,
     1,
     1
    ]
   },
   "checkbox-18": {
    "bounding-box": [
     561.125,
     286.75,
     11.5,
     11.5
    ],
    "align": "center",
    "align-v": "center",
    "font-color": [
     0,
     0,
     1,
     1
    ]
   },
   "checkbox-20": {
    "bounding-box": [
     561.125,
     317.75,
     11.5,
     11.5
    ],
    "align": "center",
    "align-v": "center",
    "font-color": [
     0,
     0,
     1,
     1
    ]
   },
   "numeric-1": {
    "origin": [
     547.62,
     375.6275
    ],
    "align": "decimal",
    "format": ".2f",
    "font-size": 9,
    "max-length": 13,
    "font-color": [
     0,
     0,
     1,
     1
    ],
    "character-spacing": 12
   },
   "numeric-2": {
    "origin": [
     547.62,
     387.6275
    ],
    "align": "decimal",
    "format": ".2f",
    "font-size": 9,
    "max-length": 13,
    "font-color": [
     0,
     0,
     1,
     1
    ],
    "character-spacing": 12
   },
   "numeric-3": {
    "origin": [
     547.62,
     399.6275
    ],
    "align": "decimal",
    "format": ".2f",
    "font-size": 9,
    "max-length": 13,
    "font-color": [
     0,
     0,
     1,
     1
    ],
    "character-spacing": 12
   },
   "numeric-4": {
    "origin": [
     547.62,
     411.6275
    ],
    "align": "decimal",
    "format": ".2f",
    "font-size": 9,
    "max-length": 13,
    "font-color": [
     0,
     0,
     1,
     1
    ],
    "character-spacing": 12
   },
   "numeric-5": {
    "origin": [
     547.62,
     423.6275
    ],
    "align": "decimal",
    "format": ".2f",
    "font-size": 9,
    "max-length": 13,
    "font-color": [
     0,
     0,
     1,
     1
    ],
    "character-spacing": 12
   },
   "numeric-6": {
    "origin": [
     547.62,
     435.6275
    ],
    "align": "decimal",
    "format": ".2f",
    "font-size": 9,
    "max-length": 13,
    "font-color": [
     0,
     0,
     1,
     1
    ],
    "character-spacing": 12
   },
   "numeric-30.1": {
    "origin": [
     398.62,
     487.7525
    ],
    "align": "decimal",
    "format": ".2f",
    "font-size": 9,
    "max-length": 13,
    "font-color": [
     0,
     0,
     1,
     1
    ],
    "character-spacing": 12
   },
   "numeric-31.1": {
    "origin": [
     398.62,
     499.7525
    ],
    "align": "decimal",
    "format": ".2f",
    "font-size": 9,
    "max-length": 13,
    "font-color": [
     0,
     0,
     1,
     1
    ],
    "character-spacing": 12
   },
   "numeric-32.1": {
    "origin": [
     398.62,
     511.7525
    ],
    "align": "decimal",
    "format": ".2f",
    "font-size": 9,
    "max-length": 13,
    "font-color": [
     0,
     0,
     1,
     1
    ],
    "character-spacing": 12
   },
   "numeric-33.1": {
    "origin": [
     398.62,
     523.7525
    ],
    "align": "decimal",
    "format": ".2f",
    "font-size": 9,
    "max-length": 13,
    "font-color": [
     0,
     0,
     1,
     1
    ],
    "character-spacing": 12
   },
   "numeric-34.1": {
    "origin": [
     398.62,
     535.7525
    ],
    "align": "decimal",
    "format": ".2f",
    "font-size": 9,
    "max-length": 13,
    "font-color": [
     0,
     0,
     1,
     1
    ],
    "character-spacing": 12
   },
   "numeric-35.1": {
    "origin": [
     398.62,
     547.7525
    ],
    "align": "decimal",
    "format": ".2f",
    "font-size": 9,
    "max-length": 13,
    "font-color": [
     0,
     0,
     1,
     1
    ],
    "character-spacing": 12
   },
   "numeric-36.1": {
    "origin": [
     398.62,
     559.7525
    ],
    "align": "decimal",
    "format": ".2f",
    "font-size": 9,
    "max-length": 13,
    "font-color": [
     0,
     0,
     1,
     1
    ],
    "character-spacing": 12
   },
   "numeric-37.1": {
    "origin": [
     398.62,
     571.7525
    ],
    "align": "decimal",
    "format": ".2f",
    "font-size": 9,
    "max-length": 13,
    "font-color": [
     0,
     0,
     1,
     1
    ],
    "character-spacing": 12
   },
   "numeric-38.1": {
    "origin": [
     398.62,
     595.1275
    ],
    "align": "decimal",
    "format": ".2f",
    "font-size": 9,
    "max-length": 13,
    "font-color": [
     0,
     0,
     1,
     1
    ],
    "character-spacing": 12
   },
   "numeric-39": {
    "origin": [
     398.62,
     607.7525
    ],
    "align": "decimal",
    "format": ".2f",
    "font-size": 9,
    "max-length": 13,
    "font-color": [
     0,
     0,
     1,
     1
    ],
    "character-spacing": 12
   },
   "numeric-40": {
    "origin": [
     398.62,
     640.1275
    ],
    "align": "decimal",
    "format": ".2f",
    "font-size": 9,
    "max-length": 13,
    "font-color": [
     0,
     0,
     1,
     1
    ],
    "character-spacing": 12
   },
   "numeric-41": {
    "origin": [
     398.62,
     664.3775
    ],
    "align": "decimal",
    "format": ".2f",
    "font-size": 9,
    "max-length": 13,
    "font-color": [
     0,
     0,
     1,
     1
    ],
    "character-spacing": 12
   },
   "char-1": {
    "origin": [
     57.125,
     374.125
    ],
    "max-length": 22,
    "character-spacing": 12,
    "font-color": [
     0,
     0,
     1,
     1
    ]
   },
   "char-1/1": {
    "origin": [
     352.125,
     374.125
    ],
    "max-length": 8,
    "character-spacing": 12,
    "font-color": [
     0,
     0,
     1,
     1
    ]
   },
   "char-1/2": {
    "origin": [
     480.125,
     374.125
    ],
    "max-length": 9,
    "character-spacing": 12,
    "font-color": [
     0,
     0,
     1,
     1
    ]
   },
   "char-2": {
    "origin": [
     57.125,
     386.125
    ],
    "max-length": 22,
    "character-spacing": 12,
    "font-color": [
     0,
     0,
     1,
     1
    ]
   },
   "char-2/1": {
    "origin": [
     352.125,
     386.125
    ],
    "max-length": 8,
    "character-spacing": 12,
    "font-color": [
     0,
     0,
     1,
     1
    ]
   },
   "char-2/2": {
    "origin": [
     480.125,
     386.125
    ],
    "max-length": 9,
    "character-spacing": 12,
    "font-color": [
     0,
     0,
     1,
     1
    ]
   },
   "char-3": {
    "origin": [
     57.125,
     398.125
    ],
    "max-length": 22,
    "character-spacing": 12,
    "font-color": [
     0,
     0,
     1,
     1
    ]
   },
   "char-3/1": {
    "origin": [
     352.125,
     398.125
    ],
    "max-length": 8,
    "character-spacing": 12,
    "font-color": [
     0,
     0,
     1,
     1
    ]
   },
   "char-3/2": {
    "origin": [
     480.125,
     398.125
    ],
    "max-length": 9,
    "character-spacing": 12,
    "font-color": [
     0,
     0,
     1,
     1
    ]
   },
   "char-4": {
    "origin": [
     57.125,
     410.125
    ],
    "max-length": 22,
    "character-spacing": 12,
    "font-color": [
     0,
     0,
     1,
     1
    ]
   },
   "char-4/1": {
    "origin": [
     352.125,
     410.125
    ],
    "max-length": 8,
    "character-spacing": 12,
    "font-color": [
     0,
     0,
     1,
     1
    ]
   },
   "char-4/2": {
    "origin": [
     480.125,
     410.125
    ],
    "max-length": 9,
    "character-spacing": 12,
    "font-color": [
     0,
     0,
     1,
     1
    ]
   },
   "char-5": {
    "origin": [
     57.125,
     422.125
    ],
    "max-length": 22,
    "character-spacing": 12,
    "font-color": [
     0,
     0,
     1,
     1
    ]
   },
   "char-5/1": {
    "origin": [
     352.125,
     422.125
    ],
    "max-length": 8,
    "character-spacing": 12,
    "font-color": [
     0,
     0,
     1,
     1
    ]
   },
   "char-5/2": {
    "origin": [
     480.125,
     422.125
    ],
    "max-length": 9,
    "character-spacing": 12,
    "font-color": [
     0,
     0,
     1,
     1
    ]
   },
   "char-6": {
    "origin": [
     57.125,
     434.125
    ],
    "max-length": 22,
    "character-spacing": 12,
    "font-color": [
     0,
     0,
     1,
     1
    ]
   },
   "char-6/1": {
    "origin": [
     352.125,
     434.125
    ],
    "max-length": 8,
    "character-spacing": 12,
    "font-color": [
     0,
     0,
     1,
     1
    ]
   },
   "char-6/2": {
    "origin": [
     480.125,
     434.125
    ],
    "max-length": 9,
    "character-spacing": 12,
    "font-color": [
     0,
     0,
     1,
     1
    ]
   },
   "char-29.1": {
    "origin": [
     57.125,
     486.25
    ],
    "max-length": 11,
    "character-spacing": 12,
    "font-color": [
     0,
     0,
     1,
     1
    ]
   },
   "char-30": {
    "origin": [
     214.1875,
     486.25
    ],
    "max-length": 8,
    "character-spacing": 12,
    "font-color": [
     0,
     0,
     1,
     1
    ]
   },
   "char-30.1": {
    "origin": [
     343.125,
     486.25
    ],
    "max-length": 8,
    "character-spacing": 12,
    "font-color": [
     0,
     0,
     1,
     1
    ]
   },
   "char-30.2": {
    "origin": [
     459.125,
     486.25
    ],
    "max-length": 10,
    "character-spacing": 12,
    "font-color": [
     0,
     0,
     1,
     1
    ]
   },
   "char-29.2": {
    "origin": [
     57.125,
     498.25
    ],
    "max-length": 11,
    "character-spacing": 12,
    "font-color": [
     0,
     0,
     1,
     1
    ]
   },
   "char-31": {
    "origin": [
     214.1875,
     498.25
    ],
    "max-length": 8,
    "character-spacing": 12,
    "font-color": [
     0,
     0,
     1,
     1
    ]
   },
   "char-31.1": {
    "origin": [
     343.125,
     498.25
    ],
    "max-length": 8,
    "character-spacing": 12,
    "font-color": [
     0,
     0,
     1,
     1
    ]
   },
   "char-31.2": {
    "origin": [
     459.125,
     498.25
    ],
    "max-length": 10,
    "character-spacing": 12,
    "font-color": [
     0,
     0,
     1,
     1
    ]
   },
   "char-29.3": {
    "origin": [
     57.125,
     510.25
    ],
    "max-length": 11,
    "character-spacing": 12,
    "font-color": [
     0,
     0,
     1,
     1
    ]
   },
   "char-32": {
    "origin": [
     214.1875,
     510.25
    ],
    "max-length": 8,
    "character-spacing": 12,
    "font-color": [
     0,
     0,
     1,
     1
    ]
   },
   "char-32.1": {
    "origin": [
     343.125,
     510.25
    ],
    "max-length": 8,
    "character-spacing": 12,
    "font-color": [
     0,
     0,
     1,
     1
    ]
   },
   "char-32.2": {
    "origin": [
     459.125,
     510.25
    ],
    "max-length": 10,
    "character-spacing": 12,
    "font-color": [
     0,
     0,
     1,
     1
    ]
   },
   "char-29.4": {
    "origin": [
     57.125,
     522.25
    ],
    "max-length": 11,
    "character-spacing": 12,
    "font-color": [
     0,
     0,
     1,
     1
    ]
   },
   "char-33": {
    "origin": [
     214.1875,
     522.25
    ],
    "max-length": 8,
    "character-spacing": 12,
    "font-color": [
     0,
     0,
     1,
     1
    ]
   },
   "char-33.1": {
    "origin": [
     343.125,
     522.25
    ],
    "max-length": 8,
    "character-spacing": 12,
    "font-color": [
     0,
     0,
     1,
     1
    ]
   },
   "char-33.2": {
    "origin": [
     459.125,
     522.25
    ],
    "max-length": 10,
    "character-spacing": 12,
    "font-color": [
     0,
     0,
     1,
     1
    ]
   },
   "char-29.5": {
    "origin": [
     57.125,
     534.25
    ],
    "max-length": 11,
    "character-spacing": 12,
    "font-color": [
     0,
     0,
     1,
     1
    ]
   },
   "char-34": {
    "origin": [
     214.1875,
     534.25
    ],
    "max-length": 8,
    "character-spacing": 12,
    "font-color": [
     0,
     0,
     1,
     1
    ]
   },
   "char-34.1": {
    "origin": [
     343.125,
     534.25
    ],
    "max-length": 8,
    "character-spacing": 12,
    "font-color": [
     0,
     0,
     1,
     1
    ]
   },
   "char-34.2": {
    "origin": [
     459.125,
     534.25
    ],
    "max-length": 10,
    "character-spacing": 12,
    "font-color": [
     0,
     0,
     1,
     1
    ]
   },
   "char-29.6": {
    "origin": [
     57.125,
     546.25
    ],
    "max-length": 11,
    "character-spacing": 12,
    "font-color": [
     0,
     0,
     1,
     1
    ]
   },
   "char-35": {
    "origin": [
     214.1875,
     546.25
    ],
    "max-length": 8,
    "character-spacing": 12,
    "font-color": [
     0,
     0,
     1,
     1
    ]
   },
   "char-35.1": {
    "origin": [
     343.125,
     546.25
    ],
    "max-length": 8,
    "character-spacing": 12,
    "font-color": [
     0,
     0,
     1,
     1
    ]
   },
   "char-35.2": {
    "origin": [
     459.125,
     546.25
    ],
    "max-length": 10,
    "character-spacing": 12,
    "font-color": [
     0,
     0,
     1,
     1
    ]
   },
   "char-29.7": {
    "origin": [
     57.125,
     558.25
    ],
    "max-length": 11,
    "character-spacing": 12,
    "font-color": [
     0,
     0,
     1,
     1
    ]
   },
   "char-36": {
    "origin": [
     214.1875,
     558.25
    ],
    "max-length": 8,
    "character-spacing": 12,
    "font-color": [
     0,
     0,
     1,
     1
    ]
   },
   "char-36.1": {
    "origin": [
     343.125,
     558.25
    ],
    "max-length": 8,
    "character-spacing": 12,
    "font-color": [
     0,
     0,
     1,
     1
    ]
   },
   "char-36.2": {
    "origin": [
     459.125,
     558.25
    ],
    "max-length": 10,
    "character-spacing": 12,
    "font-color": [
     0,
     0,
     1,
     1
    ]
   },
   "char-29.8": {
    "origin": [
     57.125,
     570.25
    ],
    "max-length": 11,
    "character-spacing": 12,
    "font-color": [
     0,
     0,
     1,
     1
    ]
   },
   "char-37": {
    "origin": [
     214.1875,
     570.25
    ],
    "max-length": 8,
    "character-spacing": 12,
    "font-color": [
     0,
     0,
     1,
     1
    ]
   },
   "char-37.1": {
    "origin": [
     343.125,
     570.25
    ],
    "max-length": 8,
    "character-spacing": 12,
    "font-color": [
     0,
     0,
     1,
     1
    ]
   },
   "char-37.2": {
    "origin": [
     459.125,
     570.25
    ],
    "max-length": 10,
    "character-spacing": 12,
    "font-color": [
     0,
     0,
     1,
     1
    ]
   },
   "char-38.1": {
    "origin": [
     343.125,
     593.625
    ],
    "max-length": 8,
    "character-spacing": 12,
    "font-color": [
     0,
     0,
     1,
     1
    ]
   },
   "char-39": {
    "origin": [
     343.125,
     606.25
    ],
    "max-length": 8,
    "character-spacing": 12,
    "font-color": [
     0,
     0,
     1,
     1
    ]
   },
   "char-40": {
    "origin": [
     343.125,
     638.625
    ],
    "max-length": 8,
    "character-spacing": 12,
    "font-color": [
     0,
     0,
     1,
     1
    ]
   },
   "char-41": {
    "origin": [
     343.125,
     662.875
    ],
    "max-length": 8,
    "character-spacing": 12,
    "font-color": [
     0,
     0,
     1,
     1
    ]
   }
  }
 },
 "2": {
  "size": [
   603.0,
   774.0
  ],
  "fields": {
   "checkbox-99": {
    "bounding-box": [
     551.85,
     380.848,
     11.5,
     11.5
    ],
    "align": "center",
    "align-v": "center",
    "font-color": [
     0,
     0,
     1,
     1
    ]
   },
   "numeric-43": {
    "origin": [
     541.5298,
     89.2255
    ],
    "align": "decimal",
    "format": ".2f",
    "font-size": 9,
    "max-length": 13,
    "font-color": [
     0,
     0,
     1,
     1
    ],
    "character-spacing": 12
   },
   "numeric-45": {
    "origin": [
     541.5298,
     113.2255
    ],
    "align": "decimal",
    "format": ".2f",
    "font-size": 9,
    "max-length": 13,
    "font-color": [
     0,
     0,
     1,
     1
    ],
    "character-spacing": 12
   },
   "numeric-47": {
    "origin": [
     541.5298,
     136.6005
    ],
    "align": "decimal",
    "format": ".2f",
    "font-size": 9,
    "max-length": 13,
    "font-color": [
     0,
     0,
     1,
     1
    ],
    "character-spacing": 12
   },
   "numeric-50": {
    "origin": [
     541.5298,
     160.8505
    ],
    "align": "decimal",
    "format": ".2f",
    "font-size": 9,
    "max-length": 13,
    "font-color": [
     0,
     0,
     1,
     1
    ],
    "character-spacing": 12
   },
   "numeric-76": {
    "origin": [
     545.8614,
     214.8505
    ],
    "align": "decimal",
    "format": ".2f",
    "font-size": 9,
    "max-length": 13,
    "font-color": [
     0,
     0,
     1,
     1
    ],
    "character-spacing": 12
   },
   "numeric-78": {
    "origin": [
     545.8614,
     226.2255
    ],
    "align": "decimal",
    "format": ".2f",
    "font-size": 9,
    "max-length": 13,
    "font-color": [
     0,
     0,
     1,
     1
    ],
    "character-spacing": 12
   },
   "numeric-80": {
    "origin": [
     545.8614,
     250.4755
    ],
    "align": "decimal",
    "format": ".2f",
    "font-size": 9,
    "max-length": 13,
    "font-color": [
     0,
     0,
     1,
     1
    ],
    "character-spacing": 12
   },
   "numeric-85": {
    "origin": [
     547.3332,
     304.4754
    ],
    "align": "decimal",
    "format": ".2f",
    "font-size": 9,
    "max-length": 13,
    "font-color": [
     0,
     0,
     1,
     1
    ],
    "character-spacing": 12
   },
   "numeric-94": {
    "origin": [
     547.3332,
     328.4754
    ],
    "align": "decimal",
    "format": ".2f",
    "font-size": 9,
    "max-length": 13,
    "font-color": [
     0,
     0,
     1,
     1
    ],
    "character-spacing": 12
   },
   "numeric-96": {
    "origin": [
     547.3332,
     339.8504
    ],
    "align": "decimal",
    "format": ".2f",
    "font-size": 9,
    "max-length": 13,
    "font-color": [
     0,
     0,
     1,
     1
    ],
    "character-spacing": 12
   },
   "numeric-98": {
    "origin": [
     547.3332,
     364.1005
    ],
    "align": "decimal",
    "format": ".2f",
    "font-size": 9,
    "max-length": 13,
    "font-color": [
     0,
     0,
     1,
     1
    ],
    "character-spacing": 12
   },
   "char-42": {
    "origin": [
     366.0166,
     87.723
    ],
    "max-length": 2,
    "character-spacing": 12,
    "font-color": [
     0,
     0,
     1,
     1
    ]
   },
   "char-43": {
    "origin": [
     486.0349,
     87.723
    ],
    "max-length": 8,
    "character-spacing": 12,
    "font-color": [
     0,
     0,
     1,
     1
    ]
   },
   "char-44": {
    "origin": [
     366.0165,
     111.723
    ],
    "max-length": 2,
    "character-spacing": 12,
    "font-color": [
     0,
     0,
     1,
     1
    ]
   },
   "char-45": {
    "origin": [
     486.0348,
     111.723
    ],
    "max-length": 8,
    "character-spacing": 12,
    "font-color": [
     0,
     0,
     1,
     1
    ]
   },
   "char-47": {
    "origin": [
     486.0348,
     135.098
    ],
    "max-length": 8,
    "character-spacing": 12,
    "font-color": [
     0,
     0,
     1,
     1
    ]
   },
   "char-46": {
    "origin": [
     366.0165,
     135.723
    ],
    "max-length": 2,
    "character-spacing": 12,
    "font-color": [
     0,
     0,
     1,
     1
    ]
   },
   "char-50": {
    "origin": [
     474.0348,
     159.348
    ],
    "max-length": 9,
    "character-spacing": 12,
    "font-color": [
     0,
     0,
     1,
     1
    ]
   },
   "char-85": {
    "origin": [
     491.8382,
     302.973
    ],
    "max-length": 8,
    "character-spacing": 12,
    "font-color": [
     0,
     0,
     1,
     1
    ]
   },
   "char-94": {
    "origin": [
     491.8382,
     326.973
    ],
    "max-length": 8,
    "character-spacing": 12,
    "font-color": [
     0,
     0,
     1,
     1
    ]
   },
   "char-96": {
    "origin": [
     491.8382,
     338.348
    ],
    "max-length": 8,
    "character-spacing": 12,
    "font-color": [
     0,
     0,
     1,
     1
    ]
   },
   "char-98": {
    "origin": [
     491.8382,
     362.598
    ],
    "max-length": 8,
    "character-spacing": 12,
    "font-color": [
     0,
     0,
     1,
     1
    ]
   }
  }
 }
}